DM Object:Simplicial Mesh 4 MPI processes
  type: plex
Mesh 'Simplicial Mesh':
orientation is missing
cap --> base:
[0] Max sizes cone: 3 support: 5
[0]: 3 ----> 10
[0]: 3 ----> 14
[0]: 3 ----> 18
[0]: 4 ----> 15
[0]: 4 ----> 16
[0]: 5 ----> 10
[0]: 5 ----> 12
[0]: 5 ----> 13
[0]: 5 ----> 19
[0]: 6 ----> 11
[0]: 6 ----> 13
[0]: 6 ----> 14
[0]: 6 ----> 15
[0]: 6 ----> 17
[0]: 7 ----> 16
[0]: 7 ----> 17
[0]: 8 ----> 11
[0]: 8 ----> 12
[0]: 9 ----> 18
[0]: 9 ----> 19
[0]: 10 ----> 1
[0]: 11 ----> 0
[0]: 12 ----> 0
[0]: 13 ----> 0
[0]: 13 ----> 1
[0]: 14 ----> 1
[0]: 15 ----> 2
[0]: 16 ----> 2
[0]: 17 ----> 2
[0]: 18 ----> 1
[0]: 19 ----> 1
[1] Max sizes cone: 3 support: 4
[1]: 3 ----> 9
[1]: 3 ----> 12
[1]: 4 ----> 10
[1]: 4 ----> 12
[1]: 5 ----> 9
[1]: 5 ----> 10
[1]: 5 ----> 11
[1]: 5 ----> 16
[1]: 6 ----> 11
[1]: 6 ----> 13
[1]: 6 ----> 14
[1]: 7 ----> 13
[1]: 7 ----> 15
[1]: 7 ----> 16
[1]: 8 ----> 14
[1]: 8 ----> 15
[1]: 9 ----> 0
[1]: 10 ----> 0
[1]: 11 ----> 2
[1]: 12 ----> 0
[1]: 13 ----> 1
[1]: 13 ----> 2
[1]: 14 ----> 1
[1]: 15 ----> 1
[1]: 16 ----> 2
[2] Max sizes cone: 3 support: 4
[2]: 3 ----> 12
[2]: 3 ----> 14
[2]: 3 ----> 18
[2]: 3 ----> 21
[2]: 4 ----> 12
[2]: 4 ----> 13
[2]: 4 ----> 19
[2]: 4 ----> 20
[2]: 5 ----> 13
[2]: 5 ----> 14
[2]: 6 ----> 15
[2]: 6 ----> 16
[2]: 7 ----> 15
[2]: 7 ----> 17
[2]: 8 ----> 16
[2]: 8 ----> 17
[2]: 9 ----> 18
[2]: 9 ----> 19
[2]: 9 ----> 22
[2]: 9 ----> 23
[2]: 10 ----> 20
[2]: 10 ----> 22
[2]: 11 ----> 21
[2]: 11 ----> 23
[2]: 12 ----> 1
[2]: 12 ----> 2
[2]: 13 ----> 2
[2]: 14 ----> 1
[2]: 15 ----> 0
[2]: 16 ----> 0
[2]: 17 ----> 0
[2]: 18 ----> 1
[2]: 19 ----> 2
[2]: 20 ----> 2
[2]: 21 ----> 1
[2]: 22 ----> 2
[2]: 23 ----> 1
[3] Max sizes cone: 3 support: 4
[3]: 2 ----> 8
[3]: 2 ----> 10
[3]: 3 ----> 8
[3]: 3 ----> 9
[3]: 4 ----> 9
[3]: 4 ----> 10
[3]: 4 ----> 11
[3]: 4 ----> 12
[3]: 5 ----> 13
[3]: 5 ----> 15
[3]: 6 ----> 11
[3]: 6 ----> 13
[3]: 6 ----> 14
[3]: 7 ----> 12
[3]: 7 ----> 14
[3]: 7 ----> 15
[3]: 9 ----> 0
[3]: 10 ----> 0
[3]: 11 ----> 0
[3]: 12 ----> 0
[3]: 13 ----> 1
[3]: 14 ----> 0
[3]: 14 ----> 1
[3]: 15 ----> 1
base <-- cap:
[0]: 0 <---- 11 (0)
[0]: 0 <---- 12 (0)
[0]: 0 <---- 13 (0)
[0]: 1 <---- 10 (-2)
[0]: 1 <---- 14 (0)
[0]: 1 <---- 13 (-2)
[0]: 2 <---- 15 (0)
[0]: 2 <---- 16 (0)
[0]: 2 <---- 17 (0)
[0]: 10 <---- 3 (0)
[0]: 10 <---- 5 (0)
[0]: 11 <---- 6 (0)
[0]: 11 <---- 8 (0)
[0]: 12 <---- 8 (0)
[0]: 12 <---- 5 (0)
[0]: 13 <---- 5 (0)
[0]: 13 <---- 6 (0)
[0]: 14 <---- 3 (0)
[0]: 14 <---- 6 (0)
[0]: 15 <---- 6 (0)
[0]: 15 <---- 4 (0)
[0]: 16 <---- 4 (0)
[0]: 16 <---- 7 (0)
[0]: 17 <---- 7 (0)
[0]: 17 <---- 6 (0)
[0]: 18 <---- 3 (0)
[0]: 18 <---- 9 (0)
[0]: 19 <---- 9 (0)
[0]: 19 <---- 5 (0)
[1]: 0 <---- 10 (-2)
[1]: 0 <---- 9 (-2)
[1]: 0 <---- 12 (0)
[1]: 1 <---- 13 (0)
[1]: 1 <---- 14 (0)
[1]: 1 <---- 15 (0)
[1]: 2 <---- 13 (-2)
[1]: 2 <---- 16 (0)
[1]: 2 <---- 11 (-2)
[1]: 9 <---- 3 (0)
[1]: 9 <---- 5 (0)
[1]: 10 <---- 5 (0)
[1]: 10 <---- 4 (0)
[1]: 11 <---- 6 (0)
[1]: 11 <---- 5 (0)
[1]: 12 <---- 3 (0)
[1]: 12 <---- 4 (0)
[1]: 13 <---- 7 (0)
[1]: 13 <---- 6 (0)
[1]: 14 <---- 6 (0)
[1]: 14 <---- 8 (0)
[1]: 15 <---- 8 (0)
[1]: 15 <---- 7 (0)
[1]: 16 <---- 7 (0)
[1]: 16 <---- 5 (0)
[2]: 0 <---- 16 (-2)
[2]: 0 <---- 17 (0)
[2]: 0 <---- 15 (-2)
[2]: 1 <---- 18 (0)
[2]: 1 <---- 23 (-2)
[2]: 1 <---- 21 (0)
[2]: 2 <---- 19 (0)
[2]: 2 <---- 20 (0)
[2]: 2 <---- 22 (-2)
[2]: 12 <---- 3 (0)
[2]: 12 <---- 4 (0)
[2]: 13 <---- 4 (0)
[2]: 13 <---- 5 (0)
[2]: 14 <---- 5 (0)
[2]: 14 <---- 3 (0)
[2]: 15 <---- 6 (0)
[2]: 15 <---- 7 (0)
[2]: 16 <---- 8 (0)
[2]: 16 <---- 6 (0)
[2]: 17 <---- 8 (0)
[2]: 17 <---- 7 (0)
[2]: 18 <---- 3 (0)
[2]: 18 <---- 9 (0)
[2]: 19 <---- 9 (0)
[2]: 19 <---- 4 (0)
[2]: 20 <---- 4 (0)
[2]: 20 <---- 10 (0)
[2]: 21 <---- 11 (0)
[2]: 21 <---- 3 (0)
[2]: 22 <---- 9 (0)
[2]: 22 <---- 10 (0)
[2]: 23 <---- 11 (0)
[2]: 23 <---- 9 (0)
[3]: 0 <---- 14 (-2)
[3]: 0 <---- 11 (0)
[3]: 0 <---- 12 (0)
[3]: 1 <---- 13 (0)
[3]: 1 <---- 14 (0)
[3]: 1 <---- 15 (0)
[3]: 8 <---- 2 (0)
[3]: 8 <---- 3 (0)
[3]: 9 <---- 3 (0)
[3]: 9 <---- 4 (0)
[3]: 10 <---- 4 (0)
[3]: 10 <---- 2 (0)
[3]: 11 <---- 6 (0)
[3]: 11 <---- 4 (0)
[3]: 12 <---- 4 (0)
[3]: 12 <---- 7 (0)
[3]: 13 <---- 5 (0)
[3]: 13 <---- 6 (0)
[3]: 14 <---- 6 (0)
[3]: 14 <---- 7 (0)
[3]: 15 <---- 7 (0)
[3]: 15 <---- 5 (0)
coordinates with 1 fields
  field 0 with 2 components
Process 0:
  (   3) dim  2 offset   0 0.5 0
  (   4) dim  2 offset   2 1 0
  (   5) dim  2 offset   4 0 0.5
  (   6) dim  2 offset   6 0.5 0.5
  (   7) dim  2 offset   8 1 0.5
  (   8) dim  2 offset  10 0 1
  (   9) dim  2 offset  12 0.25 0.25
Process 1:
  (   3) dim  2 offset   0 0.5 0
  (   4) dim  2 offset   2 1 0
  (   5) dim  2 offset   4 0.5 0.5
  (   6) dim  2 offset   6 1 0.5
  (   7) dim  2 offset   8 0.5 1
  (   8) dim  2 offset  10 1 1
Process 2:
  (   3) dim  2 offset   0 0 0
  (   4) dim  2 offset   2 0.5 0
  (   5) dim  2 offset   4 0 0.5
  (   6) dim  2 offset   6 0.5 0.5
  (   7) dim  2 offset   8 0 1
  (   8) dim  2 offset  10 0.5 1
  (   9) dim  2 offset  12 0.25 0
  (  10) dim  2 offset  14 0.25 0.25
  (  11) dim  2 offset  16 0 0.25
Process 3:
  (   2) dim  2 offset   0 0 0
  (   3) dim  2 offset   2 0.5 0
  (   4) dim  2 offset   4 0 0.5
  (   5) dim  2 offset   6 0.25 0
  (   6) dim  2 offset   8 0.25 0.25
  (   7) dim  2 offset  10 0 0.25
PetscSF Object: 4 MPI processes
  type: basic
    sort=rank-order
  [0] Number of roots=20, leaves=14, remote ranks=3
  [0] 3 <- (3,3)
  [0] 4 <- (1,4)
  [0] 5 <- (3,4)
  [0] 6 <- (2,6)
  [0] 7 <- (1,6)
  [0] 8 <- (2,7)
  [0] 9 <- (3,6)
  [0] 10 <- (3,9)
  [0] 11 <- (2,15)
  [0] 14 <- (1,9)
  [0] 15 <- (1,10)
  [0] 17 <- (1,11)
  [0] 18 <- (2,20)
  [0] 19 <- (3,11)
  [1] Number of roots=17, leaves=4, remote ranks=2
  [1] 3 <- (3,3)
  [1] 5 <- (2,6)
  [1] 7 <- (2,8)
  [1] 16 <- (2,16)
  [2] Number of roots=24, leaves=11, remote ranks=1
  [2] 3 <- (3,2)
  [2] 4 <- (3,3)
  [2] 5 <- (3,4)
  [2] 9 <- (3,5)
  [2] 10 <- (3,6)
  [2] 11 <- (3,7)
  [2] 12 <- (3,8)
  [2] 13 <- (3,9)
  [2] 14 <- (3,10)
  [2] 22 <- (3,13)
  [2] 23 <- (3,15)
  [3] Number of roots=16, leaves=0, remote ranks=0
  [0] Roots referenced by my leaves, by rank
  [0] 1: 5 edges
  [0]    4 <- 4
  [0]    7 <- 6
  [0]    14 <- 9
  [0]    15 <- 10
  [0]    17 <- 11
  [0] 2: 4 edges
  [0]    6 <- 6
  [0]    8 <- 7
  [0]    11 <- 15
  [0]    18 <- 20
  [0] 3: 5 edges
  [0]    3 <- 3
  [0]    5 <- 4
  [0]    9 <- 6
  [0]    10 <- 9
  [0]    19 <- 11
  [1] Roots referenced by my leaves, by rank
  [1] 2: 3 edges
  [1]    5 <- 6
  [1]    7 <- 8
  [1]    16 <- 16
  [1] 3: 1 edges
  [1]    3 <- 3
  [2] Roots referenced by my leaves, by rank
  [2] 3: 11 edges
  [2]    3 <- 2
  [2]    4 <- 3
  [2]    5 <- 4
  [2]    9 <- 5
  [2]    10 <- 6
  [2]    11 <- 7
  [2]    12 <- 8
  [2]    13 <- 9
  [2]    14 <- 10
  [2]    22 <- 13
  [2]    23 <- 15
  [3] Roots referenced by my leaves, by rank
Symmetric gradient null space: PASS
Function tests pass for order 0 at tolerance 1e-10
Function tests pass for order 0 derivatives at tolerance 1e-10
