DM Object:Hybrid Mesh 1 MPI processes
  type: plex
Mesh 'Hybrid Mesh':
Max sizes cone: 4 support: 10
orientation is missing
cap --> base:
[0]: 16 ----> 74
[0]: 16 ----> 79
[0]: 16 ----> 80
[0]: 17 ----> 77
[0]: 17 ----> 78
[0]: 17 ----> 84
[0]: 17 ----> 86
[0]: 18 ----> 75
[0]: 18 ----> 76
[0]: 18 ----> 83
[0]: 18 ----> 90
[0]: 19 ----> 81
[0]: 19 ----> 82
[0]: 19 ----> 85
[0]: 19 ----> 89
[0]: 20 ----> 87
[0]: 20 ----> 88
[0]: 20 ----> 91
[0]: 21 ----> 74
[0]: 21 ----> 75
[0]: 21 ----> 92
[0]: 21 ----> 94
[0]: 21 ----> 97
[0]: 21 ----> 96
[0]: 21 ----> 113
[0]: 22 ----> 76
[0]: 22 ----> 77
[0]: 22 ----> 93
[0]: 22 ----> 92
[0]: 22 ----> 101
[0]: 22 ----> 103
[0]: 22 ----> 107
[0]: 22 ----> 109
[0]: 23 ----> 78
[0]: 23 ----> 79
[0]: 23 ----> 94
[0]: 23 ----> 93
[0]: 23 ----> 98
[0]: 23 ----> 100
[0]: 24 ----> 80
[0]: 24 ----> 81
[0]: 24 ----> 95
[0]: 24 ----> 97
[0]: 24 ----> 100
[0]: 24 ----> 99
[0]: 25 ----> 82
[0]: 25 ----> 83
[0]: 25 ----> 96
[0]: 25 ----> 95
[0]: 25 ----> 102
[0]: 25 ----> 101
[0]: 25 ----> 110
[0]: 25 ----> 112
[0]: 26 ----> 84
[0]: 26 ----> 85
[0]: 26 ----> 99
[0]: 26 ----> 98
[0]: 26 ----> 103
[0]: 26 ----> 102
[0]: 26 ----> 106
[0]: 26 ----> 105
[0]: 26 ----> 113
[0]: 26 ----> 114
[0]: 27 ----> 86
[0]: 27 ----> 87
[0]: 27 ----> 104
[0]: 27 ----> 106
[0]: 27 ----> 109
[0]: 27 ----> 108
[0]: 28 ----> 88
[0]: 28 ----> 89
[0]: 28 ----> 105
[0]: 28 ----> 104
[0]: 28 ----> 111
[0]: 28 ----> 110
[0]: 29 ----> 90
[0]: 29 ----> 91
[0]: 29 ----> 108
[0]: 29 ----> 107
[0]: 29 ----> 112
[0]: 29 ----> 111
[0]: 29 ----> 114
[0]: 30 ----> 0
[0]: 31 ----> 1
[0]: 32 ----> 2
[0]: 33 ----> 6
[0]: 34 ----> 0
[0]: 35 ----> 3
[0]: 36 ----> 1
[0]: 37 ----> 7
[0]: 38 ----> 0
[0]: 39 ----> 2
[0]: 40 ----> 3
[0]: 41 ----> 4
[0]: 42 ----> 2
[0]: 42 ----> 8
[0]: 43 ----> 1
[0]: 43 ----> 10
[0]: 44 ----> 3
[0]: 44 ----> 9
[0]: 45 ----> 5
[0]: 45 ----> 14
[0]: 46 ----> 8
[0]: 47 ----> 11
[0]: 48 ----> 9
[0]: 49 ----> 15
[0]: 50 ----> 8
[0]: 51 ----> 10
[0]: 52 ----> 11
[0]: 53 ----> 12
[0]: 54 ----> 10
[0]: 55 ----> 9
[0]: 56 ----> 11
[0]: 57 ----> 13
[0]: 58 ----> 0
[0]: 58 ----> 4
[0]: 59 ----> 1
[0]: 59 ----> 5
[0]: 60 ----> 2
[0]: 60 ----> 6
[0]: 61 ----> 3
[0]: 61 ----> 7
[0]: 62 ----> 4
[0]: 62 ----> 7
[0]: 63 ----> 4
[0]: 63 ----> 6
[0]: 64 ----> 5
[0]: 64 ----> 7
[0]: 65 ----> 5
[0]: 65 ----> 6
[0]: 66 ----> 8
[0]: 66 ----> 12
[0]: 67 ----> 9
[0]: 67 ----> 13
[0]: 68 ----> 10
[0]: 68 ----> 14
[0]: 69 ----> 11
[0]: 69 ----> 15
[0]: 70 ----> 12
[0]: 70 ----> 15
[0]: 71 ----> 12
[0]: 71 ----> 14
[0]: 72 ----> 13
[0]: 72 ----> 15
[0]: 73 ----> 13
[0]: 73 ----> 14
[0]: 74 ----> 30
[0]: 74 ----> 34
[0]: 75 ----> 31
[0]: 75 ----> 36
[0]: 76 ----> 31
[0]: 76 ----> 43
[0]: 76 ----> 51
[0]: 77 ----> 32
[0]: 77 ----> 42
[0]: 77 ----> 50
[0]: 78 ----> 32
[0]: 78 ----> 39
[0]: 79 ----> 30
[0]: 79 ----> 38
[0]: 80 ----> 34
[0]: 80 ----> 38
[0]: 81 ----> 35
[0]: 81 ----> 40
[0]: 82 ----> 35
[0]: 82 ----> 44
[0]: 82 ----> 55
[0]: 83 ----> 36
[0]: 83 ----> 43
[0]: 83 ----> 54
[0]: 84 ----> 39
[0]: 84 ----> 42
[0]: 84 ----> 46
[0]: 85 ----> 40
[0]: 85 ----> 44
[0]: 85 ----> 48
[0]: 86 ----> 46
[0]: 86 ----> 50
[0]: 87 ----> 47
[0]: 87 ----> 52
[0]: 88 ----> 47
[0]: 88 ----> 56
[0]: 89 ----> 48
[0]: 89 ----> 55
[0]: 90 ----> 51
[0]: 90 ----> 54
[0]: 91 ----> 52
[0]: 91 ----> 56
[0]: 92 ----> 31
[0]: 92 ----> 33
[0]: 92 ----> 59
[0]: 92 ----> 65
[0]: 93 ----> 32
[0]: 93 ----> 33
[0]: 93 ----> 60
[0]: 94 ----> 30
[0]: 94 ----> 33
[0]: 94 ----> 58
[0]: 94 ----> 63
[0]: 95 ----> 35
[0]: 95 ----> 37
[0]: 95 ----> 61
[0]: 96 ----> 36
[0]: 96 ----> 37
[0]: 96 ----> 59
[0]: 96 ----> 64
[0]: 97 ----> 34
[0]: 97 ----> 37
[0]: 97 ----> 58
[0]: 97 ----> 62
[0]: 98 ----> 39
[0]: 98 ----> 41
[0]: 98 ----> 60
[0]: 98 ----> 63
[0]: 99 ----> 40
[0]: 99 ----> 41
[0]: 99 ----> 61
[0]: 99 ----> 62
[0]: 100 ----> 38
[0]: 100 ----> 41
[0]: 100 ----> 58
[0]: 101 ----> 43
[0]: 101 ----> 45
[0]: 101 ----> 59
[0]: 101 ----> 68
[0]: 102 ----> 44
[0]: 102 ----> 45
[0]: 102 ----> 61
[0]: 102 ----> 64
[0]: 102 ----> 67
[0]: 102 ----> 73
[0]: 103 ----> 42
[0]: 103 ----> 45
[0]: 103 ----> 60
[0]: 103 ----> 65
[0]: 103 ----> 66
[0]: 103 ----> 71
[0]: 104 ----> 47
[0]: 104 ----> 49
[0]: 104 ----> 69
[0]: 105 ----> 48
[0]: 105 ----> 49
[0]: 105 ----> 67
[0]: 105 ----> 72
[0]: 106 ----> 46
[0]: 106 ----> 49
[0]: 106 ----> 66
[0]: 106 ----> 70
[0]: 107 ----> 51
[0]: 107 ----> 53
[0]: 107 ----> 68
[0]: 107 ----> 71
[0]: 108 ----> 52
[0]: 108 ----> 53
[0]: 108 ----> 69
[0]: 108 ----> 70
[0]: 109 ----> 50
[0]: 109 ----> 53
[0]: 109 ----> 66
[0]: 110 ----> 55
[0]: 110 ----> 57
[0]: 110 ----> 67
[0]: 111 ----> 56
[0]: 111 ----> 57
[0]: 111 ----> 69
[0]: 111 ----> 72
[0]: 112 ----> 54
[0]: 112 ----> 57
[0]: 112 ----> 68
[0]: 112 ----> 73
[0]: 113 ----> 62
[0]: 113 ----> 63
[0]: 113 ----> 64
[0]: 113 ----> 65
[0]: 114 ----> 70
[0]: 114 ----> 71
[0]: 114 ----> 72
[0]: 114 ----> 73
base <-- cap:
[0]: 0 <---- 30 (0)
[0]: 0 <---- 34 (0)
[0]: 0 <---- 38 (0)
[0]: 0 <---- 58 (0)
[0]: 1 <---- 31 (0)
[0]: 1 <---- 36 (0)
[0]: 1 <---- 59 (0)
[0]: 1 <---- 43 (0)
[0]: 2 <---- 32 (0)
[0]: 2 <---- 60 (0)
[0]: 2 <---- 39 (0)
[0]: 2 <---- 42 (0)
[0]: 3 <---- 61 (0)
[0]: 3 <---- 35 (0)
[0]: 3 <---- 40 (0)
[0]: 3 <---- 44 (0)
[0]: 4 <---- 58 (-3)
[0]: 4 <---- 41 (0)
[0]: 4 <---- 63 (0)
[0]: 4 <---- 62 (2)
[0]: 5 <---- 59 (-2)
[0]: 5 <---- 45 (1)
[0]: 5 <---- 64 (0)
[0]: 5 <---- 65 (0)
[0]: 6 <---- 63 (-2)
[0]: 6 <---- 65 (-2)
[0]: 6 <---- 60 (-1)
[0]: 6 <---- 33 (2)
[0]: 7 <---- 64 (-2)
[0]: 7 <---- 62 (-1)
[0]: 7 <---- 61 (-2)
[0]: 7 <---- 37 (1)
[0]: 8 <---- 42 (-3)
[0]: 8 <---- 46 (0)
[0]: 8 <---- 50 (0)
[0]: 8 <---- 66 (0)
[0]: 9 <---- 44 (-3)
[0]: 9 <---- 48 (0)
[0]: 9 <---- 67 (0)
[0]: 9 <---- 55 (0)
[0]: 10 <---- 43 (-3)
[0]: 10 <---- 68 (0)
[0]: 10 <---- 51 (0)
[0]: 10 <---- 54 (0)
[0]: 11 <---- 69 (0)
[0]: 11 <---- 47 (0)
[0]: 11 <---- 52 (0)
[0]: 11 <---- 56 (0)
[0]: 12 <---- 66 (-3)
[0]: 12 <---- 53 (0)
[0]: 12 <---- 71 (0)
[0]: 12 <---- 70 (2)
[0]: 13 <---- 67 (-2)
[0]: 13 <---- 57 (1)
[0]: 13 <---- 72 (0)
[0]: 13 <---- 73 (0)
[0]: 14 <---- 71 (-2)
[0]: 14 <---- 73 (-2)
[0]: 14 <---- 68 (-1)
[0]: 14 <---- 45 (-3)
[0]: 15 <---- 72 (-2)
[0]: 15 <---- 70 (-1)
[0]: 15 <---- 69 (-2)
[0]: 15 <---- 49 (1)
[0]: 30 <---- 74 (0)
[0]: 30 <---- 94 (-2)
[0]: 30 <---- 79 (0)
[0]: 31 <---- 75 (0)
[0]: 31 <---- 76 (0)
[0]: 31 <---- 92 (-2)
[0]: 32 <---- 93 (-2)
[0]: 32 <---- 77 (0)
[0]: 32 <---- 78 (0)
[0]: 33 <---- 92 (0)
[0]: 33 <---- 93 (0)
[0]: 33 <---- 94 (0)
[0]: 34 <---- 80 (0)
[0]: 34 <---- 97 (-2)
[0]: 34 <---- 74 (-2)
[0]: 35 <---- 81 (0)
[0]: 35 <---- 82 (0)
[0]: 35 <---- 95 (-2)
[0]: 36 <---- 96 (-2)
[0]: 36 <---- 83 (0)
[0]: 36 <---- 75 (-2)
[0]: 37 <---- 95 (0)
[0]: 37 <---- 96 (0)
[0]: 37 <---- 97 (0)
[0]: 38 <---- 79 (-2)
[0]: 38 <---- 100 (-2)
[0]: 38 <---- 80 (-2)
[0]: 39 <---- 78 (-2)
[0]: 39 <---- 84 (0)
[0]: 39 <---- 98 (-2)
[0]: 40 <---- 99 (-2)
[0]: 40 <---- 85 (0)
[0]: 40 <---- 81 (-2)
[0]: 41 <---- 98 (0)
[0]: 41 <---- 99 (0)
[0]: 41 <---- 100 (0)
[0]: 42 <---- 77 (-2)
[0]: 42 <---- 103 (-2)
[0]: 42 <---- 84 (-2)
[0]: 43 <---- 76 (-2)
[0]: 43 <---- 83 (-2)
[0]: 43 <---- 101 (-2)
[0]: 44 <---- 102 (-2)
[0]: 44 <---- 82 (-2)
[0]: 44 <---- 85 (-2)
[0]: 45 <---- 101 (0)
[0]: 45 <---- 102 (0)
[0]: 45 <---- 103 (0)
[0]: 46 <---- 86 (0)
[0]: 46 <---- 106 (-2)
[0]: 46 <---- 84 (-2)
[0]: 47 <---- 87 (0)
[0]: 47 <---- 88 (0)
[0]: 47 <---- 104 (-2)
[0]: 48 <---- 105 (-2)
[0]: 48 <---- 89 (0)
[0]: 48 <---- 85 (-2)
[0]: 49 <---- 104 (0)
[0]: 49 <---- 105 (0)
[0]: 49 <---- 106 (0)
[0]: 50 <---- 77 (-2)
[0]: 50 <---- 109 (-2)
[0]: 50 <---- 86 (-2)
[0]: 51 <---- 76 (-2)
[0]: 51 <---- 90 (0)
[0]: 51 <---- 107 (-2)
[0]: 52 <---- 108 (-2)
[0]: 52 <---- 91 (0)
[0]: 52 <---- 87 (-2)
[0]: 53 <---- 107 (0)
[0]: 53 <---- 108 (0)
[0]: 53 <---- 109 (0)
[0]: 54 <---- 83 (-2)
[0]: 54 <---- 112 (-2)
[0]: 54 <---- 90 (-2)
[0]: 55 <---- 82 (-2)
[0]: 55 <---- 89 (-2)
[0]: 55 <---- 110 (-2)
[0]: 56 <---- 111 (-2)
[0]: 56 <---- 88 (-2)
[0]: 56 <---- 91 (-2)
[0]: 57 <---- 110 (0)
[0]: 57 <---- 111 (0)
[0]: 57 <---- 112 (0)
[0]: 58 <---- 94 (0)
[0]: 58 <---- 97 (0)
[0]: 58 <---- 100 (0)
[0]: 59 <---- 92 (0)
[0]: 59 <---- 101 (0)
[0]: 59 <---- 96 (0)
[0]: 60 <---- 98 (0)
[0]: 60 <---- 103 (0)
[0]: 60 <---- 93 (0)
[0]: 61 <---- 95 (0)
[0]: 61 <---- 102 (0)
[0]: 61 <---- 99 (0)
[0]: 62 <---- 99 (-2)
[0]: 62 <---- 113 (-2)
[0]: 62 <---- 97 (0)
[0]: 63 <---- 94 (0)
[0]: 63 <---- 113 (0)
[0]: 63 <---- 98 (-2)
[0]: 64 <---- 96 (0)
[0]: 64 <---- 113 (0)
[0]: 64 <---- 102 (-2)
[0]: 65 <---- 92 (0)
[0]: 65 <---- 103 (-2)
[0]: 65 <---- 113 (-2)
[0]: 66 <---- 103 (-2)
[0]: 66 <---- 106 (0)
[0]: 66 <---- 109 (0)
[0]: 67 <---- 102 (-2)
[0]: 67 <---- 110 (0)
[0]: 67 <---- 105 (0)
[0]: 68 <---- 107 (0)
[0]: 68 <---- 112 (0)
[0]: 68 <---- 101 (-2)
[0]: 69 <---- 104 (0)
[0]: 69 <---- 111 (0)
[0]: 69 <---- 108 (0)
[0]: 70 <---- 108 (-2)
[0]: 70 <---- 114 (-2)
[0]: 70 <---- 106 (0)
[0]: 71 <---- 103 (-2)
[0]: 71 <---- 114 (0)
[0]: 71 <---- 107 (-2)
[0]: 72 <---- 105 (0)
[0]: 72 <---- 114 (0)
[0]: 72 <---- 111 (-2)
[0]: 73 <---- 102 (-2)
[0]: 73 <---- 112 (-2)
[0]: 73 <---- 114 (-2)
[0]: 74 <---- 16 (0)
[0]: 74 <---- 21 (0)
[0]: 75 <---- 21 (0)
[0]: 75 <---- 18 (0)
[0]: 76 <---- 18 (0)
[0]: 76 <---- 22 (0)
[0]: 77 <---- 22 (0)
[0]: 77 <---- 17 (0)
[0]: 78 <---- 17 (0)
[0]: 78 <---- 23 (0)
[0]: 79 <---- 23 (0)
[0]: 79 <---- 16 (0)
[0]: 80 <---- 16 (0)
[0]: 80 <---- 24 (0)
[0]: 81 <---- 24 (0)
[0]: 81 <---- 19 (0)
[0]: 82 <---- 19 (0)
[0]: 82 <---- 25 (0)
[0]: 83 <---- 25 (0)
[0]: 83 <---- 18 (0)
[0]: 84 <---- 17 (0)
[0]: 84 <---- 26 (0)
[0]: 85 <---- 26 (0)
[0]: 85 <---- 19 (0)
[0]: 86 <---- 17 (0)
[0]: 86 <---- 27 (0)
[0]: 87 <---- 27 (0)
[0]: 87 <---- 20 (0)
[0]: 88 <---- 20 (0)
[0]: 88 <---- 28 (0)
[0]: 89 <---- 28 (0)
[0]: 89 <---- 19 (0)
[0]: 90 <---- 18 (0)
[0]: 90 <---- 29 (0)
[0]: 91 <---- 29 (0)
[0]: 91 <---- 20 (0)
[0]: 92 <---- 21 (0)
[0]: 92 <---- 22 (0)
[0]: 93 <---- 22 (0)
[0]: 93 <---- 23 (0)
[0]: 94 <---- 23 (0)
[0]: 94 <---- 21 (0)
[0]: 95 <---- 24 (0)
[0]: 95 <---- 25 (0)
[0]: 96 <---- 25 (0)
[0]: 96 <---- 21 (0)
[0]: 97 <---- 21 (0)
[0]: 97 <---- 24 (0)
[0]: 98 <---- 23 (0)
[0]: 98 <---- 26 (0)
[0]: 99 <---- 26 (0)
[0]: 99 <---- 24 (0)
[0]: 100 <---- 24 (0)
[0]: 100 <---- 23 (0)
[0]: 101 <---- 22 (0)
[0]: 101 <---- 25 (0)
[0]: 102 <---- 25 (0)
[0]: 102 <---- 26 (0)
[0]: 103 <---- 26 (0)
[0]: 103 <---- 22 (0)
[0]: 104 <---- 27 (0)
[0]: 104 <---- 28 (0)
[0]: 105 <---- 28 (0)
[0]: 105 <---- 26 (0)
[0]: 106 <---- 26 (0)
[0]: 106 <---- 27 (0)
[0]: 107 <---- 22 (0)
[0]: 107 <---- 29 (0)
[0]: 108 <---- 29 (0)
[0]: 108 <---- 27 (0)
[0]: 109 <---- 27 (0)
[0]: 109 <---- 22 (0)
[0]: 110 <---- 25 (0)
[0]: 110 <---- 28 (0)
[0]: 111 <---- 28 (0)
[0]: 111 <---- 29 (0)
[0]: 112 <---- 29 (0)
[0]: 112 <---- 25 (0)
[0]: 113 <---- 21 (0)
[0]: 113 <---- 26 (0)
[0]: 114 <---- 26 (0)
[0]: 114 <---- 29 (0)
coordinates with 1 fields
  field 0 with 3 components
Process 0:
  (  16) dim  3 offset   0 0 0 -0.5
  (  17) dim  3 offset   3 0 -0.5 0
  (  18) dim  3 offset   6 1 0 0
  (  19) dim  3 offset   9 0 0.5 0
  (  20) dim  3 offset  12 0 0 0.5
  (  21) dim  3 offset  15 0.5 0 -0.25
  (  22) dim  3 offset  18 0.5 -0.25 0
  (  23) dim  3 offset  21 0 -0.25 -0.25
  (  24) dim  3 offset  24 0 0.25 -0.25
  (  25) dim  3 offset  27 0.5 0.25 0
  (  26) dim  3 offset  30 0 0 0
  (  27) dim  3 offset  33 0 -0.25 0.25
  (  28) dim  3 offset  36 0 0.25 0.25
  (  29) dim  3 offset  39 0.5 0 0.25