DM Object:Parallel Mesh 2 MPI processes
  type: plex
Mesh 'Parallel Mesh':
Max sizes cone: 4 support: 3
orientation is missing
cap --> base:
[0]: 1 ----> 9
[0]: 1 ----> 10
[0]: 1 ----> 11
[0]: 2 ----> 10
[0]: 2 ----> 12
[0]: 2 ----> 13
[0]: 3 ----> 11
[0]: 3 ----> 12
[0]: 3 ----> 14
[0]: 4 ----> 9
[0]: 4 ----> 13
[0]: 4 ----> 14
[0]: 5 ----> 0
[0]: 6 ----> 0
[0]: 7 ----> 0
[0]: 8 ----> 0
[0]: 9 ----> 5
[0]: 9 ----> 6
[0]: 10 ----> 5
[0]: 10 ----> 7
[0]: 11 ----> 6
[0]: 11 ----> 7
[0]: 12 ----> 7
[0]: 12 ----> 8
[0]: 13 ----> 5
[0]: 13 ----> 8
[0]: 14 ----> 6
[0]: 14 ----> 8
Max sizes cone: 5 support: 4
[1]: 2 ----> 20
[1]: 2 ----> 21
[1]: 2 ----> 22
[1]: 3 ----> 17
[1]: 3 ----> 18
[1]: 3 ----> 21
[1]: 3 ----> 26
[1]: 4 ----> 17
[1]: 4 ----> 19
[1]: 4 ----> 20
[1]: 4 ----> 27
[1]: 5 ----> 18
[1]: 5 ----> 19
[1]: 5 ----> 22
[1]: 5 ----> 28
[1]: 6 ----> 23
[1]: 6 ----> 24
[1]: 6 ----> 26
[1]: 7 ----> 23
[1]: 7 ----> 25
[1]: 7 ----> 27
[1]: 8 ----> 24
[1]: 8 ----> 25
[1]: 8 ----> 28
[1]: 9 ----> 0
[1]: 9 ----> 1
[1]: 10 ----> 0
[1]: 11 ----> 0
[1]: 12 ----> 0
[1]: 13 ----> 1
[1]: 14 ----> 1
[1]: 15 ----> 1
[1]: 16 ----> 1
[1]: 17 ----> 9
[1]: 17 ----> 10
[1]: 17 ----> 14
[1]: 18 ----> 9
[1]: 18 ----> 12
[1]: 18 ----> 15
[1]: 19 ----> 9
[1]: 19 ----> 11
[1]: 19 ----> 16
[1]: 20 ----> 10
[1]: 20 ----> 11
[1]: 21 ----> 10
[1]: 21 ----> 12
[1]: 22 ----> 11
[1]: 22 ----> 12
[1]: 23 ----> 13
[1]: 23 ----> 14
[1]: 24 ----> 13
[1]: 24 ----> 15
[1]: 25 ----> 13
[1]: 25 ----> 16
[1]: 26 ----> 14
[1]: 26 ----> 15
[1]: 27 ----> 14
[1]: 27 ----> 16
[1]: 28 ----> 15
[1]: 28 ----> 16
base <-- cap:
[0]: 0 <---- 8 (-2)
[0]: 0 <---- 5 (0)
[0]: 0 <---- 6 (0)
[0]: 0 <---- 7 (0)
[0]: 5 <---- 9 (0)
[0]: 5 <---- 10 (0)
[0]: 5 <---- 13 (0)
[0]: 6 <---- 14 (0)
[0]: 6 <---- 11 (0)
[0]: 6 <---- 9 (-2)
[0]: 7 <---- 12 (0)
[0]: 7 <---- 10 (-2)
[0]: 7 <---- 11 (-2)
[0]: 8 <---- 12 (0)
[0]: 8 <---- 13 (0)
[0]: 8 <---- 14 (0)
[0]: 9 <---- 4 (0)
[0]: 9 <---- 1 (0)
[0]: 10 <---- 1 (0)
[0]: 10 <---- 2 (0)
[0]: 11 <---- 3 (0)
[0]: 11 <---- 1 (0)
[0]: 12 <---- 3 (0)
[0]: 12 <---- 2 (0)
[0]: 13 <---- 2 (0)
[0]: 13 <---- 4 (0)
[0]: 14 <---- 4 (0)
[0]: 14 <---- 3 (0)
[1]: 0 <---- 9 (0)
[1]: 0 <---- 10 (0)
[1]: 0 <---- 11 (0)
[1]: 0 <---- 12 (0)
[1]: 1 <---- 9 (0)
[1]: 1 <---- 13 (0)
[1]: 1 <---- 14 (0)
[1]: 1 <---- 15 (0)
[1]: 1 <---- 16 (0)
[1]: 9 <---- 17 (0)
[1]: 9 <---- 18 (0)
[1]: 9 <---- 19 (0)
[1]: 10 <---- 20 (0)
[1]: 10 <---- 21 (0)
[1]: 10 <---- 17 (-2)
[1]: 11 <---- 19 (-2)
[1]: 11 <---- 22 (0)
[1]: 11 <---- 20 (-2)
[1]: 12 <---- 18 (-2)
[1]: 12 <---- 21 (-2)
[1]: 12 <---- 22 (-2)
[1]: 13 <---- 23 (0)
[1]: 13 <---- 24 (0)
[1]: 13 <---- 25 (0)
[1]: 14 <---- 17 (0)
[1]: 14 <---- 23 (0)
[1]: 14 <---- 27 (0)
[1]: 14 <---- 26 (0)
[1]: 15 <---- 18 (0)
[1]: 15 <---- 24 (0)
[1]: 15 <---- 26 (0)
[1]: 15 <---- 28 (0)
[1]: 16 <---- 19 (0)
[1]: 16 <---- 25 (0)
[1]: 16 <---- 28 (0)
[1]: 16 <---- 27 (0)
[1]: 17 <---- 4 (0)
[1]: 17 <---- 3 (0)
[1]: 18 <---- 3 (0)
[1]: 18 <---- 5 (0)
[1]: 19 <---- 5 (0)
[1]: 19 <---- 4 (0)
[1]: 20 <---- 4 (0)
[1]: 20 <---- 2 (0)
[1]: 21 <---- 2 (0)
[1]: 21 <---- 3 (0)
[1]: 22 <---- 5 (0)
[1]: 22 <---- 2 (0)
[1]: 23 <---- 7 (0)
[1]: 23 <---- 6 (0)
[1]: 24 <---- 6 (0)
[1]: 24 <---- 8 (0)
[1]: 25 <---- 8 (0)
[1]: 25 <---- 7 (0)
[1]: 26 <---- 3 (0)
[1]: 26 <---- 6 (0)
[1]: 27 <---- 4 (0)
[1]: 27 <---- 7 (0)
[1]: 28 <---- 5 (0)
[1]: 28 <---- 8 (0)
coordinates with 1 fields
  field 0 with 3 components
Process 0:
  (   1) dim  3 offset   0 1 0 0
  (   2) dim  3 offset   3 0 -1 0
  (   3) dim  3 offset   6 0 0 1
  (   4) dim  3 offset   9 0 1 0
Process 1:
  (   2) dim  3 offset   0 -1 0 0
  (   3) dim  3 offset   3 0 -1 0
  (   4) dim  3 offset   6 0 0 1
  (   5) dim  3 offset   9 0 1 0
  (   6) dim  3 offset  12 0 -1 0
  (   7) dim  3 offset  15 0 0 1
  (   8) dim  3 offset  18 0 1 0
PetscSF Object: 2 MPI processes
  type: basic
    sort=rank-order
  [0] Number of roots=15, leaves=7, remote ranks=1
  [0] 2 <- (1,6)
  [0] 3 <- (1,7)
  [0] 4 <- (1,8)
  [0] 8 <- (1,13)
  [0] 12 <- (1,23)
  [0] 13 <- (1,24)
  [0] 14 <- (1,25)
  [1] Number of roots=29, leaves=0, remote ranks=0
  [0] Roots referenced by my leaves, by rank
  [0] 1: 7 edges
  [0]    2 <- 6
  [0]    3 <- 7
  [0]    4 <- 8
  [0]    8 <- 13
  [0]    12 <- 23
  [0]    13 <- 24
  [0]    14 <- 25
  [1] Roots referenced by my leaves, by rank
DM Object:Hybrid Mesh 2 MPI processes
  type: plex
Mesh 'Hybrid Mesh':
Max sizes cone: 4 support: 7
orientation is missing
cap --> base:
[0]: 8 ----> 43
[0]: 8 ----> 44
[0]: 8 ----> 47
[0]: 9 ----> 45
[0]: 9 ----> 49
[0]: 9 ----> 50
[0]: 10 ----> 46
[0]: 10 ----> 48
[0]: 10 ----> 53
[0]: 11 ----> 42
[0]: 11 ----> 51
[0]: 11 ----> 52
[0]: 12 ----> 42
[0]: 12 ----> 43
[0]: 12 ----> 54
[0]: 12 ----> 56
[0]: 12 ----> 59
[0]: 12 ----> 58
[0]: 13 ----> 44
[0]: 13 ----> 45
[0]: 13 ----> 55
[0]: 13 ----> 54
[0]: 13 ----> 61
[0]: 13 ----> 60
[0]: 14 ----> 46
[0]: 14 ----> 47
[0]: 14 ----> 58
[0]: 14 ----> 57
[0]: 14 ----> 62
[0]: 14 ----> 61
[0]: 14 ----> 66
[0]: 15 ----> 48
[0]: 15 ----> 49
[0]: 15 ----> 60
[0]: 15 ----> 62
[0]: 15 ----> 63
[0]: 15 ----> 65
[0]: 16 ----> 50
[0]: 16 ----> 51
[0]: 16 ----> 56
[0]: 16 ----> 55
[0]: 16 ----> 64
[0]: 16 ----> 63
[0]: 16 ----> 66
[0]: 17 ----> 52
[0]: 17 ----> 53
[0]: 17 ----> 57
[0]: 17 ----> 59
[0]: 17 ----> 65
[0]: 17 ----> 64
[0]: 18 ----> 0
[0]: 19 ----> 3
[0]: 20 ----> 1
[0]: 21 ----> 7
[0]: 22 ----> 0
[0]: 23 ----> 2
[0]: 24 ----> 3
[0]: 25 ----> 4
[0]: 26 ----> 2
[0]: 27 ----> 1
[0]: 28 ----> 3
[0]: 29 ----> 5
[0]: 30 ----> 2
[0]: 31 ----> 1
[0]: 32 ----> 0
[0]: 33 ----> 6
[0]: 34 ----> 0
[0]: 34 ----> 4
[0]: 35 ----> 1
[0]: 35 ----> 5
[0]: 36 ----> 2
[0]: 36 ----> 6
[0]: 37 ----> 3
[0]: 37 ----> 7
[0]: 38 ----> 4
[0]: 38 ----> 7
[0]: 39 ----> 4
[0]: 39 ----> 6
[0]: 40 ----> 5
[0]: 40 ----> 7
[0]: 41 ----> 5
[0]: 41 ----> 6
[0]: 42 ----> 18
[0]: 42 ----> 22
[0]: 43 ----> 19
[0]: 43 ----> 24
[0]: 44 ----> 19
[0]: 44 ----> 28
[0]: 45 ----> 20
[0]: 45 ----> 27
[0]: 46 ----> 23
[0]: 46 ----> 26
[0]: 47 ----> 24
[0]: 47 ----> 28
[0]: 48 ----> 26
[0]: 48 ----> 30
[0]: 49 ----> 27
[0]: 49 ----> 31
[0]: 50 ----> 20
[0]: 50 ----> 31
[0]: 51 ----> 18
[0]: 51 ----> 32
[0]: 52 ----> 22
[0]: 52 ----> 32
[0]: 53 ----> 23
[0]: 53 ----> 30
[0]: 54 ----> 19
[0]: 54 ----> 21
[0]: 54 ----> 37
[0]: 55 ----> 20
[0]: 55 ----> 21
[0]: 55 ----> 35
[0]: 55 ----> 40
[0]: 56 ----> 18
[0]: 56 ----> 21
[0]: 56 ----> 34
[0]: 56 ----> 38
[0]: 57 ----> 23
[0]: 57 ----> 25
[0]: 57 ----> 36
[0]: 57 ----> 39
[0]: 58 ----> 24
[0]: 58 ----> 25
[0]: 58 ----> 37
[0]: 58 ----> 38
[0]: 59 ----> 22
[0]: 59 ----> 25
[0]: 59 ----> 34
[0]: 60 ----> 27
[0]: 60 ----> 29
[0]: 60 ----> 35
[0]: 61 ----> 28
[0]: 61 ----> 29
[0]: 61 ----> 37
[0]: 61 ----> 40
[0]: 62 ----> 26
[0]: 62 ----> 29
[0]: 62 ----> 36
[0]: 62 ----> 41
[0]: 63 ----> 31
[0]: 63 ----> 33
[0]: 63 ----> 35
[0]: 63 ----> 41
[0]: 64 ----> 32
[0]: 64 ----> 33
[0]: 64 ----> 34
[0]: 64 ----> 39
[0]: 65 ----> 30
[0]: 65 ----> 33
[0]: 65 ----> 36
[0]: 66 ----> 38
[0]: 66 ----> 39
[0]: 66 ----> 40
[0]: 66 ----> 41
Max sizes cone: 5 support: 8
[1]: 12 ----> 72
[1]: 12 ----> 73
[1]: 12 ----> 76
[1]: 13 ----> 66
[1]: 13 ----> 67
[1]: 13 ----> 74
[1]: 13 ----> 99
[1]: 14 ----> 65
[1]: 14 ----> 70
[1]: 14 ----> 71
[1]: 14 ----> 100
[1]: 15 ----> 68
[1]: 15 ----> 69
[1]: 15 ----> 75
[1]: 15 ----> 101
[1]: 16 ----> 78
[1]: 16 ----> 79
[1]: 16 ----> 99
[1]: 17 ----> 77
[1]: 17 ----> 82
[1]: 17 ----> 100
[1]: 18 ----> 80
[1]: 18 ----> 81
[1]: 18 ----> 101
[1]: 19 ----> 65
[1]: 19 ----> 66
[1]: 19 ----> 83
[1]: 19 ----> 85
[1]: 19 ----> 88
[1]: 19 ----> 87
[1]: 19 ----> 102
[1]: 19 ----> 98
[1]: 20 ----> 67
[1]: 20 ----> 68
[1]: 20 ----> 84
[1]: 20 ----> 83
[1]: 20 ----> 92
[1]: 20 ----> 94
[1]: 20 ----> 103
[1]: 21 ----> 69
[1]: 21 ----> 70
[1]: 21 ----> 85
[1]: 21 ----> 84
[1]: 21 ----> 89
[1]: 21 ----> 91
[1]: 21 ----> 104
[1]: 22 ----> 71
[1]: 22 ----> 72
[1]: 22 ----> 86
[1]: 22 ----> 88
[1]: 22 ----> 91
[1]: 22 ----> 90
[1]: 23 ----> 73
[1]: 23 ----> 74
[1]: 23 ----> 87
[1]: 23 ----> 86
[1]: 23 ----> 93
[1]: 23 ----> 92
[1]: 24 ----> 75
[1]: 24 ----> 76
[1]: 24 ----> 90
[1]: 24 ----> 89
[1]: 24 ----> 94
[1]: 24 ----> 93
[1]: 24 ----> 98
[1]: 25 ----> 77
[1]: 25 ----> 78
[1]: 25 ----> 95
[1]: 25 ----> 97
[1]: 25 ----> 102
[1]: 26 ----> 79
[1]: 26 ----> 80
[1]: 26 ----> 96
[1]: 26 ----> 95
[1]: 26 ----> 103
[1]: 27 ----> 81
[1]: 27 ----> 82
[1]: 27 ----> 97
[1]: 27 ----> 96
[1]: 27 ----> 104
[1]: 28 ----> 0
[1]: 28 ----> 8
[1]: 29 ----> 1
[1]: 29 ----> 9
[1]: 30 ----> 2
[1]: 30 ----> 10
[1]: 31 ----> 6
[1]: 31 ----> 11
[1]: 32 ----> 0
[1]: 33 ----> 3
[1]: 34 ----> 1
[1]: 35 ----> 7
[1]: 36 ----> 0
[1]: 37 ----> 2
[1]: 38 ----> 3
[1]: 39 ----> 4
[1]: 40 ----> 2
[1]: 41 ----> 1
[1]: 42 ----> 3
[1]: 43 ----> 5
[1]: 44 ----> 8
[1]: 45 ----> 9
[1]: 46 ----> 10
[1]: 47 ----> 11
[1]: 48 ----> 0
[1]: 48 ----> 4
[1]: 49 ----> 1
[1]: 49 ----> 5
[1]: 50 ----> 2
[1]: 50 ----> 6
[1]: 51 ----> 3
[1]: 51 ----> 7
[1]: 52 ----> 4
[1]: 52 ----> 7
[1]: 53 ----> 4
[1]: 53 ----> 6
[1]: 54 ----> 5
[1]: 54 ----> 7
[1]: 55 ----> 5
[1]: 55 ----> 6
[1]: 56 ----> 8
[1]: 57 ----> 9
[1]: 58 ----> 9
[1]: 59 ----> 10
[1]: 60 ----> 10
[1]: 61 ----> 8
[1]: 62 ----> 8
[1]: 62 ----> 11
[1]: 63 ----> 9
[1]: 63 ----> 11
[1]: 64 ----> 10
[1]: 64 ----> 11
[1]: 65 ----> 28
[1]: 65 ----> 32
[1]: 65 ----> 56
[1]: 66 ----> 29
[1]: 66 ----> 34
[1]: 66 ----> 57
[1]: 67 ----> 29
[1]: 67 ----> 41
[1]: 67 ----> 58
[1]: 68 ----> 30
[1]: 68 ----> 40
[1]: 68 ----> 59
[1]: 69 ----> 30
[1]: 69 ----> 37
[1]: 69 ----> 60
[1]: 70 ----> 28
[1]: 70 ----> 36
[1]: 70 ----> 61
[1]: 71 ----> 32
[1]: 71 ----> 36
[1]: 72 ----> 33
[1]: 72 ----> 38
[1]: 73 ----> 33
[1]: 73 ----> 42
[1]: 74 ----> 34
[1]: 74 ----> 41
[1]: 75 ----> 37
[1]: 75 ----> 40
[1]: 76 ----> 38
[1]: 76 ----> 42
[1]: 77 ----> 44
[1]: 77 ----> 56
[1]: 78 ----> 45
[1]: 78 ----> 57
[1]: 79 ----> 45
[1]: 79 ----> 58
[1]: 80 ----> 46
[1]: 80 ----> 59
[1]: 81 ----> 46
[1]: 81 ----> 60
[1]: 82 ----> 44
[1]: 82 ----> 61
[1]: 83 ----> 29
[1]: 83 ----> 31
[1]: 83 ----> 49
[1]: 83 ----> 55
[1]: 83 ----> 63
[1]: 84 ----> 30
[1]: 84 ----> 31
[1]: 84 ----> 50
[1]: 84 ----> 64
[1]: 85 ----> 28
[1]: 85 ----> 31
[1]: 85 ----> 48
[1]: 85 ----> 53
[1]: 85 ----> 62
[1]: 86 ----> 33
[1]: 86 ----> 35
[1]: 86 ----> 51
[1]: 87 ----> 34
[1]: 87 ----> 35
[1]: 87 ----> 49
[1]: 87 ----> 54
[1]: 88 ----> 32
[1]: 88 ----> 35
[1]: 88 ----> 48
[1]: 88 ----> 52
[1]: 89 ----> 37
[1]: 89 ----> 39
[1]: 89 ----> 50
[1]: 89 ----> 53
[1]: 90 ----> 38
[1]: 90 ----> 39
[1]: 90 ----> 51
[1]: 90 ----> 52
[1]: 91 ----> 36
[1]: 91 ----> 39
[1]: 91 ----> 48
[1]: 92 ----> 41
[1]: 92 ----> 43
[1]: 92 ----> 49
[1]: 93 ----> 42
[1]: 93 ----> 43
[1]: 93 ----> 51
[1]: 93 ----> 54
[1]: 94 ----> 40
[1]: 94 ----> 43
[1]: 94 ----> 50
[1]: 94 ----> 55
[1]: 95 ----> 45
[1]: 95 ----> 47
[1]: 95 ----> 63
[1]: 96 ----> 46
[1]: 96 ----> 47
[1]: 96 ----> 64
[1]: 97 ----> 44
[1]: 97 ----> 47
[1]: 97 ----> 62
[1]: 98 ----> 52
[1]: 98 ----> 53
[1]: 98 ----> 54
[1]: 98 ----> 55
[1]: 99 ----> 57
[1]: 99 ----> 58
[1]: 100 ----> 56
[1]: 100 ----> 61
[1]: 101 ----> 59
[1]: 101 ----> 60
[1]: 102 ----> 56
[1]: 102 ----> 57
[1]: 102 ----> 62
[1]: 102 ----> 63
[1]: 103 ----> 58
[1]: 103 ----> 59
[1]: 103 ----> 63
[1]: 103 ----> 64
[1]: 104 ----> 60
[1]: 104 ----> 61
[1]: 104 ----> 64
[1]: 104 ----> 62
base <-- cap:
[0]: 0 <---- 32 (-2)
[0]: 0 <---- 18 (0)
[0]: 0 <---- 22 (0)
[0]: 0 <---- 34 (0)
[0]: 1 <---- 31 (-2)
[0]: 1 <---- 20 (0)
[0]: 1 <---- 35 (0)
[0]: 1 <---- 27 (0)
[0]: 2 <---- 30 (-2)
[0]: 2 <---- 36 (0)
[0]: 2 <---- 23 (0)
[0]: 2 <---- 26 (0)
[0]: 3 <---- 37 (0)
[0]: 3 <---- 19 (0)
[0]: 3 <---- 24 (0)
[0]: 3 <---- 28 (0)
[0]: 4 <---- 34 (-3)
[0]: 4 <---- 25 (0)
[0]: 4 <---- 39 (0)
[0]: 4 <---- 38 (2)
[0]: 5 <---- 35 (-2)
[0]: 5 <---- 29 (1)
[0]: 5 <---- 40 (0)
[0]: 5 <---- 41 (0)
[0]: 6 <---- 39 (-2)
[0]: 6 <---- 41 (-2)
[0]: 6 <---- 36 (-1)
[0]: 6 <---- 33 (-2)
[0]: 7 <---- 40 (-2)
[0]: 7 <---- 38 (-1)
[0]: 7 <---- 37 (-2)
[0]: 7 <---- 21 (1)
[0]: 18 <---- 42 (0)
[0]: 18 <---- 56 (-2)
[0]: 18 <---- 51 (0)
[0]: 19 <---- 43 (0)
[0]: 19 <---- 44 (0)
[0]: 19 <---- 54 (-2)
[0]: 20 <---- 55 (-2)
[0]: 20 <---- 45 (0)
[0]: 20 <---- 50 (0)
[0]: 21 <---- 54 (0)
[0]: 21 <---- 55 (0)
[0]: 21 <---- 56 (0)
[0]: 22 <---- 52 (0)
[0]: 22 <---- 59 (-2)
[0]: 22 <---- 42 (-2)
[0]: 23 <---- 53 (0)
[0]: 23 <---- 46 (0)
[0]: 23 <---- 57 (-2)
[0]: 24 <---- 58 (-2)
[0]: 24 <---- 47 (0)
[0]: 24 <---- 43 (-2)
[0]: 25 <---- 57 (0)
[0]: 25 <---- 58 (0)
[0]: 25 <---- 59 (0)
[0]: 26 <---- 48 (0)
[0]: 26 <---- 62 (-2)
[0]: 26 <---- 46 (-2)
[0]: 27 <---- 49 (0)
[0]: 27 <---- 45 (-2)
[0]: 27 <---- 60 (-2)
[0]: 28 <---- 61 (-2)
[0]: 28 <---- 44 (-2)
[0]: 28 <---- 47 (-2)
[0]: 29 <---- 60 (0)
[0]: 29 <---- 61 (0)
[0]: 29 <---- 62 (0)
[0]: 30 <---- 48 (0)
[0]: 30 <---- 65 (-2)
[0]: 30 <---- 53 (0)
[0]: 31 <---- 49 (0)
[0]: 31 <---- 50 (0)
[0]: 31 <---- 63 (-2)
[0]: 32 <---- 64 (-2)
[0]: 32 <---- 51 (0)
[0]: 32 <---- 52 (0)
[0]: 33 <---- 63 (0)
[0]: 33 <---- 64 (0)
[0]: 33 <---- 65 (0)
[0]: 34 <---- 64 (-2)
[0]: 34 <---- 56 (0)
[0]: 34 <---- 59 (0)
[0]: 35 <---- 63 (-2)
[0]: 35 <---- 60 (0)
[0]: 35 <---- 55 (0)
[0]: 36 <---- 57 (0)
[0]: 36 <---- 62 (0)
[0]: 36 <---- 65 (-2)
[0]: 37 <---- 54 (0)
[0]: 37 <---- 61 (0)
[0]: 37 <---- 58 (0)
[0]: 38 <---- 58 (-2)
[0]: 38 <---- 66 (-2)
[0]: 38 <---- 56 (0)
[0]: 39 <---- 64 (-2)
[0]: 39 <---- 66 (0)
[0]: 39 <---- 57 (-2)
[0]: 40 <---- 55 (0)
[0]: 40 <---- 66 (0)
[0]: 40 <---- 61 (-2)
[0]: 41 <---- 63 (-2)
[0]: 41 <---- 62 (-2)
[0]: 41 <---- 66 (-2)
[0]: 42 <---- 11 (0)
[0]: 42 <---- 12 (0)
[0]: 43 <---- 12 (0)
[0]: 43 <---- 8 (0)
[0]: 44 <---- 8 (0)
[0]: 44 <---- 13 (0)
[0]: 45 <---- 13 (0)
[0]: 45 <---- 9 (0)
[0]: 46 <---- 10 (0)
[0]: 46 <---- 14 (0)
[0]: 47 <---- 14 (0)
[0]: 47 <---- 8 (0)
[0]: 48 <---- 10 (0)
[0]: 48 <---- 15 (0)
[0]: 49 <---- 15 (0)
[0]: 49 <---- 9 (0)
[0]: 50 <---- 9 (0)
[0]: 50 <---- 16 (0)
[0]: 51 <---- 16 (0)
[0]: 51 <---- 11 (0)
[0]: 52 <---- 11 (0)
[0]: 52 <---- 17 (0)
[0]: 53 <---- 17 (0)
[0]: 53 <---- 10 (0)
[0]: 54 <---- 12 (0)
[0]: 54 <---- 13 (0)
[0]: 55 <---- 13 (0)
[0]: 55 <---- 16 (0)
[0]: 56 <---- 16 (0)
[0]: 56 <---- 12 (0)
[0]: 57 <---- 17 (0)
[0]: 57 <---- 14 (0)
[0]: 58 <---- 14 (0)
[0]: 58 <---- 12 (0)
[0]: 59 <---- 12 (0)
[0]: 59 <---- 17 (0)
[0]: 60 <---- 15 (0)
[0]: 60 <---- 13 (0)
[0]: 61 <---- 13 (0)
[0]: 61 <---- 14 (0)
[0]: 62 <---- 14 (0)
[0]: 62 <---- 15 (0)
[0]: 63 <---- 15 (0)
[0]: 63 <---- 16 (0)
[0]: 64 <---- 16 (0)
[0]: 64 <---- 17 (0)
[0]: 65 <---- 17 (0)
[0]: 65 <---- 15 (0)
[0]: 66 <---- 16 (0)
[0]: 66 <---- 14 (0)
[1]: 0 <---- 28 (0)
[1]: 0 <---- 32 (0)
[1]: 0 <---- 36 (0)
[1]: 0 <---- 48 (0)
[1]: 1 <---- 29 (0)
[1]: 1 <---- 34 (0)
[1]: 1 <---- 49 (0)
[1]: 1 <---- 41 (0)
[1]: 2 <---- 30 (0)
[1]: 2 <---- 50 (0)
[1]: 2 <---- 37 (0)
[1]: 2 <---- 40 (0)
[1]: 3 <---- 51 (0)
[1]: 3 <---- 33 (0)
[1]: 3 <---- 38 (0)
[1]: 3 <---- 42 (0)
[1]: 4 <---- 48 (-3)
[1]: 4 <---- 39 (0)
[1]: 4 <---- 53 (0)
[1]: 4 <---- 52 (2)
[1]: 5 <---- 49 (-3)
[1]: 5 <---- 54 (1)
[1]: 5 <---- 55 (0)
[1]: 5 <---- 43 (0)
[1]: 6 <---- 50 (-3)
[1]: 6 <---- 31 (2)
[1]: 6 <---- 53 (-3)
[1]: 6 <---- 55 (-2)
[1]: 7 <---- 51 (-3)
[1]: 7 <---- 52 (-3)
[1]: 7 <---- 35 (0)
[1]: 7 <---- 54 (-3)
[1]: 8 <---- 28 (0)
[1]: 8 <---- 44 (0)
[1]: 8 <---- 56 (0)
[1]: 8 <---- 62 (0)
[1]: 8 <---- 61 (0)
[1]: 9 <---- 29 (0)
[1]: 9 <---- 45 (0)
[1]: 9 <---- 57 (0)
[1]: 9 <---- 58 (0)
[1]: 9 <---- 63 (0)
[1]: 10 <---- 30 (0)
[1]: 10 <---- 46 (0)
[1]: 10 <---- 64 (0)
[1]: 10 <---- 59 (0)
[1]: 10 <---- 60 (0)
[1]: 11 <---- 31 (0)
[1]: 11 <---- 47 (0)
[1]: 11 <---- 63 (0)
[1]: 11 <---- 64 (0)
[1]: 11 <---- 62 (0)
[1]: 28 <---- 65 (0)
[1]: 28 <---- 85 (-2)
[1]: 28 <---- 70 (0)
[1]: 29 <---- 66 (0)
[1]: 29 <---- 67 (0)
[1]: 29 <---- 83 (-2)
[1]: 30 <---- 84 (-2)
[1]: 30 <---- 68 (0)
[1]: 30 <---- 69 (0)
[1]: 31 <---- 83 (0)
[1]: 31 <---- 84 (0)
[1]: 31 <---- 85 (0)
[1]: 32 <---- 71 (0)
[1]: 32 <---- 88 (-2)
[1]: 32 <---- 65 (-2)
[1]: 33 <---- 72 (0)
[1]: 33 <---- 73 (0)
[1]: 33 <---- 86 (-2)
[1]: 34 <---- 87 (-2)
[1]: 34 <---- 74 (0)
[1]: 34 <---- 66 (-2)
[1]: 35 <---- 86 (0)
[1]: 35 <---- 87 (0)
[1]: 35 <---- 88 (0)
[1]: 36 <---- 70 (-2)
[1]: 36 <---- 91 (-2)
[1]: 36 <---- 71 (-2)
[1]: 37 <---- 69 (-2)
[1]: 37 <---- 75 (0)
[1]: 37 <---- 89 (-2)
[1]: 38 <---- 90 (-2)
[1]: 38 <---- 76 (0)
[1]: 38 <---- 72 (-2)
[1]: 39 <---- 89 (0)
[1]: 39 <---- 90 (0)
[1]: 39 <---- 91 (0)
[1]: 40 <---- 68 (-2)
[1]: 40 <---- 94 (-2)
[1]: 40 <---- 75 (-2)
[1]: 41 <---- 67 (-2)
[1]: 41 <---- 74 (-2)
[1]: 41 <---- 92 (-2)
[1]: 42 <---- 93 (-2)
[1]: 42 <---- 73 (-2)
[1]: 42 <---- 76 (-2)
[1]: 43 <---- 92 (0)
[1]: 43 <---- 93 (0)
[1]: 43 <---- 94 (0)
[1]: 44 <---- 77 (0)
[1]: 44 <---- 97 (-2)
[1]: 44 <---- 82 (0)
[1]: 45 <---- 78 (0)
[1]: 45 <---- 79 (0)
[1]: 45 <---- 95 (-2)
[1]: 46 <---- 96 (-2)
[1]: 46 <---- 80 (0)
[1]: 46 <---- 81 (0)
[1]: 47 <---- 95 (0)
[1]: 47 <---- 96 (0)
[1]: 47 <---- 97 (0)
[1]: 48 <---- 85 (0)
[1]: 48 <---- 88 (0)
[1]: 48 <---- 91 (0)
[1]: 49 <---- 83 (0)
[1]: 49 <---- 92 (0)
[1]: 49 <---- 87 (0)
[1]: 50 <---- 89 (0)
[1]: 50 <---- 94 (0)
[1]: 50 <---- 84 (0)
[1]: 51 <---- 86 (0)
[1]: 51 <---- 93 (0)
[1]: 51 <---- 90 (0)
[1]: 52 <---- 90 (-2)
[1]: 52 <---- 98 (-2)
[1]: 52 <---- 88 (0)
[1]: 53 <---- 85 (0)
[1]: 53 <---- 98 (0)
[1]: 53 <---- 89 (-2)
[1]: 54 <---- 87 (0)
[1]: 54 <---- 98 (0)
[1]: 54 <---- 93 (-2)
[1]: 55 <---- 83 (0)
[1]: 55 <---- 94 (-2)
[1]: 55 <---- 98 (-2)
[1]: 56 <---- 65 (0)
[1]: 56 <---- 77 (0)
[1]: 56 <---- 100 (0)
[1]: 56 <---- 102 (0)
[1]: 57 <---- 66 (0)
[1]: 57 <---- 78 (0)
[1]: 57 <---- 102 (0)
[1]: 57 <---- 99 (0)
[1]: 58 <---- 67 (0)
[1]: 58 <---- 79 (0)
[1]: 58 <---- 99 (0)
[1]: 58 <---- 103 (0)
[1]: 59 <---- 68 (0)
[1]: 59 <---- 80 (0)
[1]: 59 <---- 103 (0)
[1]: 59 <---- 101 (0)
[1]: 60 <---- 69 (0)
[1]: 60 <---- 81 (0)
[1]: 60 <---- 101 (0)
[1]: 60 <---- 104 (0)
[1]: 61 <---- 70 (0)
[1]: 61 <---- 82 (0)
[1]: 61 <---- 104 (0)
[1]: 61 <---- 100 (0)
[1]: 62 <---- 85 (0)
[1]: 62 <---- 97 (0)
[1]: 62 <---- 104 (0)
[1]: 62 <---- 102 (0)
[1]: 63 <---- 83 (0)
[1]: 63 <---- 95 (0)
[1]: 63 <---- 102 (0)
[1]: 63 <---- 103 (0)
[1]: 64 <---- 84 (0)
[1]: 64 <---- 96 (0)
[1]: 64 <---- 103 (0)
[1]: 64 <---- 104 (0)
[1]: 65 <---- 14 (0)
[1]: 65 <---- 19 (0)
[1]: 66 <---- 19 (0)
[1]: 66 <---- 13 (0)
[1]: 67 <---- 13 (0)
[1]: 67 <---- 20 (0)
[1]: 68 <---- 20 (0)
[1]: 68 <---- 15 (0)
[1]: 69 <---- 15 (0)
[1]: 69 <---- 21 (0)
[1]: 70 <---- 21 (0)
[1]: 70 <---- 14 (0)
[1]: 71 <---- 14 (0)
[1]: 71 <---- 22 (0)
[1]: 72 <---- 22 (0)
[1]: 72 <---- 12 (0)
[1]: 73 <---- 12 (0)
[1]: 73 <---- 23 (0)
[1]: 74 <---- 23 (0)
[1]: 74 <---- 13 (0)
[1]: 75 <---- 15 (0)
[1]: 75 <---- 24 (0)
[1]: 76 <---- 24 (0)
[1]: 76 <---- 12 (0)
[1]: 77 <---- 17 (0)
[1]: 77 <---- 25 (0)
[1]: 78 <---- 25 (0)
[1]: 78 <---- 16 (0)
[1]: 79 <---- 16 (0)
[1]: 79 <---- 26 (0)
[1]: 80 <---- 26 (0)
[1]: 80 <---- 18 (0)
[1]: 81 <---- 18 (0)
[1]: 81 <---- 27 (0)
[1]: 82 <---- 27 (0)
[1]: 82 <---- 17 (0)
[1]: 83 <---- 19 (0)
[1]: 83 <---- 20 (0)
[1]: 84 <---- 20 (0)
[1]: 84 <---- 21 (0)
[1]: 85 <---- 21 (0)
[1]: 85 <---- 19 (0)
[1]: 86 <---- 22 (0)
[1]: 86 <---- 23 (0)
[1]: 87 <---- 23 (0)
[1]: 87 <---- 19 (0)
[1]: 88 <---- 19 (0)
[1]: 88 <---- 22 (0)
[1]: 89 <---- 21 (0)
[1]: 89 <---- 24 (0)
[1]: 90 <---- 24 (0)
[1]: 90 <---- 22 (0)
[1]: 91 <---- 22 (0)
[1]: 91 <---- 21 (0)
[1]: 92 <---- 20 (0)
[1]: 92 <---- 23 (0)
[1]: 93 <---- 23 (0)
[1]: 93 <---- 24 (0)
[1]: 94 <---- 24 (0)
[1]: 94 <---- 20 (0)
[1]: 95 <---- 25 (0)
[1]: 95 <---- 26 (0)
[1]: 96 <---- 26 (0)
[1]: 96 <---- 27 (0)
[1]: 97 <---- 27 (0)
[1]: 97 <---- 25 (0)
[1]: 98 <---- 19 (0)
[1]: 98 <---- 24 (0)
[1]: 99 <---- 13 (0)
[1]: 99 <---- 16 (0)
[1]: 100 <---- 14 (0)
[1]: 100 <---- 17 (0)
[1]: 101 <---- 15 (0)
[1]: 101 <---- 18 (0)
[1]: 102 <---- 19 (0)
[1]: 102 <---- 25 (0)
[1]: 103 <---- 20 (0)
[1]: 103 <---- 26 (0)
[1]: 104 <---- 21 (0)
[1]: 104 <---- 27 (0)
coordinates with 1 fields
  field 0 with 3 components
Process 0:
  (   8) dim  3 offset   0 1 0 0
  (   9) dim  3 offset   3 0 -1 0
  (  10) dim  3 offset   6 0 0 1
  (  11) dim  3 offset   9 0 1 0
  (  12) dim  3 offset  12 0.5 0.5 0
  (  13) dim  3 offset  15 0.5 -0.5 0
  (  14) dim  3 offset  18 0.5 0 0.5
  (  15) dim  3 offset  21 0 -0.5 0.5
  (  16) dim  3 offset  24 0 0 0
  (  17) dim  3 offset  27 0 0.5 0.5
Process 1:
  (  12) dim  3 offset   0 -1 0 0
  (  13) dim  3 offset   3 0 -1 0
  (  14) dim  3 offset   6 0 0 1
  (  15) dim  3 offset   9 0 1 0
  (  16) dim  3 offset  12 0 -1 0
  (  17) dim  3 offset  15 0 0 1
  (  18) dim  3 offset  18 0 1 0
  (  19) dim  3 offset  21 0 -0.5 0.5
  (  20) dim  3 offset  24 0 0 0
  (  21) dim  3 offset  27 0 0.5 0.5
  (  22) dim  3 offset  30 -0.5 0 0.5
  (  23) dim  3 offset  33 -0.5 -0.5 0
  (  24) dim  3 offset  36 -0.5 0.5 0
  (  25) dim  3 offset  39 0 -0.5 0.5
  (  26) dim  3 offset  42 0 0 0
  (  27) dim  3 offset  45 0 0.5 0.5
PetscSF Object: 2 MPI processes
  type not yet set
  [0] Number of roots=67, leaves=19, remote ranks=1
  [0] 9 <- (1,16)
  [0] 10 <- (1,17)
  [0] 11 <- (1,18)
  [0] 15 <- (1,25)
  [0] 16 <- (1,26)
  [0] 17 <- (1,27)
  [0] 30 <- (1,44)
  [0] 31 <- (1,45)
  [0] 32 <- (1,46)
  [0] 33 <- (1,47)
  [0] 48 <- (1,77)
  [0] 49 <- (1,78)
  [0] 50 <- (1,79)
  [0] 51 <- (1,80)
  [0] 52 <- (1,81)
  [0] 53 <- (1,82)
  [0] 63 <- (1,95)
  [0] 64 <- (1,96)
  [0] 65 <- (1,97)
  [1] Number of roots=105, leaves=0, remote ranks=0
  [0] Roots referenced by my leaves, by rank
  [0] 1: 19 edges
  [0]    9 <- 16
  [0]    10 <- 17
  [0]    11 <- 18
  [0]    15 <- 25
  [0]    16 <- 26
  [0]    17 <- 27
  [0]    30 <- 44
  [0]    31 <- 45
  [0]    32 <- 46
  [0]    33 <- 47
  [0]    48 <- 77
  [0]    49 <- 78
  [0]    50 <- 79
  [0]    51 <- 80
  [0]    52 <- 81
  [0]    53 <- 82
  [0]    63 <- 95
  [0]    64 <- 96
  [0]    65 <- 97
  [1] Roots referenced by my leaves, by rank