DM Object:Hybrid Mesh 1 MPI processes
  type: plex
Mesh 'Hybrid Mesh':
Max sizes cone: 4 support: 14
orientation is missing
cap --> base:
[0]: 64 ----> 274
[0]: 64 ----> 275
[0]: 64 ----> 282
[0]: 65 ----> 259
[0]: 65 ----> 270
[0]: 65 ----> 271
[0]: 66 ----> 262
[0]: 66 ----> 263
[0]: 66 ----> 278
[0]: 67 ----> 266
[0]: 67 ----> 267
[0]: 67 ----> 279
[0]: 68 ----> 260
[0]: 68 ----> 261
[0]: 68 ----> 283
[0]: 68 ----> 288
[0]: 68 ----> 293
[0]: 68 ----> 292
[0]: 68 ----> 307
[0]: 69 ----> 264
[0]: 69 ----> 265
[0]: 69 ----> 285
[0]: 69 ----> 284
[0]: 69 ----> 301
[0]: 69 ----> 306
[0]: 70 ----> 268
[0]: 70 ----> 269
[0]: 70 ----> 287
[0]: 70 ----> 286
[0]: 70 ----> 295
[0]: 70 ----> 300
[0]: 71 ----> 272
[0]: 71 ----> 273
[0]: 71 ----> 289
[0]: 71 ----> 294
[0]: 71 ----> 299
[0]: 71 ----> 298
[0]: 72 ----> 276
[0]: 72 ----> 277
[0]: 72 ----> 291
[0]: 72 ----> 290
[0]: 72 ----> 303
[0]: 72 ----> 302
[0]: 73 ----> 280
[0]: 73 ----> 281
[0]: 73 ----> 297
[0]: 73 ----> 296
[0]: 73 ----> 305
[0]: 73 ----> 304
[0]: 73 ----> 308
[0]: 74 ----> 259
[0]: 74 ----> 260
[0]: 74 ----> 309
[0]: 74 ----> 311
[0]: 74 ----> 323
[0]: 74 ----> 322
[0]: 74 ----> 381
[0]: 75 ----> 261
[0]: 75 ----> 262
[0]: 75 ----> 312
[0]: 75 ----> 314
[0]: 75 ----> 329
[0]: 75 ----> 328
[0]: 75 ----> 382
[0]: 76 ----> 263
[0]: 76 ----> 264
[0]: 76 ----> 313
[0]: 76 ----> 312
[0]: 76 ----> 348
[0]: 76 ----> 350
[0]: 77 ----> 265
[0]: 77 ----> 266
[0]: 77 ----> 316
[0]: 77 ----> 315
[0]: 77 ----> 345
[0]: 77 ----> 347
[0]: 78 ----> 267
[0]: 78 ----> 268
[0]: 78 ----> 317
[0]: 78 ----> 316
[0]: 78 ----> 336
[0]: 78 ----> 338
[0]: 79 ----> 269
[0]: 79 ----> 270
[0]: 79 ----> 311
[0]: 79 ----> 310
[0]: 79 ----> 333
[0]: 79 ----> 335
[0]: 80 ----> 271
[0]: 80 ----> 272
[0]: 80 ----> 321
[0]: 80 ----> 323
[0]: 80 ----> 335
[0]: 80 ----> 334
[0]: 81 ----> 273
[0]: 81 ----> 274
[0]: 81 ----> 324
[0]: 81 ----> 326
[0]: 81 ----> 341
[0]: 81 ----> 340
[0]: 82 ----> 275
[0]: 82 ----> 276
[0]: 82 ----> 325
[0]: 82 ----> 324
[0]: 82 ----> 352
[0]: 82 ----> 351
[0]: 83 ----> 277
[0]: 83 ----> 278
[0]: 83 ----> 328
[0]: 83 ----> 327
[0]: 83 ----> 349
[0]: 83 ----> 348
[0]: 84 ----> 279
[0]: 84 ----> 280
[0]: 84 ----> 337
[0]: 84 ----> 336
[0]: 84 ----> 347
[0]: 84 ----> 346
[0]: 84 ----> 383
[0]: 85 ----> 281
[0]: 85 ----> 282
[0]: 85 ----> 340
[0]: 85 ----> 339
[0]: 85 ----> 353
[0]: 85 ----> 352
[0]: 85 ----> 384
[0]: 86 ----> 283
[0]: 86 ----> 284
[0]: 86 ----> 314
[0]: 86 ----> 313
[0]: 86 ----> 318
[0]: 86 ----> 320
[0]: 86 ----> 360
[0]: 86 ----> 362
[0]: 86 ----> 378
[0]: 86 ----> 380
[0]: 87 ----> 285
[0]: 87 ----> 286
[0]: 87 ----> 315
[0]: 87 ----> 317
[0]: 87 ----> 319
[0]: 87 ----> 318
[0]: 87 ----> 365
[0]: 87 ----> 364
[0]: 87 ----> 383
[0]: 87 ----> 387
[0]: 88 ----> 287
[0]: 88 ----> 288
[0]: 88 ----> 310
[0]: 88 ----> 309
[0]: 88 ----> 320
[0]: 88 ----> 319
[0]: 88 ----> 357
[0]: 88 ----> 359
[0]: 88 ----> 372
[0]: 88 ----> 374
[0]: 89 ----> 289
[0]: 89 ----> 290
[0]: 89 ----> 326
[0]: 89 ----> 325
[0]: 89 ----> 330
[0]: 89 ----> 332
[0]: 89 ----> 366
[0]: 89 ----> 368
[0]: 89 ----> 384
[0]: 89 ----> 388
[0]: 90 ----> 291
[0]: 90 ----> 292
[0]: 90 ----> 327
[0]: 90 ----> 329
[0]: 90 ----> 331
[0]: 90 ----> 330
[0]: 90 ----> 362
[0]: 90 ----> 361
[0]: 90 ----> 375
[0]: 90 ----> 377
[0]: 91 ----> 293
[0]: 91 ----> 294
[0]: 91 ----> 322
[0]: 91 ----> 321
[0]: 91 ----> 332
[0]: 91 ----> 331
[0]: 91 ----> 358
[0]: 91 ----> 357
[0]: 91 ----> 371
[0]: 91 ----> 370
[0]: 92 ----> 295
[0]: 92 ----> 296
[0]: 92 ----> 338
[0]: 92 ----> 337
[0]: 92 ----> 342
[0]: 92 ----> 344
[0]: 92 ----> 363
[0]: 92 ----> 365
[0]: 92 ----> 374
[0]: 92 ----> 373
[0]: 93 ----> 297
[0]: 93 ----> 298
[0]: 93 ----> 339
[0]: 93 ----> 341
[0]: 93 ----> 343
[0]: 93 ----> 342
[0]: 93 ----> 368
[0]: 93 ----> 367
[0]: 93 ----> 369
[0]: 93 ----> 371
[0]: 94 ----> 299
[0]: 94 ----> 300
[0]: 94 ----> 334
[0]: 94 ----> 333
[0]: 94 ----> 344
[0]: 94 ----> 343
[0]: 94 ----> 359
[0]: 94 ----> 358
[0]: 94 ----> 381
[0]: 94 ----> 385
[0]: 95 ----> 301
[0]: 95 ----> 302
[0]: 95 ----> 350
[0]: 95 ----> 349
[0]: 95 ----> 354
[0]: 95 ----> 356
[0]: 95 ----> 361
[0]: 95 ----> 360
[0]: 95 ----> 382
[0]: 95 ----> 386
[0]: 96 ----> 303
[0]: 96 ----> 304
[0]: 96 ----> 351
[0]: 96 ----> 353
[0]: 96 ----> 355
[0]: 96 ----> 354
[0]: 96 ----> 367
[0]: 96 ----> 366
[0]: 96 ----> 377
[0]: 96 ----> 376
[0]: 97 ----> 305
[0]: 97 ----> 306
[0]: 97 ----> 346
[0]: 97 ----> 345
[0]: 97 ----> 356
[0]: 97 ----> 355
[0]: 97 ----> 364
[0]: 97 ----> 363
[0]: 97 ----> 379
[0]: 97 ----> 378
[0]: 98 ----> 307
[0]: 98 ----> 308
[0]: 98 ----> 370
[0]: 98 ----> 369
[0]: 98 ----> 373
[0]: 98 ----> 372
[0]: 98 ----> 376
[0]: 98 ----> 375
[0]: 98 ----> 380
[0]: 98 ----> 379
[0]: 98 ----> 385
[0]: 98 ----> 388
[0]: 98 ----> 387
[0]: 98 ----> 386
[0]: 99 ----> 0
[0]: 100 ----> 1
[0]: 101 ----> 2
[0]: 102 ----> 6
[0]: 103 ----> 8
[0]: 104 ----> 9
[0]: 105 ----> 10
[0]: 106 ----> 14
[0]: 107 ----> 16
[0]: 108 ----> 17
[0]: 109 ----> 18
[0]: 110 ----> 22
[0]: 111 ----> 49
[0]: 112 ----> 51
[0]: 113 ----> 50
[0]: 114 ----> 53
[0]: 115 ----> 0
[0]: 116 ----> 3
[0]: 117 ----> 1
[0]: 118 ----> 7
[0]: 119 ----> 24
[0]: 120 ----> 27
[0]: 121 ----> 25
[0]: 122 ----> 31
[0]: 123 ----> 8
[0]: 124 ----> 11
[0]: 125 ----> 9
[0]: 126 ----> 15
[0]: 127 ----> 59
[0]: 128 ----> 58
[0]: 129 ----> 57
[0]: 130 ----> 61
[0]: 131 ----> 0
[0]: 132 ----> 2
[0]: 133 ----> 3
[0]: 134 ----> 4
[0]: 135 ----> 16
[0]: 136 ----> 18
[0]: 137 ----> 19
[0]: 138 ----> 20
[0]: 139 ----> 24
[0]: 140 ----> 26
[0]: 141 ----> 27
[0]: 142 ----> 28
[0]: 143 ----> 32
[0]: 144 ----> 35
[0]: 145 ----> 33
[0]: 146 ----> 39
[0]: 147 ----> 18
[0]: 148 ----> 17
[0]: 149 ----> 19
[0]: 150 ----> 21
[0]: 151 ----> 10
[0]: 152 ----> 9
[0]: 153 ----> 11
[0]: 154 ----> 13
[0]: 155 ----> 26
[0]: 156 ----> 25
[0]: 157 ----> 27
[0]: 158 ----> 29
[0]: 159 ----> 41
[0]: 160 ----> 40
[0]: 161 ----> 43
[0]: 162 ----> 47
[0]: 163 ----> 2
[0]: 163 ----> 32
[0]: 164 ----> 1
[0]: 164 ----> 34
[0]: 165 ----> 3
[0]: 165 ----> 33
[0]: 166 ----> 5
[0]: 166 ----> 38
[0]: 167 ----> 8
[0]: 167 ----> 42
[0]: 168 ----> 10
[0]: 168 ----> 41
[0]: 169 ----> 11
[0]: 169 ----> 40
[0]: 170 ----> 12
[0]: 170 ----> 46
[0]: 171 ----> 16
[0]: 171 ----> 50
[0]: 172 ----> 19
[0]: 172 ----> 48
[0]: 173 ----> 17
[0]: 173 ----> 51
[0]: 174 ----> 23
[0]: 174 ----> 52
[0]: 175 ----> 24
[0]: 175 ----> 59
[0]: 176 ----> 25
[0]: 176 ----> 58
[0]: 177 ----> 26
[0]: 177 ----> 56
[0]: 178 ----> 30
[0]: 178 ----> 60
[0]: 179 ----> 33
[0]: 179 ----> 59
[0]: 180 ----> 35
[0]: 180 ----> 56
[0]: 181 ----> 34
[0]: 181 ----> 57
[0]: 182 ----> 37
[0]: 182 ----> 63
[0]: 183 ----> 32
[0]: 183 ----> 50
[0]: 184 ----> 34
[0]: 184 ----> 49
[0]: 185 ----> 35
[0]: 185 ----> 48
[0]: 186 ----> 36
[0]: 186 ----> 54
[0]: 187 ----> 40
[0]: 187 ----> 58
[0]: 188 ----> 42
[0]: 188 ----> 57
[0]: 189 ----> 43
[0]: 189 ----> 56
[0]: 190 ----> 44
[0]: 190 ----> 62
[0]: 191 ----> 42
[0]: 191 ----> 49
[0]: 192 ----> 41
[0]: 192 ----> 51
[0]: 193 ----> 43
[0]: 193 ----> 48
[0]: 194 ----> 45
[0]: 194 ----> 55
[0]: 195 ----> 0
[0]: 195 ----> 4
[0]: 196 ----> 1
[0]: 196 ----> 5
[0]: 197 ----> 2
[0]: 197 ----> 6
[0]: 198 ----> 3
[0]: 198 ----> 7
[0]: 199 ----> 4
[0]: 199 ----> 7
[0]: 200 ----> 4
[0]: 200 ----> 6
[0]: 201 ----> 5
[0]: 201 ----> 7
[0]: 202 ----> 5
[0]: 202 ----> 6
[0]: 203 ----> 8
[0]: 203 ----> 12
[0]: 204 ----> 9
[0]: 204 ----> 13
[0]: 205 ----> 10
[0]: 205 ----> 14
[0]: 206 ----> 11
[0]: 206 ----> 15
[0]: 207 ----> 12
[0]: 207 ----> 15
[0]: 208 ----> 12
[0]: 208 ----> 14
[0]: 209 ----> 13
[0]: 209 ----> 15
[0]: 210 ----> 13
[0]: 210 ----> 14
[0]: 211 ----> 16
[0]: 211 ----> 20
[0]: 212 ----> 17
[0]: 212 ----> 21
[0]: 213 ----> 18
[0]: 213 ----> 22
[0]: 214 ----> 19
[0]: 214 ----> 23
[0]: 215 ----> 20
[0]: 215 ----> 23
[0]: 216 ----> 20
[0]: 216 ----> 22
[0]: 217 ----> 21
[0]: 217 ----> 23
[0]: 218 ----> 21
[0]: 218 ----> 22
[0]: 219 ----> 24
[0]: 219 ----> 28
[0]: 220 ----> 25
[0]: 220 ----> 29
[0]: 221 ----> 26
[0]: 221 ----> 30
[0]: 222 ----> 27
[0]: 222 ----> 31
[0]: 223 ----> 28
[0]: 223 ----> 31
[0]: 224 ----> 28
[0]: 224 ----> 30
[0]: 225 ----> 29
[0]: 225 ----> 31
[0]: 226 ----> 29
[0]: 226 ----> 30
[0]: 227 ----> 32
[0]: 227 ----> 36
[0]: 228 ----> 33
[0]: 228 ----> 37
[0]: 229 ----> 34
[0]: 229 ----> 38
[0]: 230 ----> 35
[0]: 230 ----> 39
[0]: 231 ----> 36
[0]: 231 ----> 39
[0]: 232 ----> 36
[0]: 232 ----> 38
[0]: 233 ----> 37
[0]: 233 ----> 39
[0]: 234 ----> 37
[0]: 234 ----> 38
[0]: 235 ----> 40
[0]: 235 ----> 44
[0]: 236 ----> 41
[0]: 236 ----> 45
[0]: 237 ----> 42
[0]: 237 ----> 46
[0]: 238 ----> 43
[0]: 238 ----> 47
[0]: 239 ----> 44
[0]: 239 ----> 47
[0]: 240 ----> 44
[0]: 240 ----> 46
[0]: 241 ----> 45
[0]: 241 ----> 47
[0]: 242 ----> 45
[0]: 242 ----> 46
[0]: 243 ----> 48
[0]: 243 ----> 52
[0]: 244 ----> 49
[0]: 244 ----> 53
[0]: 245 ----> 50
[0]: 245 ----> 54
[0]: 246 ----> 51
[0]: 246 ----> 55
[0]: 247 ----> 52
[0]: 247 ----> 55
[0]: 248 ----> 52
[0]: 248 ----> 54
[0]: 249 ----> 53
[0]: 249 ----> 55
[0]: 250 ----> 53
[0]: 250 ----> 54
[0]: 251 ----> 56
[0]: 251 ----> 60
[0]: 252 ----> 57
[0]: 252 ----> 61
[0]: 253 ----> 58
[0]: 253 ----> 62
[0]: 254 ----> 59
[0]: 254 ----> 63
[0]: 255 ----> 60
[0]: 255 ----> 63
[0]: 256 ----> 60
[0]: 256 ----> 62
[0]: 257 ----> 61
[0]: 257 ----> 63
[0]: 258 ----> 61
[0]: 258 ----> 62
[0]: 259 ----> 99
[0]: 259 ----> 115
[0]: 260 ----> 100
[0]: 260 ----> 117
[0]: 261 ----> 103
[0]: 261 ----> 123
[0]: 262 ----> 104
[0]: 262 ----> 125
[0]: 263 ----> 104
[0]: 263 ----> 152
[0]: 264 ----> 105
[0]: 264 ----> 151
[0]: 265 ----> 108
[0]: 265 ----> 148
[0]: 266 ----> 109
[0]: 266 ----> 147
[0]: 267 ----> 109
[0]: 267 ----> 136
[0]: 268 ----> 107
[0]: 268 ----> 135
[0]: 269 ----> 101
[0]: 269 ----> 132
[0]: 270 ----> 99
[0]: 270 ----> 131
[0]: 271 ----> 115
[0]: 271 ----> 131
[0]: 272 ----> 116
[0]: 272 ----> 133
[0]: 273 ----> 119
[0]: 273 ----> 139
[0]: 274 ----> 120
[0]: 274 ----> 141
[0]: 275 ----> 120
[0]: 275 ----> 157
[0]: 276 ----> 121
[0]: 276 ----> 156
[0]: 277 ----> 124
[0]: 277 ----> 153
[0]: 278 ----> 125
[0]: 278 ----> 152
[0]: 279 ----> 136
[0]: 279 ----> 147
[0]: 280 ----> 137
[0]: 280 ----> 149
[0]: 281 ----> 140
[0]: 281 ----> 155
[0]: 282 ----> 141
[0]: 282 ----> 157
[0]: 283 ----> 103
[0]: 283 ----> 111
[0]: 283 ----> 167
[0]: 283 ----> 191
[0]: 284 ----> 105
[0]: 284 ----> 112
[0]: 284 ----> 168
[0]: 284 ----> 192
[0]: 285 ----> 108
[0]: 285 ----> 112
[0]: 285 ----> 173
[0]: 286 ----> 107
[0]: 286 ----> 113
[0]: 286 ----> 171
[0]: 287 ----> 101
[0]: 287 ----> 113
[0]: 287 ----> 163
[0]: 287 ----> 183
[0]: 288 ----> 100
[0]: 288 ----> 111
[0]: 288 ----> 164
[0]: 288 ----> 184
[0]: 289 ----> 119
[0]: 289 ----> 127
[0]: 289 ----> 175
[0]: 290 ----> 121
[0]: 290 ----> 128
[0]: 290 ----> 176
[0]: 291 ----> 124
[0]: 291 ----> 128
[0]: 291 ----> 169
[0]: 291 ----> 187
[0]: 292 ----> 123
[0]: 292 ----> 129
[0]: 292 ----> 167
[0]: 292 ----> 188
[0]: 293 ----> 117
[0]: 293 ----> 129
[0]: 293 ----> 164
[0]: 293 ----> 181
[0]: 294 ----> 116
[0]: 294 ----> 127
[0]: 294 ----> 165
[0]: 294 ----> 179
[0]: 295 ----> 135
[0]: 295 ----> 143
[0]: 295 ----> 171
[0]: 295 ----> 183
[0]: 296 ----> 137
[0]: 296 ----> 144
[0]: 296 ----> 172
[0]: 296 ----> 185
[0]: 297 ----> 140
[0]: 297 ----> 144
[0]: 297 ----> 177
[0]: 297 ----> 180
[0]: 298 ----> 139
[0]: 298 ----> 145
[0]: 298 ----> 175
[0]: 298 ----> 179
[0]: 299 ----> 133
[0]: 299 ----> 145
[0]: 299 ----> 165
[0]: 300 ----> 132
[0]: 300 ----> 143
[0]: 300 ----> 163
[0]: 301 ----> 151
[0]: 301 ----> 159
[0]: 301 ----> 168
[0]: 302 ----> 153
[0]: 302 ----> 160
[0]: 302 ----> 169
[0]: 303 ----> 156
[0]: 303 ----> 160
[0]: 303 ----> 176
[0]: 303 ----> 187
[0]: 304 ----> 155
[0]: 304 ----> 161
[0]: 304 ----> 177
[0]: 304 ----> 189
[0]: 305 ----> 149
[0]: 305 ----> 161
[0]: 305 ----> 172
[0]: 305 ----> 193
[0]: 306 ----> 148
[0]: 306 ----> 159
[0]: 306 ----> 173
[0]: 306 ----> 192
[0]: 307 ----> 181
[0]: 307 ----> 184
[0]: 307 ----> 188
[0]: 307 ----> 191
[0]: 308 ----> 180
[0]: 308 ----> 185
[0]: 308 ----> 189
[0]: 308 ----> 193
[0]: 309 ----> 100
[0]: 309 ----> 102
[0]: 309 ----> 196
[0]: 309 ----> 202
[0]: 310 ----> 101
[0]: 310 ----> 102
[0]: 310 ----> 197
[0]: 311 ----> 99
[0]: 311 ----> 102
[0]: 311 ----> 195
[0]: 311 ----> 200
[0]: 312 ----> 104
[0]: 312 ----> 106
[0]: 312 ----> 204
[0]: 312 ----> 210
[0]: 313 ----> 105
[0]: 313 ----> 106
[0]: 313 ----> 205
[0]: 314 ----> 103
[0]: 314 ----> 106
[0]: 314 ----> 203
[0]: 314 ----> 208
[0]: 315 ----> 108
[0]: 315 ----> 110
[0]: 315 ----> 212
[0]: 315 ----> 218
[0]: 316 ----> 109
[0]: 316 ----> 110
[0]: 316 ----> 213
[0]: 317 ----> 107
[0]: 317 ----> 110
[0]: 317 ----> 211
[0]: 317 ----> 216
[0]: 318 ----> 112
[0]: 318 ----> 114
[0]: 318 ----> 246
[0]: 318 ----> 249
[0]: 319 ----> 113
[0]: 319 ----> 114
[0]: 319 ----> 245
[0]: 319 ----> 250
[0]: 320 ----> 111
[0]: 320 ----> 114
[0]: 320 ----> 244
[0]: 321 ----> 116
[0]: 321 ----> 118
[0]: 321 ----> 198
[0]: 322 ----> 117
[0]: 322 ----> 118
[0]: 322 ----> 196
[0]: 322 ----> 201
[0]: 323 ----> 115
[0]: 323 ----> 118
[0]: 323 ----> 195
[0]: 323 ----> 199
[0]: 324 ----> 120
[0]: 324 ----> 122
[0]: 324 ----> 222
[0]: 325 ----> 121
[0]: 325 ----> 122
[0]: 325 ----> 220
[0]: 325 ----> 225
[0]: 326 ----> 119
[0]: 326 ----> 122
[0]: 326 ----> 219
[0]: 326 ----> 223
[0]: 327 ----> 124
[0]: 327 ----> 126
[0]: 327 ----> 206
[0]: 328 ----> 125
[0]: 328 ----> 126
[0]: 328 ----> 204
[0]: 328 ----> 209
[0]: 329 ----> 123
[0]: 329 ----> 126
[0]: 329 ----> 203
[0]: 329 ----> 207
[0]: 330 ----> 128
[0]: 330 ----> 130
[0]: 330 ----> 253
[0]: 330 ----> 258
[0]: 331 ----> 129
[0]: 331 ----> 130
[0]: 331 ----> 252
[0]: 332 ----> 127
[0]: 332 ----> 130
[0]: 332 ----> 254
[0]: 332 ----> 257
[0]: 333 ----> 132
[0]: 333 ----> 134
[0]: 333 ----> 197
[0]: 333 ----> 200
[0]: 334 ----> 133
[0]: 334 ----> 134
[0]: 334 ----> 198
[0]: 334 ----> 199
[0]: 335 ----> 131
[0]: 335 ----> 134
[0]: 335 ----> 195
[0]: 336 ----> 136
[0]: 336 ----> 138
[0]: 336 ----> 213
[0]: 336 ----> 216
[0]: 337 ----> 137
[0]: 337 ----> 138
[0]: 337 ----> 214
[0]: 337 ----> 215
[0]: 338 ----> 135
[0]: 338 ----> 138
[0]: 338 ----> 211
[0]: 339 ----> 140
[0]: 339 ----> 142
[0]: 339 ----> 221
[0]: 339 ----> 224
[0]: 340 ----> 141
[0]: 340 ----> 142
[0]: 340 ----> 222
[0]: 340 ----> 223
[0]: 341 ----> 139
[0]: 341 ----> 142
[0]: 341 ----> 219
[0]: 342 ----> 144
[0]: 342 ----> 146
[0]: 342 ----> 230
[0]: 343 ----> 145
[0]: 343 ----> 146
[0]: 343 ----> 228
[0]: 343 ----> 233
[0]: 344 ----> 143
[0]: 344 ----> 146
[0]: 344 ----> 227
[0]: 344 ----> 231
[0]: 345 ----> 148
[0]: 345 ----> 150
[0]: 345 ----> 212
[0]: 346 ----> 149
[0]: 346 ----> 150
[0]: 346 ----> 214
[0]: 346 ----> 217
[0]: 347 ----> 147
[0]: 347 ----> 150
[0]: 347 ----> 213
[0]: 347 ----> 218
[0]: 348 ----> 152
[0]: 348 ----> 154
[0]: 348 ----> 204
[0]: 349 ----> 153
[0]: 349 ----> 154
[0]: 349 ----> 206
[0]: 349 ----> 209
[0]: 350 ----> 151
[0]: 350 ----> 154
[0]: 350 ----> 205
[0]: 350 ----> 210
[0]: 351 ----> 156
[0]: 351 ----> 158
[0]: 351 ----> 220
[0]: 352 ----> 157
[0]: 352 ----> 158
[0]: 352 ----> 222
[0]: 352 ----> 225
[0]: 353 ----> 155
[0]: 353 ----> 158
[0]: 353 ----> 221
[0]: 353 ----> 226
[0]: 354 ----> 160
[0]: 354 ----> 162
[0]: 354 ----> 235
[0]: 354 ----> 239
[0]: 355 ----> 161
[0]: 355 ----> 162
[0]: 355 ----> 238
[0]: 356 ----> 159
[0]: 356 ----> 162
[0]: 356 ----> 236
[0]: 356 ----> 241
[0]: 357 ----> 164
[0]: 357 ----> 166
[0]: 357 ----> 196
[0]: 357 ----> 229
[0]: 358 ----> 165
[0]: 358 ----> 166
[0]: 358 ----> 198
[0]: 358 ----> 201
[0]: 358 ----> 228
[0]: 358 ----> 234
[0]: 359 ----> 163
[0]: 359 ----> 166
[0]: 359 ----> 197
[0]: 359 ----> 202
[0]: 359 ----> 227
[0]: 359 ----> 232
[0]: 360 ----> 168
[0]: 360 ----> 170
[0]: 360 ----> 205
[0]: 360 ----> 208
[0]: 360 ----> 236
[0]: 360 ----> 242
[0]: 361 ----> 169
[0]: 361 ----> 170
[0]: 361 ----> 206
[0]: 361 ----> 207
[0]: 361 ----> 235
[0]: 361 ----> 240
[0]: 362 ----> 167
[0]: 362 ----> 170
[0]: 362 ----> 203
[0]: 362 ----> 237
[0]: 363 ----> 172
[0]: 363 ----> 174
[0]: 363 ----> 214
[0]: 363 ----> 243
[0]: 364 ----> 173
[0]: 364 ----> 174
[0]: 364 ----> 212
[0]: 364 ----> 217
[0]: 364 ----> 246
[0]: 364 ----> 247
[0]: 365 ----> 171
[0]: 365 ----> 174
[0]: 365 ----> 211
[0]: 365 ----> 215
[0]: 365 ----> 245
[0]: 365 ----> 248
[0]: 366 ----> 176
[0]: 366 ----> 178
[0]: 366 ----> 220
[0]: 366 ----> 226
[0]: 366 ----> 253
[0]: 366 ----> 256
[0]: 367 ----> 177
[0]: 367 ----> 178
[0]: 367 ----> 221
[0]: 367 ----> 251
[0]: 368 ----> 175
[0]: 368 ----> 178
[0]: 368 ----> 219
[0]: 368 ----> 224
[0]: 368 ----> 254
[0]: 368 ----> 255
[0]: 369 ----> 180
[0]: 369 ----> 182
[0]: 369 ----> 230
[0]: 369 ----> 233
[0]: 369 ----> 251
[0]: 369 ----> 255
[0]: 370 ----> 181
[0]: 370 ----> 182
[0]: 370 ----> 229
[0]: 370 ----> 234
[0]: 370 ----> 252
[0]: 370 ----> 257
[0]: 371 ----> 179
[0]: 371 ----> 182
[0]: 371 ----> 228
[0]: 371 ----> 254
[0]: 372 ----> 184
[0]: 372 ----> 186
[0]: 372 ----> 229
[0]: 372 ----> 232
[0]: 372 ----> 244
[0]: 372 ----> 250
[0]: 373 ----> 185
[0]: 373 ----> 186
[0]: 373 ----> 230
[0]: 373 ----> 231
[0]: 373 ----> 243
[0]: 373 ----> 248
[0]: 374 ----> 183
[0]: 374 ----> 186
[0]: 374 ----> 227
[0]: 374 ----> 245
[0]: 375 ----> 188
[0]: 375 ----> 190
[0]: 375 ----> 237
[0]: 375 ----> 240
[0]: 375 ----> 252
[0]: 375 ----> 258
[0]: 376 ----> 189
[0]: 376 ----> 190
[0]: 376 ----> 238
[0]: 376 ----> 239
[0]: 376 ----> 251
[0]: 376 ----> 256
[0]: 377 ----> 187
[0]: 377 ----> 190
[0]: 377 ----> 235
[0]: 377 ----> 253
[0]: 378 ----> 192
[0]: 378 ----> 194
[0]: 378 ----> 236
[0]: 378 ----> 246
[0]: 379 ----> 193
[0]: 379 ----> 194
[0]: 379 ----> 238
[0]: 379 ----> 241
[0]: 379 ----> 243
[0]: 379 ----> 247
[0]: 380 ----> 191
[0]: 380 ----> 194
[0]: 380 ----> 237
[0]: 380 ----> 242
[0]: 380 ----> 244
[0]: 380 ----> 249
[0]: 381 ----> 199
[0]: 381 ----> 200
[0]: 381 ----> 201
[0]: 381 ----> 202
[0]: 382 ----> 207
[0]: 382 ----> 208
[0]: 382 ----> 209
[0]: 382 ----> 210
[0]: 383 ----> 215
[0]: 383 ----> 216
[0]: 383 ----> 217
[0]: 383 ----> 218
[0]: 384 ----> 223
[0]: 384 ----> 224
[0]: 384 ----> 225
[0]: 384 ----> 226
[0]: 385 ----> 231
[0]: 385 ----> 232
[0]: 385 ----> 233
[0]: 385 ----> 234
[0]: 386 ----> 239
[0]: 386 ----> 240
[0]: 386 ----> 241
[0]: 386 ----> 242
[0]: 387 ----> 247
[0]: 387 ----> 248
[0]: 387 ----> 249
[0]: 387 ----> 250
[0]: 388 ----> 255
[0]: 388 ----> 256
[0]: 388 ----> 257
[0]: 388 ----> 258
base <-- cap:
[0]: 0 <---- 99 (0)
[0]: 0 <---- 115 (0)
[0]: 0 <---- 131 (0)
[0]: 0 <---- 195 (0)
[0]: 1 <---- 100 (0)
[0]: 1 <---- 117 (0)
[0]: 1 <---- 196 (0)
[0]: 1 <---- 164 (0)
[0]: 2 <---- 101 (0)
[0]: 2 <---- 197 (0)
[0]: 2 <---- 132 (0)
[0]: 2 <---- 163 (0)
[0]: 3 <---- 198 (0)
[0]: 3 <---- 116 (0)
[0]: 3 <---- 133 (0)
[0]: 3 <---- 165 (0)
[0]: 4 <---- 195 (-3)
[0]: 4 <---- 134 (0)
[0]: 4 <---- 200 (0)
[0]: 4 <---- 199 (2)
[0]: 5 <---- 196 (-2)
[0]: 5 <---- 166 (1)
[0]: 5 <---- 201 (0)
[0]: 5 <---- 202 (0)
[0]: 6 <---- 200 (-2)
[0]: 6 <---- 202 (-2)
[0]: 6 <---- 197 (-1)
[0]: 6 <---- 102 (2)
[0]: 7 <---- 201 (-2)
[0]: 7 <---- 199 (-1)
[0]: 7 <---- 198 (-2)
[0]: 7 <---- 118 (1)
[0]: 8 <---- 103 (0)
[0]: 8 <---- 123 (0)
[0]: 8 <---- 167 (0)
[0]: 8 <---- 203 (0)
[0]: 9 <---- 104 (0)
[0]: 9 <---- 125 (0)
[0]: 9 <---- 204 (0)
[0]: 9 <---- 152 (0)
[0]: 10 <---- 105 (0)
[0]: 10 <---- 205 (0)
[0]: 10 <---- 168 (0)
[0]: 10 <---- 151 (0)
[0]: 11 <---- 206 (0)
[0]: 11 <---- 124 (0)
[0]: 11 <---- 169 (0)
[0]: 11 <---- 153 (0)
[0]: 12 <---- 203 (-3)
[0]: 12 <---- 170 (0)
[0]: 12 <---- 208 (0)
[0]: 12 <---- 207 (2)
[0]: 13 <---- 204 (-2)
[0]: 13 <---- 154 (1)
[0]: 13 <---- 209 (0)
[0]: 13 <---- 210 (0)
[0]: 14 <---- 208 (-2)
[0]: 14 <---- 210 (-2)
[0]: 14 <---- 205 (-1)
[0]: 14 <---- 106 (2)
[0]: 15 <---- 209 (-2)
[0]: 15 <---- 207 (-1)
[0]: 15 <---- 206 (-2)
[0]: 15 <---- 126 (1)
[0]: 16 <---- 107 (0)
[0]: 16 <---- 171 (0)
[0]: 16 <---- 135 (0)
[0]: 16 <---- 211 (0)
[0]: 17 <---- 108 (0)
[0]: 17 <---- 173 (0)
[0]: 17 <---- 212 (0)
[0]: 17 <---- 148 (0)
[0]: 18 <---- 109 (0)
[0]: 18 <---- 213 (0)
[0]: 18 <---- 136 (0)
[0]: 18 <---- 147 (0)
[0]: 19 <---- 214 (0)
[0]: 19 <---- 172 (0)
[0]: 19 <---- 137 (0)
[0]: 19 <---- 149 (0)
[0]: 20 <---- 211 (-3)
[0]: 20 <---- 138 (0)
[0]: 20 <---- 216 (0)
[0]: 20 <---- 215 (2)
[0]: 21 <---- 212 (-2)
[0]: 21 <---- 150 (1)
[0]: 21 <---- 217 (0)
[0]: 21 <---- 218 (0)
[0]: 22 <---- 216 (-2)
[0]: 22 <---- 218 (-2)
[0]: 22 <---- 213 (-1)
[0]: 22 <---- 110 (2)
[0]: 23 <---- 217 (-2)
[0]: 23 <---- 215 (-1)
[0]: 23 <---- 214 (-2)
[0]: 23 <---- 174 (1)
[0]: 24 <---- 175 (0)
[0]: 24 <---- 119 (0)
[0]: 24 <---- 139 (0)
[0]: 24 <---- 219 (0)
[0]: 25 <---- 176 (0)
[0]: 25 <---- 121 (0)
[0]: 25 <---- 220 (0)
[0]: 25 <---- 156 (0)
[0]: 26 <---- 177 (0)
[0]: 26 <---- 221 (0)
[0]: 26 <---- 140 (0)
[0]: 26 <---- 155 (0)
[0]: 27 <---- 222 (0)
[0]: 27 <---- 120 (0)
[0]: 27 <---- 141 (0)
[0]: 27 <---- 157 (0)
[0]: 28 <---- 219 (-3)
[0]: 28 <---- 142 (0)
[0]: 28 <---- 224 (0)
[0]: 28 <---- 223 (2)
[0]: 29 <---- 220 (-2)
[0]: 29 <---- 158 (1)
[0]: 29 <---- 225 (0)
[0]: 29 <---- 226 (0)
[0]: 30 <---- 224 (-2)
[0]: 30 <---- 226 (-2)
[0]: 30 <---- 221 (-1)
[0]: 30 <---- 178 (2)
[0]: 31 <---- 225 (-2)
[0]: 31 <---- 223 (-1)
[0]: 31 <---- 222 (-2)
[0]: 31 <---- 122 (1)
[0]: 32 <---- 163 (-3)
[0]: 32 <---- 143 (0)
[0]: 32 <---- 183 (0)
[0]: 32 <---- 227 (0)
[0]: 33 <---- 165 (-3)
[0]: 33 <---- 145 (0)
[0]: 33 <---- 228 (0)
[0]: 33 <---- 179 (2)
[0]: 34 <---- 164 (-3)
[0]: 34 <---- 229 (0)
[0]: 34 <---- 184 (0)
[0]: 34 <---- 181 (2)
[0]: 35 <---- 230 (0)
[0]: 35 <---- 144 (0)
[0]: 35 <---- 185 (0)
[0]: 35 <---- 180 (2)
[0]: 36 <---- 227 (-3)
[0]: 36 <---- 186 (0)
[0]: 36 <---- 232 (0)
[0]: 36 <---- 231 (2)
[0]: 37 <---- 228 (-2)
[0]: 37 <---- 182 (0)
[0]: 37 <---- 233 (0)
[0]: 37 <---- 234 (0)
[0]: 38 <---- 232 (-2)
[0]: 38 <---- 234 (-2)
[0]: 38 <---- 229 (-1)
[0]: 38 <---- 166 (-3)
[0]: 39 <---- 233 (-2)
[0]: 39 <---- 231 (-1)
[0]: 39 <---- 230 (-2)
[0]: 39 <---- 146 (1)
[0]: 40 <---- 169 (-2)
[0]: 40 <---- 160 (1)
[0]: 40 <---- 187 (0)
[0]: 40 <---- 235 (0)
[0]: 41 <---- 168 (-2)
[0]: 41 <---- 159 (1)
[0]: 41 <---- 236 (0)
[0]: 41 <---- 192 (0)
[0]: 42 <---- 167 (-2)
[0]: 42 <---- 237 (0)
[0]: 42 <---- 188 (0)
[0]: 42 <---- 191 (0)
[0]: 43 <---- 238 (0)
[0]: 43 <---- 161 (1)
[0]: 43 <---- 189 (0)
[0]: 43 <---- 193 (0)
[0]: 44 <---- 235 (-3)
[0]: 44 <---- 190 (0)
[0]: 44 <---- 240 (0)
[0]: 44 <---- 239 (2)
[0]: 45 <---- 236 (-2)
[0]: 45 <---- 194 (1)
[0]: 45 <---- 241 (0)
[0]: 45 <---- 242 (0)
[0]: 46 <---- 240 (-2)
[0]: 46 <---- 242 (-2)
[0]: 46 <---- 237 (-1)
[0]: 46 <---- 170 (-2)
[0]: 47 <---- 241 (-2)
[0]: 47 <---- 239 (-1)
[0]: 47 <---- 238 (-2)
[0]: 47 <---- 162 (2)
[0]: 48 <---- 185 (-2)
[0]: 48 <---- 193 (-2)
[0]: 48 <---- 172 (-1)
[0]: 48 <---- 243 (0)
[0]: 49 <---- 184 (-2)
[0]: 49 <---- 191 (-2)
[0]: 49 <---- 244 (0)
[0]: 49 <---- 111 (2)
[0]: 50 <---- 183 (-2)
[0]: 50 <---- 245 (0)
[0]: 50 <---- 171 (-1)
[0]: 50 <---- 113 (2)
[0]: 51 <---- 246 (0)
[0]: 51 <---- 192 (-2)
[0]: 51 <---- 173 (-1)
[0]: 51 <---- 112 (2)
[0]: 52 <---- 243 (-3)
[0]: 52 <---- 174 (-3)
[0]: 52 <---- 248 (0)
[0]: 52 <---- 247 (2)
[0]: 53 <---- 244 (-2)
[0]: 53 <---- 114 (0)
[0]: 53 <---- 249 (0)
[0]: 53 <---- 250 (0)
[0]: 54 <---- 248 (-2)
[0]: 54 <---- 250 (-2)
[0]: 54 <---- 245 (-1)
[0]: 54 <---- 186 (-2)
[0]: 55 <---- 249 (-2)
[0]: 55 <---- 247 (-1)
[0]: 55 <---- 246 (-2)
[0]: 55 <---- 194 (-3)
[0]: 56 <---- 189 (-2)
[0]: 56 <---- 180 (-1)
[0]: 56 <---- 177 (-2)
[0]: 56 <---- 251 (0)
[0]: 57 <---- 188 (-2)
[0]: 57 <---- 181 (-1)
[0]: 57 <---- 252 (0)
[0]: 57 <---- 129 (1)
[0]: 58 <---- 187 (-2)
[0]: 58 <---- 253 (0)
[0]: 58 <---- 176 (-2)
[0]: 58 <---- 128 (1)
[0]: 59 <---- 254 (0)
[0]: 59 <---- 179 (-1)
[0]: 59 <---- 175 (-2)
[0]: 59 <---- 127 (1)
[0]: 60 <---- 251 (-3)
[0]: 60 <---- 178 (-1)
[0]: 60 <---- 256 (0)
[0]: 60 <---- 255 (2)
[0]: 61 <---- 252 (-2)
[0]: 61 <---- 130 (2)
[0]: 61 <---- 257 (0)
[0]: 61 <---- 258 (0)
[0]: 62 <---- 256 (-2)
[0]: 62 <---- 258 (-2)
[0]: 62 <---- 253 (-1)
[0]: 62 <---- 190 (-2)
[0]: 63 <---- 257 (-2)
[0]: 63 <---- 255 (-1)
[0]: 63 <---- 254 (-2)
[0]: 63 <---- 182 (-2)
[0]: 99 <---- 259 (0)
[0]: 99 <---- 311 (-2)
[0]: 99 <---- 270 (0)
[0]: 100 <---- 260 (0)
[0]: 100 <---- 288 (-2)
[0]: 100 <---- 309 (-2)
[0]: 101 <---- 310 (-2)
[0]: 101 <---- 287 (-2)
[0]: 101 <---- 269 (0)
[0]: 102 <---- 309 (0)
[0]: 102 <---- 310 (0)
[0]: 102 <---- 311 (0)
[0]: 103 <---- 261 (0)
[0]: 103 <---- 314 (-2)
[0]: 103 <---- 283 (-2)
[0]: 104 <---- 262 (0)
[0]: 104 <---- 263 (0)
[0]: 104 <---- 312 (-2)
[0]: 105 <---- 313 (-2)
[0]: 105 <---- 264 (0)
[0]: 105 <---- 284 (-2)
[0]: 106 <---- 312 (0)
[0]: 106 <---- 313 (0)
[0]: 106 <---- 314 (0)
[0]: 107 <---- 286 (-2)
[0]: 107 <---- 317 (-2)
[0]: 107 <---- 268 (0)
[0]: 108 <---- 285 (-2)
[0]: 108 <---- 265 (0)
[0]: 108 <---- 315 (-2)
[0]: 109 <---- 316 (-2)
[0]: 109 <---- 266 (0)
[0]: 109 <---- 267 (0)
[0]: 110 <---- 315 (0)
[0]: 110 <---- 316 (0)
[0]: 110 <---- 317 (0)
[0]: 111 <---- 283 (0)
[0]: 111 <---- 320 (-2)
[0]: 111 <---- 288 (0)
[0]: 112 <---- 284 (0)
[0]: 112 <---- 285 (0)
[0]: 112 <---- 318 (-2)
[0]: 113 <---- 319 (-2)
[0]: 113 <---- 286 (0)
[0]: 113 <---- 287 (0)
[0]: 114 <---- 318 (0)
[0]: 114 <---- 319 (0)
[0]: 114 <---- 320 (0)
[0]: 115 <---- 271 (0)
[0]: 115 <---- 323 (-2)
[0]: 115 <---- 259 (-2)
[0]: 116 <---- 272 (0)
[0]: 116 <---- 294 (-2)
[0]: 116 <---- 321 (-2)
[0]: 117 <---- 322 (-2)
[0]: 117 <---- 293 (-2)
[0]: 117 <---- 260 (-2)
[0]: 118 <---- 321 (0)
[0]: 118 <---- 322 (0)
[0]: 118 <---- 323 (0)
[0]: 119 <---- 273 (0)
[0]: 119 <---- 326 (-2)
[0]: 119 <---- 289 (-2)
[0]: 120 <---- 274 (0)
[0]: 120 <---- 275 (0)
[0]: 120 <---- 324 (-2)
[0]: 121 <---- 325 (-2)
[0]: 121 <---- 276 (0)
[0]: 121 <---- 290 (-2)
[0]: 122 <---- 324 (0)
[0]: 122 <---- 325 (0)
[0]: 122 <---- 326 (0)
[0]: 123 <---- 292 (-2)
[0]: 123 <---- 329 (-2)
[0]: 123 <---- 261 (-2)
[0]: 124 <---- 291 (-2)
[0]: 124 <---- 277 (0)
[0]: 124 <---- 327 (-2)
[0]: 125 <---- 328 (-2)
[0]: 125 <---- 278 (0)
[0]: 125 <---- 262 (-2)
[0]: 126 <---- 327 (0)
[0]: 126 <---- 328 (0)
[0]: 126 <---- 329 (0)
[0]: 127 <---- 289 (0)
[0]: 127 <---- 332 (-2)
[0]: 127 <---- 294 (0)
[0]: 128 <---- 290 (0)
[0]: 128 <---- 291 (0)
[0]: 128 <---- 330 (-2)
[0]: 129 <---- 331 (-2)
[0]: 129 <---- 292 (0)
[0]: 129 <---- 293 (0)
[0]: 130 <---- 330 (0)
[0]: 130 <---- 331 (0)
[0]: 130 <---- 332 (0)
[0]: 131 <---- 270 (-2)
[0]: 131 <---- 335 (-2)
[0]: 131 <---- 271 (-2)
[0]: 132 <---- 269 (-2)
[0]: 132 <---- 300 (-2)
[0]: 132 <---- 333 (-2)
[0]: 133 <---- 334 (-2)
[0]: 133 <---- 299 (-2)
[0]: 133 <---- 272 (-2)
[0]: 134 <---- 333 (0)
[0]: 134 <---- 334 (0)
[0]: 134 <---- 335 (0)
[0]: 135 <---- 268 (-2)
[0]: 135 <---- 338 (-2)
[0]: 135 <---- 295 (-2)
[0]: 136 <---- 267 (-2)
[0]: 136 <---- 279 (0)
[0]: 136 <---- 336 (-2)
[0]: 137 <---- 337 (-2)
[0]: 137 <---- 280 (0)
[0]: 137 <---- 296 (-2)
[0]: 138 <---- 336 (0)
[0]: 138 <---- 337 (0)
[0]: 138 <---- 338 (0)
[0]: 139 <---- 298 (-2)
[0]: 139 <---- 341 (-2)
[0]: 139 <---- 273 (-2)
[0]: 140 <---- 297 (-2)
[0]: 140 <---- 281 (0)
[0]: 140 <---- 339 (-2)
[0]: 141 <---- 340 (-2)
[0]: 141 <---- 282 (0)
[0]: 141 <---- 274 (-2)
[0]: 142 <---- 339 (0)
[0]: 142 <---- 340 (0)
[0]: 142 <---- 341 (0)
[0]: 143 <---- 295 (0)
[0]: 143 <---- 344 (-2)
[0]: 143 <---- 300 (0)
[0]: 144 <---- 296 (0)
[0]: 144 <---- 297 (0)
[0]: 144 <---- 342 (-2)
[0]: 145 <---- 343 (-2)
[0]: 145 <---- 298 (0)
[0]: 145 <---- 299 (0)
[0]: 146 <---- 342 (0)
[0]: 146 <---- 343 (0)
[0]: 146 <---- 344 (0)
[0]: 147 <---- 266 (-2)
[0]: 147 <---- 347 (-2)
[0]: 147 <---- 279 (-2)
[0]: 148 <---- 265 (-2)
[0]: 148 <---- 306 (-2)
[0]: 148 <---- 345 (-2)
[0]: 149 <---- 346 (-2)
[0]: 149 <---- 305 (-2)
[0]: 149 <---- 280 (-2)
[0]: 150 <---- 345 (0)
[0]: 150 <---- 346 (0)
[0]: 150 <---- 347 (0)
[0]: 151 <---- 264 (-2)
[0]: 151 <---- 350 (-2)
[0]: 151 <---- 301 (-2)
[0]: 152 <---- 263 (-2)
[0]: 152 <---- 278 (-2)
[0]: 152 <---- 348 (-2)
[0]: 153 <---- 349 (-2)
[0]: 153 <---- 277 (-2)
[0]: 153 <---- 302 (-2)
[0]: 154 <---- 348 (0)
[0]: 154 <---- 349 (0)
[0]: 154 <---- 350 (0)
[0]: 155 <---- 304 (-2)
[0]: 155 <---- 353 (-2)
[0]: 155 <---- 281 (-2)
[0]: 156 <---- 303 (-2)
[0]: 156 <---- 276 (-2)
[0]: 156 <---- 351 (-2)
[0]: 157 <---- 352 (-2)
[0]: 157 <---- 275 (-2)
[0]: 157 <---- 282 (-2)
[0]: 158 <---- 351 (0)
[0]: 158 <---- 352 (0)
[0]: 158 <---- 353 (0)
[0]: 159 <---- 301 (0)
[0]: 159 <---- 356 (-2)
[0]: 159 <---- 306 (0)
[0]: 160 <---- 302 (0)
[0]: 160 <---- 303 (0)
[0]: 160 <---- 354 (-2)
[0]: 161 <---- 355 (-2)
[0]: 161 <---- 304 (0)
[0]: 161 <---- 305 (0)
[0]: 162 <---- 354 (0)
[0]: 162 <---- 355 (0)
[0]: 162 <---- 356 (0)
[0]: 163 <---- 287 (0)
[0]: 163 <---- 359 (-2)
[0]: 163 <---- 300 (0)
[0]: 164 <---- 288 (0)
[0]: 164 <---- 293 (0)
[0]: 164 <---- 357 (-2)
[0]: 165 <---- 358 (-2)
[0]: 165 <---- 294 (0)
[0]: 165 <---- 299 (0)
[0]: 166 <---- 357 (0)
[0]: 166 <---- 358 (0)
[0]: 166 <---- 359 (0)
[0]: 167 <---- 283 (0)
[0]: 167 <---- 362 (-2)
[0]: 167 <---- 292 (0)
[0]: 168 <---- 284 (0)
[0]: 168 <---- 301 (0)
[0]: 168 <---- 360 (-2)
[0]: 169 <---- 361 (-2)
[0]: 169 <---- 302 (0)
[0]: 169 <---- 291 (0)
[0]: 170 <---- 360 (0)
[0]: 170 <---- 361 (0)
[0]: 170 <---- 362 (0)
[0]: 171 <---- 295 (0)
[0]: 171 <---- 365 (-2)
[0]: 171 <---- 286 (0)
[0]: 172 <---- 296 (0)
[0]: 172 <---- 305 (0)
[0]: 172 <---- 363 (-2)
[0]: 173 <---- 364 (-2)
[0]: 173 <---- 306 (0)
[0]: 173 <---- 285 (0)
[0]: 174 <---- 363 (0)
[0]: 174 <---- 364 (0)
[0]: 174 <---- 365 (0)
[0]: 175 <---- 289 (0)
[0]: 175 <---- 368 (-2)
[0]: 175 <---- 298 (0)
[0]: 176 <---- 290 (0)
[0]: 176 <---- 303 (0)
[0]: 176 <---- 366 (-2)
[0]: 177 <---- 367 (-2)
[0]: 177 <---- 304 (0)
[0]: 177 <---- 297 (0)
[0]: 178 <---- 366 (0)
[0]: 178 <---- 367 (0)
[0]: 178 <---- 368 (0)
[0]: 179 <---- 298 (-2)
[0]: 179 <---- 371 (-2)
[0]: 179 <---- 294 (0)
[0]: 180 <---- 297 (-2)
[0]: 180 <---- 308 (-2)
[0]: 180 <---- 369 (-2)
[0]: 181 <---- 370 (-2)
[0]: 181 <---- 307 (-2)
[0]: 181 <---- 293 (0)
[0]: 182 <---- 369 (0)
[0]: 182 <---- 370 (0)
[0]: 182 <---- 371 (0)
[0]: 183 <---- 287 (0)
[0]: 183 <---- 374 (-2)
[0]: 183 <---- 295 (-2)
[0]: 184 <---- 288 (0)
[0]: 184 <---- 307 (0)
[0]: 184 <---- 372 (-2)
[0]: 185 <---- 373 (-2)
[0]: 185 <---- 308 (0)
[0]: 185 <---- 296 (-2)
[0]: 186 <---- 372 (0)
[0]: 186 <---- 373 (0)
[0]: 186 <---- 374 (0)
[0]: 187 <---- 291 (0)
[0]: 187 <---- 377 (-2)
[0]: 187 <---- 303 (-2)
[0]: 188 <---- 292 (0)
[0]: 188 <---- 307 (0)
[0]: 188 <---- 375 (-2)
[0]: 189 <---- 376 (-2)
[0]: 189 <---- 308 (0)
[0]: 189 <---- 304 (-2)
[0]: 190 <---- 375 (0)
[0]: 190 <---- 376 (0)
[0]: 190 <---- 377 (0)
[0]: 191 <---- 283 (0)
[0]: 191 <---- 380 (-2)
[0]: 191 <---- 307 (-2)
[0]: 192 <---- 284 (0)
[0]: 192 <---- 306 (-2)
[0]: 192 <---- 378 (-2)
[0]: 193 <---- 379 (-2)
[0]: 193 <---- 305 (-2)
[0]: 193 <---- 308 (-2)
[0]: 194 <---- 378 (0)
[0]: 194 <---- 379 (0)
[0]: 194 <---- 380 (0)
[0]: 195 <---- 311 (0)
[0]: 195 <---- 323 (0)
[0]: 195 <---- 335 (0)
[0]: 196 <---- 309 (0)
[0]: 196 <---- 357 (0)
[0]: 196 <---- 322 (0)
[0]: 197 <---- 333 (0)
[0]: 197 <---- 359 (0)
[0]: 197 <---- 310 (0)
[0]: 198 <---- 321 (0)
[0]: 198 <---- 358 (0)
[0]: 198 <---- 334 (0)
[0]: 199 <---- 334 (-2)
[0]: 199 <---- 381 (-2)
[0]: 199 <---- 323 (0)
[0]: 200 <---- 311 (0)
[0]: 200 <---- 381 (0)
[0]: 200 <---- 333 (-2)
[0]: 201 <---- 322 (0)
[0]: 201 <---- 381 (0)
[0]: 201 <---- 358 (-2)
[0]: 202 <---- 309 (0)
[0]: 202 <---- 359 (-2)
[0]: 202 <---- 381 (-2)
[0]: 203 <---- 314 (0)
[0]: 203 <---- 329 (0)
[0]: 203 <---- 362 (0)
[0]: 204 <---- 312 (0)
[0]: 204 <---- 348 (0)
[0]: 204 <---- 328 (0)
[0]: 205 <---- 360 (0)
[0]: 205 <---- 350 (0)
[0]: 205 <---- 313 (0)
[0]: 206 <---- 327 (0)
[0]: 206 <---- 349 (0)
[0]: 206 <---- 361 (0)
[0]: 207 <---- 361 (-2)
[0]: 207 <---- 382 (-2)
[0]: 207 <---- 329 (0)
[0]: 208 <---- 314 (0)
[0]: 208 <---- 382 (0)
[0]: 208 <---- 360 (-2)
[0]: 209 <---- 328 (0)
[0]: 209 <---- 382 (0)
[0]: 209 <---- 349 (-2)
[0]: 210 <---- 312 (0)
[0]: 210 <---- 350 (-2)
[0]: 210 <---- 382 (-2)
[0]: 211 <---- 317 (0)
[0]: 211 <---- 365 (0)
[0]: 211 <---- 338 (0)
[0]: 212 <---- 315 (0)
[0]: 212 <---- 345 (0)
[0]: 212 <---- 364 (0)
[0]: 213 <---- 336 (0)
[0]: 213 <---- 347 (0)
[0]: 213 <---- 316 (0)
[0]: 214 <---- 363 (0)
[0]: 214 <---- 346 (0)
[0]: 214 <---- 337 (0)
[0]: 215 <---- 337 (-2)
[0]: 215 <---- 383 (-2)
[0]: 215 <---- 365 (0)
[0]: 216 <---- 317 (0)
[0]: 216 <---- 383 (0)
[0]: 216 <---- 336 (-2)
[0]: 217 <---- 364 (0)
[0]: 217 <---- 383 (0)
[0]: 217 <---- 346 (-2)
[0]: 218 <---- 315 (0)
[0]: 218 <---- 347 (-2)
[0]: 218 <---- 383 (-2)
[0]: 219 <---- 368 (0)
[0]: 219 <---- 326 (0)
[0]: 219 <---- 341 (0)
[0]: 220 <---- 366 (0)
[0]: 220 <---- 351 (0)
[0]: 220 <---- 325 (0)
[0]: 221 <---- 339 (0)
[0]: 221 <---- 353 (0)
[0]: 221 <---- 367 (0)
[0]: 222 <---- 324 (0)
[0]: 222 <---- 352 (0)
[0]: 222 <---- 340 (0)
[0]: 223 <---- 340 (-2)
[0]: 223 <---- 384 (-2)
[0]: 223 <---- 326 (0)
[0]: 224 <---- 368 (0)
[0]: 224 <---- 384 (0)
[0]: 224 <---- 339 (-2)
[0]: 225 <---- 325 (0)
[0]: 225 <---- 384 (0)
[0]: 225 <---- 352 (-2)
[0]: 226 <---- 366 (0)
[0]: 226 <---- 353 (-2)
[0]: 226 <---- 384 (-2)
[0]: 227 <---- 359 (-2)
[0]: 227 <---- 344 (0)
[0]: 227 <---- 374 (0)
[0]: 228 <---- 358 (-2)
[0]: 228 <---- 371 (0)
[0]: 228 <---- 343 (0)
[0]: 229 <---- 372 (0)
[0]: 229 <---- 370 (0)
[0]: 229 <---- 357 (-2)
[0]: 230 <---- 342 (0)
[0]: 230 <---- 369 (0)
[0]: 230 <---- 373 (0)
[0]: 231 <---- 373 (-2)
[0]: 231 <---- 385 (-2)
[0]: 231 <---- 344 (0)
[0]: 232 <---- 359 (-2)
[0]: 232 <---- 385 (0)
[0]: 232 <---- 372 (-2)
[0]: 233 <---- 343 (0)
[0]: 233 <---- 385 (0)
[0]: 233 <---- 369 (-2)
[0]: 234 <---- 358 (-2)
[0]: 234 <---- 370 (-2)
[0]: 234 <---- 385 (-2)
[0]: 235 <---- 361 (-2)
[0]: 235 <---- 354 (0)
[0]: 235 <---- 377 (0)
[0]: 236 <---- 360 (-2)
[0]: 236 <---- 378 (0)
[0]: 236 <---- 356 (0)
[0]: 237 <---- 375 (0)
[0]: 237 <---- 380 (0)
[0]: 237 <---- 362 (-2)
[0]: 238 <---- 355 (0)
[0]: 238 <---- 379 (0)
[0]: 238 <---- 376 (0)
[0]: 239 <---- 376 (-2)
[0]: 239 <---- 386 (-2)
[0]: 239 <---- 354 (0)
[0]: 240 <---- 361 (-2)
[0]: 240 <---- 386 (0)
[0]: 240 <---- 375 (-2)
[0]: 241 <---- 356 (0)
[0]: 241 <---- 386 (0)
[0]: 241 <---- 379 (-2)
[0]: 242 <---- 360 (-2)
[0]: 242 <---- 380 (-2)
[0]: 242 <---- 386 (-2)
[0]: 243 <---- 373 (-2)
[0]: 243 <---- 379 (-2)
[0]: 243 <---- 363 (-2)
[0]: 244 <---- 372 (-2)
[0]: 244 <---- 320 (0)
[0]: 244 <---- 380 (-2)
[0]: 245 <---- 365 (-2)
[0]: 245 <---- 319 (0)
[0]: 245 <---- 374 (-2)
[0]: 246 <---- 378 (-2)
[0]: 246 <---- 318 (0)
[0]: 246 <---- 364 (-2)
[0]: 247 <---- 364 (0)
[0]: 247 <---- 387 (-2)
[0]: 247 <---- 379 (-2)
[0]: 248 <---- 373 (-2)
[0]: 248 <---- 387 (0)
[0]: 248 <---- 365 (0)
[0]: 249 <---- 380 (-2)
[0]: 249 <---- 387 (0)
[0]: 249 <---- 318 (-2)
[0]: 250 <---- 372 (-2)
[0]: 250 <---- 319 (-2)
[0]: 250 <---- 387 (-2)
[0]: 251 <---- 376 (-2)
[0]: 251 <---- 369 (-2)
[0]: 251 <---- 367 (-2)
[0]: 252 <---- 375 (-2)
[0]: 252 <---- 331 (0)
[0]: 252 <---- 370 (-2)
[0]: 253 <---- 366 (-2)
[0]: 253 <---- 330 (0)
[0]: 253 <---- 377 (-2)
[0]: 254 <---- 371 (-2)
[0]: 254 <---- 332 (0)
[0]: 254 <---- 368 (-2)
[0]: 255 <---- 368 (0)
[0]: 255 <---- 388 (-2)
[0]: 255 <---- 369 (-2)
[0]: 256 <---- 376 (-2)
[0]: 256 <---- 388 (0)
[0]: 256 <---- 366 (0)
[0]: 257 <---- 370 (-2)
[0]: 257 <---- 388 (0)
[0]: 257 <---- 332 (-2)
[0]: 258 <---- 375 (-2)
[0]: 258 <---- 330 (-2)
[0]: 258 <---- 388 (-2)
[0]: 259 <---- 65 (0)
[0]: 259 <---- 74 (0)
[0]: 260 <---- 74 (0)
[0]: 260 <---- 68 (0)
[0]: 261 <---- 68 (0)
[0]: 261 <---- 75 (0)
[0]: 262 <---- 75 (0)
[0]: 262 <---- 66 (0)
[0]: 263 <---- 66 (0)
[0]: 263 <---- 76 (0)
[0]: 264 <---- 76 (0)
[0]: 264 <---- 69 (0)
[0]: 265 <---- 69 (0)
[0]: 265 <---- 77 (0)
[0]: 266 <---- 77 (0)
[0]: 266 <---- 67 (0)
[0]: 267 <---- 67 (0)
[0]: 267 <---- 78 (0)
[0]: 268 <---- 78 (0)
[0]: 268 <---- 70 (0)
[0]: 269 <---- 70 (0)
[0]: 269 <---- 79 (0)
[0]: 270 <---- 79 (0)
[0]: 270 <---- 65 (0)
[0]: 271 <---- 65 (0)
[0]: 271 <---- 80 (0)
[0]: 272 <---- 80 (0)
[0]: 272 <---- 71 (0)
[0]: 273 <---- 71 (0)
[0]: 273 <---- 81 (0)
[0]: 274 <---- 81 (0)
[0]: 274 <---- 64 (0)
[0]: 275 <---- 64 (0)
[0]: 275 <---- 82 (0)
[0]: 276 <---- 82 (0)
[0]: 276 <---- 72 (0)
[0]: 277 <---- 72 (0)
[0]: 277 <---- 83 (0)
[0]: 278 <---- 83 (0)
[0]: 278 <---- 66 (0)
[0]: 279 <---- 67 (0)
[0]: 279 <---- 84 (0)
[0]: 280 <---- 84 (0)
[0]: 280 <---- 73 (0)
[0]: 281 <---- 73 (0)
[0]: 281 <---- 85 (0)
[0]: 282 <---- 85 (0)
[0]: 282 <---- 64 (0)
[0]: 283 <---- 68 (0)
[0]: 283 <---- 86 (0)
[0]: 284 <---- 86 (0)
[0]: 284 <---- 69 (0)
[0]: 285 <---- 69 (0)
[0]: 285 <---- 87 (0)
[0]: 286 <---- 87 (0)
[0]: 286 <---- 70 (0)
[0]: 287 <---- 70 (0)
[0]: 287 <---- 88 (0)
[0]: 288 <---- 88 (0)
[0]: 288 <---- 68 (0)
[0]: 289 <---- 71 (0)
[0]: 289 <---- 89 (0)
[0]: 290 <---- 89 (0)
[0]: 290 <---- 72 (0)
[0]: 291 <---- 72 (0)
[0]: 291 <---- 90 (0)
[0]: 292 <---- 90 (0)
[0]: 292 <---- 68 (0)
[0]: 293 <---- 68 (0)
[0]: 293 <---- 91 (0)
[0]: 294 <---- 91 (0)
[0]: 294 <---- 71 (0)
[0]: 295 <---- 70 (0)
[0]: 295 <---- 92 (0)
[0]: 296 <---- 92 (0)
[0]: 296 <---- 73 (0)
[0]: 297 <---- 73 (0)
[0]: 297 <---- 93 (0)
[0]: 298 <---- 93 (0)
[0]: 298 <---- 71 (0)
[0]: 299 <---- 71 (0)
[0]: 299 <---- 94 (0)
[0]: 300 <---- 94 (0)
[0]: 300 <---- 70 (0)
[0]: 301 <---- 69 (0)
[0]: 301 <---- 95 (0)
[0]: 302 <---- 95 (0)
[0]: 302 <---- 72 (0)
[0]: 303 <---- 72 (0)
[0]: 303 <---- 96 (0)
[0]: 304 <---- 96 (0)
[0]: 304 <---- 73 (0)
[0]: 305 <---- 73 (0)
[0]: 305 <---- 97 (0)
[0]: 306 <---- 97 (0)
[0]: 306 <---- 69 (0)
[0]: 307 <---- 68 (0)
[0]: 307 <---- 98 (0)
[0]: 308 <---- 98 (0)
[0]: 308 <---- 73 (0)
[0]: 309 <---- 74 (0)
[0]: 309 <---- 88 (0)
[0]: 310 <---- 88 (0)
[0]: 310 <---- 79 (0)
[0]: 311 <---- 79 (0)
[0]: 311 <---- 74 (0)
[0]: 312 <---- 75 (0)
[0]: 312 <---- 76 (0)
[0]: 313 <---- 76 (0)
[0]: 313 <---- 86 (0)
[0]: 314 <---- 86 (0)
[0]: 314 <---- 75 (0)
[0]: 315 <---- 87 (0)
[0]: 315 <---- 77 (0)
[0]: 316 <---- 77 (0)
[0]: 316 <---- 78 (0)
[0]: 317 <---- 78 (0)
[0]: 317 <---- 87 (0)
[0]: 318 <---- 86 (0)
[0]: 318 <---- 87 (0)
[0]: 319 <---- 87 (0)
[0]: 319 <---- 88 (0)
[0]: 320 <---- 88 (0)
[0]: 320 <---- 86 (0)
[0]: 321 <---- 80 (0)
[0]: 321 <---- 91 (0)
[0]: 322 <---- 91 (0)
[0]: 322 <---- 74 (0)
[0]: 323 <---- 74 (0)
[0]: 323 <---- 80 (0)
[0]: 324 <---- 81 (0)
[0]: 324 <---- 82 (0)
[0]: 325 <---- 82 (0)
[0]: 325 <---- 89 (0)
[0]: 326 <---- 89 (0)
[0]: 326 <---- 81 (0)
[0]: 327 <---- 90 (0)
[0]: 327 <---- 83 (0)
[0]: 328 <---- 83 (0)
[0]: 328 <---- 75 (0)
[0]: 329 <---- 75 (0)
[0]: 329 <---- 90 (0)
[0]: 330 <---- 89 (0)
[0]: 330 <---- 90 (0)
[0]: 331 <---- 90 (0)
[0]: 331 <---- 91 (0)
[0]: 332 <---- 91 (0)
[0]: 332 <---- 89 (0)
[0]: 333 <---- 79 (0)
[0]: 333 <---- 94 (0)
[0]: 334 <---- 94 (0)
[0]: 334 <---- 80 (0)
[0]: 335 <---- 80 (0)
[0]: 335 <---- 79 (0)
[0]: 336 <---- 78 (0)
[0]: 336 <---- 84 (0)
[0]: 337 <---- 84 (0)
[0]: 337 <---- 92 (0)
[0]: 338 <---- 92 (0)
[0]: 338 <---- 78 (0)
[0]: 339 <---- 93 (0)
[0]: 339 <---- 85 (0)
[0]: 340 <---- 85 (0)
[0]: 340 <---- 81 (0)
[0]: 341 <---- 81 (0)
[0]: 341 <---- 93 (0)
[0]: 342 <---- 92 (0)
[0]: 342 <---- 93 (0)
[0]: 343 <---- 93 (0)
[0]: 343 <---- 94 (0)
[0]: 344 <---- 94 (0)
[0]: 344 <---- 92 (0)
[0]: 345 <---- 77 (0)
[0]: 345 <---- 97 (0)
[0]: 346 <---- 97 (0)
[0]: 346 <---- 84 (0)
[0]: 347 <---- 84 (0)
[0]: 347 <---- 77 (0)
[0]: 348 <---- 76 (0)
[0]: 348 <---- 83 (0)
[0]: 349 <---- 83 (0)
[0]: 349 <---- 95 (0)
[0]: 350 <---- 95 (0)
[0]: 350 <---- 76 (0)
[0]: 351 <---- 96 (0)
[0]: 351 <---- 82 (0)
[0]: 352 <---- 82 (0)
[0]: 352 <---- 85 (0)
[0]: 353 <---- 85 (0)
[0]: 353 <---- 96 (0)
[0]: 354 <---- 95 (0)
[0]: 354 <---- 96 (0)
[0]: 355 <---- 96 (0)
[0]: 355 <---- 97 (0)
[0]: 356 <---- 97 (0)
[0]: 356 <---- 95 (0)
[0]: 357 <---- 88 (0)
[0]: 357 <---- 91 (0)
[0]: 358 <---- 91 (0)
[0]: 358 <---- 94 (0)
[0]: 359 <---- 94 (0)
[0]: 359 <---- 88 (0)
[0]: 360 <---- 86 (0)
[0]: 360 <---- 95 (0)
[0]: 361 <---- 95 (0)
[0]: 361 <---- 90 (0)
[0]: 362 <---- 90 (0)
[0]: 362 <---- 86 (0)
[0]: 363 <---- 92 (0)
[0]: 363 <---- 97 (0)
[0]: 364 <---- 97 (0)
[0]: 364 <---- 87 (0)
[0]: 365 <---- 87 (0)
[0]: 365 <---- 92 (0)
[0]: 366 <---- 89 (0)
[0]: 366 <---- 96 (0)
[0]: 367 <---- 96 (0)
[0]: 367 <---- 93 (0)
[0]: 368 <---- 93 (0)
[0]: 368 <---- 89 (0)
[0]: 369 <---- 93 (0)
[0]: 369 <---- 98 (0)
[0]: 370 <---- 98 (0)
[0]: 370 <---- 91 (0)
[0]: 371 <---- 91 (0)
[0]: 371 <---- 93 (0)
[0]: 372 <---- 88 (0)
[0]: 372 <---- 98 (0)
[0]: 373 <---- 98 (0)
[0]: 373 <---- 92 (0)
[0]: 374 <---- 92 (0)
[0]: 374 <---- 88 (0)
[0]: 375 <---- 90 (0)
[0]: 375 <---- 98 (0)
[0]: 376 <---- 98 (0)
[0]: 376 <---- 96 (0)
[0]: 377 <---- 96 (0)
[0]: 377 <---- 90 (0)
[0]: 378 <---- 86 (0)
[0]: 378 <---- 97 (0)
[0]: 379 <---- 97 (0)
[0]: 379 <---- 98 (0)
[0]: 380 <---- 98 (0)
[0]: 380 <---- 86 (0)
[0]: 381 <---- 74 (0)
[0]: 381 <---- 94 (0)
[0]: 382 <---- 75 (0)
[0]: 382 <---- 95 (0)
[0]: 383 <---- 87 (0)
[0]: 383 <---- 84 (0)
[0]: 384 <---- 89 (0)
[0]: 384 <---- 85 (0)
[0]: 385 <---- 94 (0)
[0]: 385 <---- 98 (0)
[0]: 386 <---- 95 (0)
[0]: 386 <---- 98 (0)
[0]: 387 <---- 98 (0)
[0]: 387 <---- 87 (0)
[0]: 388 <---- 98 (0)
[0]: 388 <---- 89 (0)
coordinates with 1 fields
  field 0 with 3 components
Process 0:
  (  64) dim  3 offset   0 0 0 0
  (  65) dim  3 offset   3 1 0 0
  (  66) dim  3 offset   6 0 1 0
  (  67) dim  3 offset   9 0 0 1
  (  68) dim  3 offset  12 0.5 0.5 0
  (  69) dim  3 offset  15 0 0.5 0.5
  (  70) dim  3 offset  18 0.5 0 0.5
  (  71) dim  3 offset  21 0.5 0 0
  (  72) dim  3 offset  24 0 0.5 0
  (  73) dim  3 offset  27 0 0 0.5
  (  74) dim  3 offset  30 0.75 0.25 0
  (  75) dim  3 offset  33 0.25 0.75 0
  (  76) dim  3 offset  36 0 0.75 0.25
  (  77) dim  3 offset  39 0 0.25 0.75
  (  78) dim  3 offset  42 0.25 0 0.75
  (  79) dim  3 offset  45 0.75 0 0.25
  (  80) dim  3 offset  48 0.75 0 0
  (  81) dim  3 offset  51 0.25 0 0
  (  82) dim  3 offset  54 0 0.25 0
  (  83) dim  3 offset  57 0 0.75 0
  (  84) dim  3 offset  60 0 0 0.75
  (  85) dim  3 offset  63 0 0 0.25
  (  86) dim  3 offset  66 0.25 0.5 0.25
  (  87) dim  3 offset  69 0.25 0.25 0.5
  (  88) dim  3 offset  72 0.5 0.25 0.25
  (  89) dim  3 offset  75 0.25 0.25 0
  (  90) dim  3 offset  78 0.25 0.5 0
  (  91) dim  3 offset  81 0.5 0.25 0
  (  92) dim  3 offset  84 0.25 0 0.5
  (  93) dim  3 offset  87 0.25 0 0.25
  (  94) dim  3 offset  90 0.5 0 0.25
  (  95) dim  3 offset  93 0 0.5 0.25
  (  96) dim  3 offset  96 0 0.25 0.25
  (  97) dim  3 offset  99 0 0.25 0.5
  (  98) dim  3 offset 102 0.25 0.25 0.25