DM Object:Parallel Mesh 2 MPI processes
  type: plex
Mesh 'Parallel Mesh':
Max sizes cone: 4 support: 3
orientation is missing
cap --> base:
[0]: 1 ----> 9
[0]: 1 ----> 11
[0]: 1 ----> 12
[0]: 2 ----> 10
[0]: 2 ----> 11
[0]: 2 ----> 14
[0]: 3 ----> 9
[0]: 3 ----> 10
[0]: 3 ----> 13
[0]: 4 ----> 12
[0]: 4 ----> 13
[0]: 4 ----> 14
[0]: 5 ----> 0
[0]: 6 ----> 0
[0]: 7 ----> 0
[0]: 8 ----> 0
[0]: 9 ----> 5
[0]: 9 ----> 6
[0]: 10 ----> 5
[0]: 10 ----> 8
[0]: 11 ----> 5
[0]: 11 ----> 7
[0]: 12 ----> 6
[0]: 12 ----> 7
[0]: 13 ----> 6
[0]: 13 ----> 8
[0]: 14 ----> 7
[0]: 14 ----> 8
Max sizes cone: 4 support: 3
[1]: 1 ----> 9
[1]: 1 ----> 11
[1]: 1 ----> 12
[1]: 2 ----> 9
[1]: 2 ----> 10
[1]: 2 ----> 14
[1]: 3 ----> 10
[1]: 3 ----> 11
[1]: 3 ----> 13
[1]: 4 ----> 12
[1]: 4 ----> 13
[1]: 4 ----> 14
[1]: 5 ----> 0
[1]: 6 ----> 0
[1]: 7 ----> 0
[1]: 8 ----> 0
[1]: 9 ----> 5
[1]: 9 ----> 7
[1]: 10 ----> 5
[1]: 10 ----> 8
[1]: 11 ----> 5
[1]: 11 ----> 6
[1]: 12 ----> 6
[1]: 12 ----> 7
[1]: 13 ----> 6
[1]: 13 ----> 8
[1]: 14 ----> 7
[1]: 14 ----> 8
base <-- cap:
[0]: 0 <---- 5 (0)
[0]: 0 <---- 6 (0)
[0]: 0 <---- 7 (0)
[0]: 0 <---- 8 (0)
[0]: 5 <---- 9 (0)
[0]: 5 <---- 10 (0)
[0]: 5 <---- 11 (0)
[0]: 6 <---- 12 (0)
[0]: 6 <---- 13 (0)
[0]: 6 <---- 9 (-2)
[0]: 7 <---- 11 (-2)
[0]: 7 <---- 14 (0)
[0]: 7 <---- 12 (-2)
[0]: 8 <---- 10 (-2)
[0]: 8 <---- 13 (-2)
[0]: 8 <---- 14 (-2)
[0]: 9 <---- 1 (0)
[0]: 9 <---- 3 (0)
[0]: 10 <---- 3 (0)
[0]: 10 <---- 2 (0)
[0]: 11 <---- 2 (0)
[0]: 11 <---- 1 (0)
[0]: 12 <---- 1 (0)
[0]: 12 <---- 4 (0)
[0]: 13 <---- 4 (0)
[0]: 13 <---- 3 (0)
[0]: 14 <---- 2 (0)
[0]: 14 <---- 4 (0)
[1]: 0 <---- 5 (-3)
[1]: 0 <---- 6 (0)
[1]: 0 <---- 7 (0)
[1]: 0 <---- 8 (0)
[1]: 5 <---- 9 (-2)
[1]: 5 <---- 10 (-2)
[1]: 5 <---- 11 (-2)
[1]: 6 <---- 12 (0)
[1]: 6 <---- 13 (0)
[1]: 6 <---- 11 (-2)
[1]: 7 <---- 9 (-2)
[1]: 7 <---- 14 (0)
[1]: 7 <---- 12 (-2)
[1]: 8 <---- 10 (-2)
[1]: 8 <---- 13 (-2)
[1]: 8 <---- 14 (-2)
[1]: 9 <---- 2 (0)
[1]: 9 <---- 1 (0)
[1]: 10 <---- 3 (0)
[1]: 10 <---- 2 (0)
[1]: 11 <---- 1 (0)
[1]: 11 <---- 3 (0)
[1]: 12 <---- 1 (0)
[1]: 12 <---- 4 (0)
[1]: 13 <---- 4 (0)
[1]: 13 <---- 3 (0)
[1]: 14 <---- 2 (0)
[1]: 14 <---- 4 (0)
coordinates with 1 fields
  field 0 with 3 components
Process 0:
  (   1) dim  3 offset   0 0 0 -0.5
  (   2) dim  3 offset   3 0 -0.5 0
  (   3) dim  3 offset   6 1 0 0
  (   4) dim  3 offset   9 0 0.5 0
Process 1:
  (   1) dim  3 offset   0 0 -0.5 0
  (   2) dim  3 offset   3 1 0 0
  (   3) dim  3 offset   6 0 0.5 0
  (   4) dim  3 offset   9 0 0 0.5
PetscSF Object: 2 MPI processes
  type: basic
    sort=rank-order
  [0] Number of roots=15, leaves=7, remote ranks=1
  [0] 2 <- (1,1)
  [0] 3 <- (1,2)
  [0] 4 <- (1,3)
  [0] 8 <- (1,5)
  [0] 10 <- (1,9)
  [0] 13 <- (1,10)
  [0] 14 <- (1,11)
  [1] Number of roots=15, leaves=0, remote ranks=0
  [0] Roots referenced by my leaves, by rank
  [0] 1: 7 edges
  [0]    2 <- 1
  [0]    3 <- 2
  [0]    4 <- 3
  [0]    8 <- 5
  [0]    10 <- 9
  [0]    13 <- 10
  [0]    14 <- 11
  [1] Roots referenced by my leaves, by rank
DM Object:Hybrid Mesh 2 MPI processes
  type: plex
Mesh 'Hybrid Mesh':
Max sizes cone: 4 support: 7
orientation is missing
cap --> base:
[0]: 8 ----> 42
[0]: 8 ----> 47
[0]: 8 ----> 48
[0]: 9 ----> 45
[0]: 9 ----> 46
[0]: 9 ----> 52
[0]: 10 ----> 43
[0]: 10 ----> 44
[0]: 10 ----> 51
[0]: 11 ----> 49
[0]: 11 ----> 50
[0]: 11 ----> 53
[0]: 12 ----> 42
[0]: 12 ----> 43
[0]: 12 ----> 54
[0]: 12 ----> 56
[0]: 12 ----> 59
[0]: 12 ----> 58
[0]: 12 ----> 66
[0]: 13 ----> 44
[0]: 13 ----> 45
[0]: 13 ----> 55
[0]: 13 ----> 54
[0]: 13 ----> 63
[0]: 13 ----> 65
[0]: 14 ----> 46
[0]: 14 ----> 47
[0]: 14 ----> 56
[0]: 14 ----> 55
[0]: 14 ----> 60
[0]: 14 ----> 62
[0]: 15 ----> 48
[0]: 15 ----> 49
[0]: 15 ----> 57
[0]: 15 ----> 59
[0]: 15 ----> 62
[0]: 15 ----> 61
[0]: 16 ----> 50
[0]: 16 ----> 51
[0]: 16 ----> 58
[0]: 16 ----> 57
[0]: 16 ----> 64
[0]: 16 ----> 63
[0]: 17 ----> 52
[0]: 17 ----> 53
[0]: 17 ----> 61
[0]: 17 ----> 60
[0]: 17 ----> 65
[0]: 17 ----> 64
[0]: 17 ----> 66
[0]: 18 ----> 0
[0]: 19 ----> 1
[0]: 20 ----> 2
[0]: 21 ----> 6
[0]: 22 ----> 0
[0]: 23 ----> 3
[0]: 24 ----> 1
[0]: 25 ----> 7
[0]: 26 ----> 0
[0]: 27 ----> 2
[0]: 28 ----> 3
[0]: 29 ----> 4
[0]: 30 ----> 2
[0]: 31 ----> 1
[0]: 32 ----> 3
[0]: 33 ----> 5
[0]: 34 ----> 0
[0]: 34 ----> 4
[0]: 35 ----> 1
[0]: 35 ----> 5
[0]: 36 ----> 2
[0]: 36 ----> 6
[0]: 37 ----> 3
[0]: 37 ----> 7
[0]: 38 ----> 4
[0]: 38 ----> 7
[0]: 39 ----> 4
[0]: 39 ----> 6
[0]: 40 ----> 5
[0]: 40 ----> 7
[0]: 41 ----> 5
[0]: 41 ----> 6
[0]: 42 ----> 18
[0]: 42 ----> 22
[0]: 43 ----> 19
[0]: 43 ----> 24
[0]: 44 ----> 19
[0]: 44 ----> 31
[0]: 45 ----> 20
[0]: 45 ----> 30
[0]: 46 ----> 20
[0]: 46 ----> 27
[0]: 47 ----> 18
[0]: 47 ----> 26
[0]: 48 ----> 22
[0]: 48 ----> 26
[0]: 49 ----> 23
[0]: 49 ----> 28
[0]: 50 ----> 23
[0]: 50 ----> 32
[0]: 51 ----> 24
[0]: 51 ----> 31
[0]: 52 ----> 27
[0]: 52 ----> 30
[0]: 53 ----> 28
[0]: 53 ----> 32
[0]: 54 ----> 19
[0]: 54 ----> 21
[0]: 54 ----> 35
[0]: 54 ----> 41
[0]: 55 ----> 20
[0]: 55 ----> 21
[0]: 55 ----> 36
[0]: 56 ----> 18
[0]: 56 ----> 21
[0]: 56 ----> 34
[0]: 56 ----> 39
[0]: 57 ----> 23
[0]: 57 ----> 25
[0]: 57 ----> 37
[0]: 58 ----> 24
[0]: 58 ----> 25
[0]: 58 ----> 35
[0]: 58 ----> 40
[0]: 59 ----> 22
[0]: 59 ----> 25
[0]: 59 ----> 34
[0]: 59 ----> 38
[0]: 60 ----> 27
[0]: 60 ----> 29
[0]: 60 ----> 36
[0]: 60 ----> 39
[0]: 61 ----> 28
[0]: 61 ----> 29
[0]: 61 ----> 37
[0]: 61 ----> 38
[0]: 62 ----> 26
[0]: 62 ----> 29
[0]: 62 ----> 34
[0]: 63 ----> 31
[0]: 63 ----> 33
[0]: 63 ----> 35
[0]: 64 ----> 32
[0]: 64 ----> 33
[0]: 64 ----> 37
[0]: 64 ----> 40
[0]: 65 ----> 30
[0]: 65 ----> 33
[0]: 65 ----> 36
[0]: 65 ----> 41
[0]: 66 ----> 38
[0]: 66 ----> 39
[0]: 66 ----> 40
[0]: 66 ----> 41
Max sizes cone: 4 support: 7
[1]: 8 ----> 43
[1]: 8 ----> 46
[1]: 8 ----> 48
[1]: 9 ----> 42
[1]: 9 ----> 45
[1]: 9 ----> 52
[1]: 10 ----> 44
[1]: 10 ----> 47
[1]: 10 ----> 51
[1]: 11 ----> 49
[1]: 11 ----> 50
[1]: 11 ----> 53
[1]: 12 ----> 42
[1]: 12 ----> 43
[1]: 12 ----> 54
[1]: 12 ----> 56
[1]: 12 ----> 60
[1]: 12 ----> 62
[1]: 13 ----> 44
[1]: 13 ----> 45
[1]: 13 ----> 55
[1]: 13 ----> 54
[1]: 13 ----> 63
[1]: 13 ----> 65
[1]: 14 ----> 46
[1]: 14 ----> 47
[1]: 14 ----> 56
[1]: 14 ----> 55
[1]: 14 ----> 59
[1]: 14 ----> 58
[1]: 14 ----> 66
[1]: 15 ----> 48
[1]: 15 ----> 49
[1]: 15 ----> 57
[1]: 15 ----> 59
[1]: 15 ----> 62
[1]: 15 ----> 61
[1]: 16 ----> 50
[1]: 16 ----> 51
[1]: 16 ----> 58
[1]: 16 ----> 57
[1]: 16 ----> 64
[1]: 16 ----> 63
[1]: 17 ----> 52
[1]: 17 ----> 53
[1]: 17 ----> 61
[1]: 17 ----> 60
[1]: 17 ----> 65
[1]: 17 ----> 64
[1]: 17 ----> 66
[1]: 18 ----> 0
[1]: 19 ----> 2
[1]: 20 ----> 1
[1]: 21 ----> 6
[1]: 22 ----> 0
[1]: 23 ----> 3
[1]: 24 ----> 1
[1]: 25 ----> 7
[1]: 26 ----> 0
[1]: 27 ----> 2
[1]: 28 ----> 3
[1]: 29 ----> 4
[1]: 30 ----> 2
[1]: 31 ----> 1
[1]: 32 ----> 3
[1]: 33 ----> 5
[1]: 34 ----> 0
[1]: 34 ----> 4
[1]: 35 ----> 1
[1]: 35 ----> 5
[1]: 36 ----> 2
[1]: 36 ----> 6
[1]: 37 ----> 3
[1]: 37 ----> 7
[1]: 38 ----> 4
[1]: 38 ----> 7
[1]: 39 ----> 4
[1]: 39 ----> 6
[1]: 40 ----> 5
[1]: 40 ----> 7
[1]: 41 ----> 5
[1]: 41 ----> 6
[1]: 42 ----> 19
[1]: 42 ----> 27
[1]: 43 ----> 18
[1]: 43 ----> 26
[1]: 44 ----> 20
[1]: 44 ----> 31
[1]: 45 ----> 19
[1]: 45 ----> 30
[1]: 46 ----> 18
[1]: 46 ----> 22
[1]: 47 ----> 20
[1]: 47 ----> 24
[1]: 48 ----> 22
[1]: 48 ----> 26
[1]: 49 ----> 23
[1]: 49 ----> 28
[1]: 50 ----> 23
[1]: 50 ----> 32
[1]: 51 ----> 24
[1]: 51 ----> 31
[1]: 52 ----> 27
[1]: 52 ----> 30
[1]: 53 ----> 28
[1]: 53 ----> 32
[1]: 54 ----> 19
[1]: 54 ----> 21
[1]: 54 ----> 36
[1]: 55 ----> 20
[1]: 55 ----> 21
[1]: 55 ----> 35
[1]: 55 ----> 41
[1]: 56 ----> 18
[1]: 56 ----> 21
[1]: 56 ----> 34
[1]: 56 ----> 39
[1]: 57 ----> 23
[1]: 57 ----> 25
[1]: 57 ----> 37
[1]: 58 ----> 24
[1]: 58 ----> 25
[1]: 58 ----> 35
[1]: 58 ----> 40
[1]: 59 ----> 22
[1]: 59 ----> 25
[1]: 59 ----> 34
[1]: 59 ----> 38
[1]: 60 ----> 27
[1]: 60 ----> 29
[1]: 60 ----> 36
[1]: 60 ----> 39
[1]: 61 ----> 28
[1]: 61 ----> 29
[1]: 61 ----> 37
[1]: 61 ----> 38
[1]: 62 ----> 26
[1]: 62 ----> 29
[1]: 62 ----> 34
[1]: 63 ----> 31
[1]: 63 ----> 33
[1]: 63 ----> 35
[1]: 64 ----> 32
[1]: 64 ----> 33
[1]: 64 ----> 37
[1]: 64 ----> 40
[1]: 65 ----> 30
[1]: 65 ----> 33
[1]: 65 ----> 36
[1]: 65 ----> 41
[1]: 66 ----> 38
[1]: 66 ----> 39
[1]: 66 ----> 40
[1]: 66 ----> 41
base <-- cap:
[0]: 0 <---- 18 (0)
[0]: 0 <---- 22 (0)
[0]: 0 <---- 26 (0)
[0]: 0 <---- 34 (0)
[0]: 1 <---- 19 (0)
[0]: 1 <---- 24 (0)
[0]: 1 <---- 35 (0)
[0]: 1 <---- 31 (0)
[0]: 2 <---- 20 (0)
[0]: 2 <---- 36 (0)
[0]: 2 <---- 27 (0)
[0]: 2 <---- 30 (0)
[0]: 3 <---- 37 (0)
[0]: 3 <---- 23 (0)
[0]: 3 <---- 28 (0)
[0]: 3 <---- 32 (0)
[0]: 4 <---- 34 (-3)
[0]: 4 <---- 29 (0)
[0]: 4 <---- 39 (0)
[0]: 4 <---- 38 (2)
[0]: 5 <---- 35 (-2)
[0]: 5 <---- 33 (1)
[0]: 5 <---- 40 (0)
[0]: 5 <---- 41 (0)
[0]: 6 <---- 39 (-2)
[0]: 6 <---- 41 (-2)
[0]: 6 <---- 36 (-1)
[0]: 6 <---- 21 (2)
[0]: 7 <---- 40 (-2)
[0]: 7 <---- 38 (-1)
[0]: 7 <---- 37 (-2)
[0]: 7 <---- 25 (1)
[0]: 18 <---- 42 (0)
[0]: 18 <---- 56 (-2)
[0]: 18 <---- 47 (0)
[0]: 19 <---- 43 (0)
[0]: 19 <---- 44 (0)
[0]: 19 <---- 54 (-2)
[0]: 20 <---- 55 (-2)
[0]: 20 <---- 45 (0)
[0]: 20 <---- 46 (0)
[0]: 21 <---- 54 (0)
[0]: 21 <---- 55 (0)
[0]: 21 <---- 56 (0)
[0]: 22 <---- 48 (0)
[0]: 22 <---- 59 (-2)
[0]: 22 <---- 42 (-2)
[0]: 23 <---- 49 (0)
[0]: 23 <---- 50 (0)
[0]: 23 <---- 57 (-2)
[0]: 24 <---- 58 (-2)
[0]: 24 <---- 51 (0)
[0]: 24 <---- 43 (-2)
[0]: 25 <---- 57 (0)
[0]: 25 <---- 58 (0)
[0]: 25 <---- 59 (0)
[0]: 26 <---- 47 (-2)
[0]: 26 <---- 62 (-2)
[0]: 26 <---- 48 (-2)
[0]: 27 <---- 46 (-2)
[0]: 27 <---- 52 (0)
[0]: 27 <---- 60 (-2)
[0]: 28 <---- 61 (-2)
[0]: 28 <---- 53 (0)
[0]: 28 <---- 49 (-2)
[0]: 29 <---- 60 (0)
[0]: 29 <---- 61 (0)
[0]: 29 <---- 62 (0)
[0]: 30 <---- 45 (-2)
[0]: 30 <---- 65 (-2)
[0]: 30 <---- 52 (-2)
[0]: 31 <---- 44 (-2)
[0]: 31 <---- 51 (-2)
[0]: 31 <---- 63 (-2)
[0]: 32 <---- 64 (-2)
[0]: 32 <---- 50 (-2)
[0]: 32 <---- 53 (-2)
[0]: 33 <---- 63 (0)
[0]: 33 <---- 64 (0)
[0]: 33 <---- 65 (0)
[0]: 34 <---- 56 (0)
[0]: 34 <---- 59 (0)
[0]: 34 <---- 62 (0)
[0]: 35 <---- 54 (0)
[0]: 35 <---- 63 (0)
[0]: 35 <---- 58 (0)
[0]: 36 <---- 60 (0)
[0]: 36 <---- 65 (0)
[0]: 36 <---- 55 (0)
[0]: 37 <---- 57 (0)
[0]: 37 <---- 64 (0)
[0]: 37 <---- 61 (0)
[0]: 38 <---- 61 (-2)
[0]: 38 <---- 66 (-2)
[0]: 38 <---- 59 (0)
[0]: 39 <---- 56 (0)
[0]: 39 <---- 66 (0)
[0]: 39 <---- 60 (-2)
[0]: 40 <---- 58 (0)
[0]: 40 <---- 66 (0)
[0]: 40 <---- 64 (-2)
[0]: 41 <---- 54 (0)
[0]: 41 <---- 65 (-2)
[0]: 41 <---- 66 (-2)
[0]: 42 <---- 8 (0)
[0]: 42 <---- 12 (0)
[0]: 43 <---- 12 (0)
[0]: 43 <---- 10 (0)
[0]: 44 <---- 10 (0)
[0]: 44 <---- 13 (0)
[0]: 45 <---- 13 (0)
[0]: 45 <---- 9 (0)
[0]: 46 <---- 9 (0)
[0]: 46 <---- 14 (0)
[0]: 47 <---- 14 (0)
[0]: 47 <---- 8 (0)
[0]: 48 <---- 8 (0)
[0]: 48 <---- 15 (0)
[0]: 49 <---- 15 (0)
[0]: 49 <---- 11 (0)
[0]: 50 <---- 11 (0)
[0]: 50 <---- 16 (0)
[0]: 51 <---- 16 (0)
[0]: 51 <---- 10 (0)
[0]: 52 <---- 9 (0)
[0]: 52 <---- 17 (0)
[0]: 53 <---- 17 (0)
[0]: 53 <---- 11 (0)
[0]: 54 <---- 12 (0)
[0]: 54 <---- 13 (0)
[0]: 55 <---- 13 (0)
[0]: 55 <---- 14 (0)
[0]: 56 <---- 14 (0)
[0]: 56 <---- 12 (0)
[0]: 57 <---- 15 (0)
[0]: 57 <---- 16 (0)
[0]: 58 <---- 16 (0)
[0]: 58 <---- 12 (0)
[0]: 59 <---- 12 (0)
[0]: 59 <---- 15 (0)
[0]: 60 <---- 14 (0)
[0]: 60 <---- 17 (0)
[0]: 61 <---- 17 (0)
[0]: 61 <---- 15 (0)
[0]: 62 <---- 15 (0)
[0]: 62 <---- 14 (0)
[0]: 63 <---- 13 (0)
[0]: 63 <---- 16 (0)
[0]: 64 <---- 16 (0)
[0]: 64 <---- 17 (0)
[0]: 65 <---- 17 (0)
[0]: 65 <---- 13 (0)
[0]: 66 <---- 12 (0)
[0]: 66 <---- 17 (0)
[1]: 0 <---- 18 (-3)
[1]: 0 <---- 22 (0)
[1]: 0 <---- 26 (0)
[1]: 0 <---- 34 (0)
[1]: 1 <---- 20 (-3)
[1]: 1 <---- 24 (0)
[1]: 1 <---- 35 (0)
[1]: 1 <---- 31 (0)
[1]: 2 <---- 19 (-3)
[1]: 2 <---- 36 (0)
[1]: 2 <---- 27 (0)
[1]: 2 <---- 30 (0)
[1]: 3 <---- 37 (0)
[1]: 3 <---- 23 (0)
[1]: 3 <---- 28 (0)
[1]: 3 <---- 32 (0)
[1]: 4 <---- 34 (-3)
[1]: 4 <---- 29 (0)
[1]: 4 <---- 39 (0)
[1]: 4 <---- 38 (2)
[1]: 5 <---- 35 (-2)
[1]: 5 <---- 33 (1)
[1]: 5 <---- 40 (0)
[1]: 5 <---- 41 (0)
[1]: 6 <---- 39 (-2)
[1]: 6 <---- 41 (-2)
[1]: 6 <---- 36 (-1)
[1]: 6 <---- 21 (-3)
[1]: 7 <---- 40 (-2)
[1]: 7 <---- 38 (-1)
[1]: 7 <---- 37 (-2)
[1]: 7 <---- 25 (1)
[1]: 18 <---- 43 (-2)
[1]: 18 <---- 56 (-2)
[1]: 18 <---- 46 (-2)
[1]: 19 <---- 42 (-2)
[1]: 19 <---- 45 (-2)
[1]: 19 <---- 54 (-2)
[1]: 20 <---- 55 (-2)
[1]: 20 <---- 44 (-2)
[1]: 20 <---- 47 (-2)
[1]: 21 <---- 54 (0)
[1]: 21 <---- 55 (0)
[1]: 21 <---- 56 (0)
[1]: 22 <---- 48 (0)
[1]: 22 <---- 59 (-2)
[1]: 22 <---- 46 (-2)
[1]: 23 <---- 49 (0)
[1]: 23 <---- 50 (0)
[1]: 23 <---- 57 (-2)
[1]: 24 <---- 58 (-2)
[1]: 24 <---- 51 (0)
[1]: 24 <---- 47 (-2)
[1]: 25 <---- 57 (0)
[1]: 25 <---- 58 (0)
[1]: 25 <---- 59 (0)
[1]: 26 <---- 43 (-2)
[1]: 26 <---- 62 (-2)
[1]: 26 <---- 48 (-2)
[1]: 27 <---- 42 (-2)
[1]: 27 <---- 52 (0)
[1]: 27 <---- 60 (-2)
[1]: 28 <---- 61 (-2)
[1]: 28 <---- 53 (0)
[1]: 28 <---- 49 (-2)
[1]: 29 <---- 60 (0)
[1]: 29 <---- 61 (0)
[1]: 29 <---- 62 (0)
[1]: 30 <---- 45 (-2)
[1]: 30 <---- 65 (-2)
[1]: 30 <---- 52 (-2)
[1]: 31 <---- 44 (-2)
[1]: 31 <---- 51 (-2)
[1]: 31 <---- 63 (-2)
[1]: 32 <---- 64 (-2)
[1]: 32 <---- 50 (-2)
[1]: 32 <---- 53 (-2)
[1]: 33 <---- 63 (0)
[1]: 33 <---- 64 (0)
[1]: 33 <---- 65 (0)
[1]: 34 <---- 56 (-2)
[1]: 34 <---- 59 (0)
[1]: 34 <---- 62 (0)
[1]: 35 <---- 55 (-2)
[1]: 35 <---- 63 (0)
[1]: 35 <---- 58 (0)
[1]: 36 <---- 60 (0)
[1]: 36 <---- 65 (0)
[1]: 36 <---- 54 (-2)
[1]: 37 <---- 57 (0)
[1]: 37 <---- 64 (0)
[1]: 37 <---- 61 (0)
[1]: 38 <---- 61 (-2)
[1]: 38 <---- 66 (-2)
[1]: 38 <---- 59 (0)
[1]: 39 <---- 56 (-2)
[1]: 39 <---- 66 (0)
[1]: 39 <---- 60 (-2)
[1]: 40 <---- 58 (0)
[1]: 40 <---- 66 (0)
[1]: 40 <---- 64 (-2)
[1]: 41 <---- 55 (-2)
[1]: 41 <---- 65 (-2)
[1]: 41 <---- 66 (-2)
[1]: 42 <---- 9 (0)
[1]: 42 <---- 12 (0)
[1]: 43 <---- 12 (0)
[1]: 43 <---- 8 (0)
[1]: 44 <---- 10 (0)
[1]: 44 <---- 13 (0)
[1]: 45 <---- 13 (0)
[1]: 45 <---- 9 (0)
[1]: 46 <---- 8 (0)
[1]: 46 <---- 14 (0)
[1]: 47 <---- 14 (0)
[1]: 47 <---- 10 (0)
[1]: 48 <---- 8 (0)
[1]: 48 <---- 15 (0)
[1]: 49 <---- 15 (0)
[1]: 49 <---- 11 (0)
[1]: 50 <---- 11 (0)
[1]: 50 <---- 16 (0)
[1]: 51 <---- 16 (0)
[1]: 51 <---- 10 (0)
[1]: 52 <---- 9 (0)
[1]: 52 <---- 17 (0)
[1]: 53 <---- 17 (0)
[1]: 53 <---- 11 (0)
[1]: 54 <---- 12 (0)
[1]: 54 <---- 13 (0)
[1]: 55 <---- 13 (0)
[1]: 55 <---- 14 (0)
[1]: 56 <---- 14 (0)
[1]: 56 <---- 12 (0)
[1]: 57 <---- 15 (0)
[1]: 57 <---- 16 (0)
[1]: 58 <---- 16 (0)
[1]: 58 <---- 14 (0)
[1]: 59 <---- 14 (0)
[1]: 59 <---- 15 (0)
[1]: 60 <---- 12 (0)
[1]: 60 <---- 17 (0)
[1]: 61 <---- 17 (0)
[1]: 61 <---- 15 (0)
[1]: 62 <---- 15 (0)
[1]: 62 <---- 12 (0)
[1]: 63 <---- 13 (0)
[1]: 63 <---- 16 (0)
[1]: 64 <---- 16 (0)
[1]: 64 <---- 17 (0)
[1]: 65 <---- 17 (0)
[1]: 65 <---- 13 (0)
[1]: 66 <---- 14 (0)
[1]: 66 <---- 17 (0)
coordinates with 1 fields
  field 0 with 3 components
Process 0:
  (   8) dim  3 offset   0 0 0 -0.5
  (   9) dim  3 offset   3 0 -0.5 0
  (  10) dim  3 offset   6 1 0 0
  (  11) dim  3 offset   9 0 0.5 0
  (  12) dim  3 offset  12 0.5 0 -0.25
  (  13) dim  3 offset  15 0.5 -0.25 0
  (  14) dim  3 offset  18 0 -0.25 -0.25
  (  15) dim  3 offset  21 0 0.25 -0.25
  (  16) dim  3 offset  24 0.5 0.25 0
  (  17) dim  3 offset  27 0 0 0
Process 1:
  (   8) dim  3 offset   0 0 -0.5 0
  (   9) dim  3 offset   3 1 0 0
  (  10) dim  3 offset   6 0 0.5 0
  (  11) dim  3 offset   9 0 0 0.5
  (  12) dim  3 offset  12 0.5 -0.25 0
  (  13) dim  3 offset  15 0.5 0.25 0
  (  14) dim  3 offset  18 0 0 0
  (  15) dim  3 offset  21 0 -0.25 0.25
  (  16) dim  3 offset  24 0 0.25 0.25
  (  17) dim  3 offset  27 0.5 0 0.25
PetscSF Object: 2 MPI processes
  type not yet set
  [0] Number of roots=67, leaves=19, remote ranks=1
  [0] 9 <- (1,8)
  [0] 10 <- (1,9)
  [0] 11 <- (1,10)
  [0] 13 <- (1,12)
  [0] 16 <- (1,13)
  [0] 17 <- (1,14)
  [0] 30 <- (1,18)
  [0] 31 <- (1,19)
  [0] 32 <- (1,20)
  [0] 33 <- (1,21)
  [0] 44 <- (1,42)
  [0] 45 <- (1,43)
  [0] 50 <- (1,44)
  [0] 51 <- (1,45)
  [0] 52 <- (1,46)
  [0] 53 <- (1,47)
  [0] 63 <- (1,54)
  [0] 64 <- (1,55)
  [0] 65 <- (1,56)
  [1] Number of roots=67, leaves=0, remote ranks=0
  [0] Roots referenced by my leaves, by rank
  [0] 1: 19 edges
  [0]    9 <- 8
  [0]    10 <- 9
  [0]    11 <- 10
  [0]    13 <- 12
  [0]    16 <- 13
  [0]    17 <- 14
  [0]    30 <- 18
  [0]    31 <- 19
  [0]    32 <- 20
  [0]    33 <- 21
  [0]    44 <- 42
  [0]    45 <- 43
  [0]    50 <- 44
  [0]    51 <- 45
  [0]    52 <- 46
  [0]    53 <- 47
  [0]    63 <- 54
  [0]    64 <- 55
  [0]    65 <- 56
  [1] Roots referenced by my leaves, by rank