DM Object:Parallel Mesh 2 MPI processes
  type: plex
Mesh 'Parallel Mesh':
Max sizes cone: 3 support: 2
orientation is missing
cap --> base:
[0]: 1 ----> 4
[0]: 1 ----> 6
[0]: 2 ----> 4
[0]: 2 ----> 5
[0]: 3 ----> 5
[0]: 3 ----> 6
[0]: 4 ----> 0
[0]: 5 ----> 0
[0]: 6 ----> 0
Max sizes cone: 3 support: 2
[1]: 1 ----> 4
[1]: 1 ----> 5
[1]: 2 ----> 4
[1]: 2 ----> 6
[1]: 3 ----> 5
[1]: 3 ----> 6
[1]: 4 ----> 0
[1]: 5 ----> 0
[1]: 6 ----> 0
base <-- cap:
[0]: 0 <---- 4 (0)
[0]: 0 <---- 5 (0)
[0]: 0 <---- 6 (0)
[0]: 4 <---- 1 (0)
[0]: 4 <---- 2 (0)
[0]: 5 <---- 2 (0)
[0]: 5 <---- 3 (0)
[0]: 6 <---- 3 (0)
[0]: 6 <---- 1 (0)
[1]: 0 <---- 4 (-2)
[1]: 0 <---- 5 (0)
[1]: 0 <---- 6 (0)
[1]: 4 <---- 1 (0)
[1]: 4 <---- 2 (0)
[1]: 5 <---- 1 (0)
[1]: 5 <---- 3 (0)
[1]: 6 <---- 3 (0)
[1]: 6 <---- 2 (0)
coordinates with 1 fields
  field 0 with 2 components
Process 0:
  (   1) dim  2 offset   0 -0.5 0
  (   2) dim  2 offset   2 0 -0.5
  (   3) dim  2 offset   4 0 0.5
Process 1:
  (   1) dim  2 offset   0 0 -0.5
  (   2) dim  2 offset   2 0 0.5
  (   3) dim  2 offset   4 0.5 0
PetscSF Object: 2 MPI processes
  type: basic
    sort=rank-order
  [0] Number of roots=7, leaves=3, remote ranks=1
  [0] 2 <- (1,1)
  [0] 3 <- (1,2)
  [0] 5 <- (1,4)
  [1] Number of roots=7, leaves=0, remote ranks=0
  [0] Roots referenced by my leaves, by rank
  [0] 1: 3 edges
  [0]    2 <- 1
  [0]    3 <- 2
  [0]    5 <- 4
  [1] Roots referenced by my leaves, by rank
DM Object:Hybrid Mesh 2 MPI processes
  type: plex
Mesh 'Hybrid Mesh':
Max sizes cone: 3 support: 6
orientation is missing
cap --> base:
[0]: 64 ----> 0
[0]: 65 ----> 21
[0]: 66 ----> 42
[0]: 67 ----> 5
[0]: 67 ----> 16
[0]: 67 ----> 48
[0]: 68 ----> 26
[0]: 68 ----> 37
[0]: 68 ----> 53
[0]: 69 ----> 10
[0]: 69 ----> 32
[0]: 69 ----> 58
[0]: 70 ----> 1
[0]: 70 ----> 4
[0]: 70 ----> 12
[0]: 71 ----> 17
[0]: 71 ----> 20
[0]: 71 ----> 28
[0]: 72 ----> 22
[0]: 72 ----> 25
[0]: 72 ----> 29
[0]: 73 ----> 38
[0]: 73 ----> 41
[0]: 73 ----> 45
[0]: 74 ----> 34
[0]: 74 ----> 40
[0]: 74 ----> 46
[0]: 75 ----> 2
[0]: 75 ----> 8
[0]: 75 ----> 14
[0]: 76 ----> 18
[0]: 76 ----> 24
[0]: 76 ----> 30
[0]: 76 ----> 49
[0]: 76 ----> 52
[0]: 76 ----> 60
[0]: 77 ----> 33
[0]: 77 ----> 36
[0]: 77 ----> 44
[0]: 77 ----> 54
[0]: 77 ----> 57
[0]: 77 ----> 61
[0]: 78 ----> 6
[0]: 78 ----> 9
[0]: 78 ----> 13
[0]: 78 ----> 50
[0]: 78 ----> 56
[0]: 78 ----> 62
[0]: 79 ----> 0
[0]: 79 ----> 1
[0]: 79 ----> 3
[0]: 80 ----> 4
[0]: 80 ----> 5
[0]: 80 ----> 7
[0]: 81 ----> 16
[0]: 81 ----> 17
[0]: 81 ----> 19
[0]: 82 ----> 20
[0]: 82 ----> 21
[0]: 82 ----> 23
[0]: 83 ----> 21
[0]: 83 ----> 22
[0]: 83 ----> 23
[0]: 84 ----> 25
[0]: 84 ----> 26
[0]: 84 ----> 27
[0]: 85 ----> 37
[0]: 85 ----> 38
[0]: 85 ----> 39
[0]: 86 ----> 41
[0]: 86 ----> 42
[0]: 86 ----> 43
[0]: 87 ----> 40
[0]: 87 ----> 42
[0]: 87 ----> 43
[0]: 88 ----> 32
[0]: 88 ----> 34
[0]: 88 ----> 35
[0]: 89 ----> 8
[0]: 89 ----> 10
[0]: 89 ----> 11
[0]: 90 ----> 0
[0]: 90 ----> 2
[0]: 90 ----> 3
[0]: 91 ----> 16
[0]: 91 ----> 18
[0]: 91 ----> 19
[0]: 91 ----> 48
[0]: 91 ----> 49
[0]: 91 ----> 51
[0]: 92 ----> 24
[0]: 92 ----> 26
[0]: 92 ----> 27
[0]: 92 ----> 52
[0]: 92 ----> 53
[0]: 92 ----> 55
[0]: 93 ----> 36
[0]: 93 ----> 37
[0]: 93 ----> 39
[0]: 93 ----> 53
[0]: 93 ----> 54
[0]: 93 ----> 55
[0]: 94 ----> 32
[0]: 94 ----> 33
[0]: 94 ----> 35
[0]: 94 ----> 57
[0]: 94 ----> 58
[0]: 94 ----> 59
[0]: 95 ----> 9
[0]: 95 ----> 10
[0]: 95 ----> 11
[0]: 95 ----> 56
[0]: 95 ----> 58
[0]: 95 ----> 59
[0]: 96 ----> 5
[0]: 96 ----> 6
[0]: 96 ----> 7
[0]: 96 ----> 48
[0]: 96 ----> 50
[0]: 96 ----> 51
[0]: 97 ----> 4
[0]: 97 ----> 6
[0]: 97 ----> 7
[0]: 97 ----> 12
[0]: 97 ----> 13
[0]: 97 ----> 15
[0]: 98 ----> 8
[0]: 98 ----> 9
[0]: 98 ----> 11
[0]: 98 ----> 13
[0]: 98 ----> 14
[0]: 98 ----> 15
[0]: 99 ----> 1
[0]: 99 ----> 2
[0]: 99 ----> 3
[0]: 99 ----> 12
[0]: 99 ----> 14
[0]: 99 ----> 15
[0]: 100 ----> 20
[0]: 100 ----> 22
[0]: 100 ----> 23
[0]: 100 ----> 28
[0]: 100 ----> 29
[0]: 100 ----> 31
[0]: 101 ----> 24
[0]: 101 ----> 25
[0]: 101 ----> 27
[0]: 101 ----> 29
[0]: 101 ----> 30
[0]: 101 ----> 31
[0]: 102 ----> 17
[0]: 102 ----> 18
[0]: 102 ----> 19
[0]: 102 ----> 28
[0]: 102 ----> 30
[0]: 102 ----> 31
[0]: 103 ----> 36
[0]: 103 ----> 38
[0]: 103 ----> 39
[0]: 103 ----> 44
[0]: 103 ----> 45
[0]: 103 ----> 47
[0]: 104 ----> 40
[0]: 104 ----> 41
[0]: 104 ----> 43
[0]: 104 ----> 45
[0]: 104 ----> 46
[0]: 104 ----> 47
[0]: 105 ----> 33
[0]: 105 ----> 34
[0]: 105 ----> 35
[0]: 105 ----> 44
[0]: 105 ----> 46
[0]: 105 ----> 47
[0]: 106 ----> 52
[0]: 106 ----> 54
[0]: 106 ----> 55
[0]: 106 ----> 60
[0]: 106 ----> 61
[0]: 106 ----> 63
[0]: 107 ----> 56
[0]: 107 ----> 57
[0]: 107 ----> 59
[0]: 107 ----> 61
[0]: 107 ----> 62
[0]: 107 ----> 63
[0]: 108 ----> 49
[0]: 108 ----> 50
[0]: 108 ----> 51
[0]: 108 ----> 60
[0]: 108 ----> 62
[0]: 108 ----> 63
Max sizes cone: 3 support: 6
[1]: 64 ----> 21
[1]: 65 ----> 0
[1]: 66 ----> 42
[1]: 67 ----> 5
[1]: 67 ----> 16
[1]: 67 ----> 48
[1]: 68 ----> 26
[1]: 68 ----> 37
[1]: 68 ----> 53
[1]: 69 ----> 10
[1]: 69 ----> 32
[1]: 69 ----> 58
[1]: 70 ----> 17
[1]: 70 ----> 20
[1]: 70 ----> 28
[1]: 71 ----> 1
[1]: 71 ----> 4
[1]: 71 ----> 12
[1]: 72 ----> 22
[1]: 72 ----> 25
[1]: 72 ----> 29
[1]: 73 ----> 38
[1]: 73 ----> 41
[1]: 73 ----> 45
[1]: 74 ----> 34
[1]: 74 ----> 40
[1]: 74 ----> 46
[1]: 75 ----> 2
[1]: 75 ----> 8
[1]: 75 ----> 14
[1]: 76 ----> 18
[1]: 76 ----> 24
[1]: 76 ----> 30
[1]: 76 ----> 49
[1]: 76 ----> 52
[1]: 76 ----> 60
[1]: 77 ----> 33
[1]: 77 ----> 36
[1]: 77 ----> 44
[1]: 77 ----> 54
[1]: 77 ----> 57
[1]: 77 ----> 61
[1]: 78 ----> 6
[1]: 78 ----> 9
[1]: 78 ----> 13
[1]: 78 ----> 50
[1]: 78 ----> 56
[1]: 78 ----> 62
[1]: 79 ----> 20
[1]: 79 ----> 21
[1]: 79 ----> 23
[1]: 80 ----> 16
[1]: 80 ----> 17
[1]: 80 ----> 19
[1]: 81 ----> 4
[1]: 81 ----> 5
[1]: 81 ----> 7
[1]: 82 ----> 0
[1]: 82 ----> 1
[1]: 82 ----> 3
[1]: 83 ----> 21
[1]: 83 ----> 22
[1]: 83 ----> 23
[1]: 84 ----> 25
[1]: 84 ----> 26
[1]: 84 ----> 27
[1]: 85 ----> 37
[1]: 85 ----> 38
[1]: 85 ----> 39
[1]: 86 ----> 41
[1]: 86 ----> 42
[1]: 86 ----> 43
[1]: 87 ----> 40
[1]: 87 ----> 42
[1]: 87 ----> 43
[1]: 88 ----> 32
[1]: 88 ----> 34
[1]: 88 ----> 35
[1]: 89 ----> 8
[1]: 89 ----> 10
[1]: 89 ----> 11
[1]: 90 ----> 0
[1]: 90 ----> 2
[1]: 90 ----> 3
[1]: 91 ----> 16
[1]: 91 ----> 18
[1]: 91 ----> 19
[1]: 91 ----> 48
[1]: 91 ----> 49
[1]: 91 ----> 51
[1]: 92 ----> 24
[1]: 92 ----> 26
[1]: 92 ----> 27
[1]: 92 ----> 52
[1]: 92 ----> 53
[1]: 92 ----> 55
[1]: 93 ----> 36
[1]: 93 ----> 37
[1]: 93 ----> 39
[1]: 93 ----> 53
[1]: 93 ----> 54
[1]: 93 ----> 55
[1]: 94 ----> 32
[1]: 94 ----> 33
[1]: 94 ----> 35
[1]: 94 ----> 57
[1]: 94 ----> 58
[1]: 94 ----> 59
[1]: 95 ----> 9
[1]: 95 ----> 10
[1]: 95 ----> 11
[1]: 95 ----> 56
[1]: 95 ----> 58
[1]: 95 ----> 59
[1]: 96 ----> 5
[1]: 96 ----> 6
[1]: 96 ----> 7
[1]: 96 ----> 48
[1]: 96 ----> 50
[1]: 96 ----> 51
[1]: 97 ----> 4
[1]: 97 ----> 6
[1]: 97 ----> 7
[1]: 97 ----> 12
[1]: 97 ----> 13
[1]: 97 ----> 15
[1]: 98 ----> 8
[1]: 98 ----> 9
[1]: 98 ----> 11
[1]: 98 ----> 13
[1]: 98 ----> 14
[1]: 98 ----> 15
[1]: 99 ----> 1
[1]: 99 ----> 2
[1]: 99 ----> 3
[1]: 99 ----> 12
[1]: 99 ----> 14
[1]: 99 ----> 15
[1]: 100 ----> 20
[1]: 100 ----> 22
[1]: 100 ----> 23
[1]: 100 ----> 28
[1]: 100 ----> 29
[1]: 100 ----> 31
[1]: 101 ----> 24
[1]: 101 ----> 25
[1]: 101 ----> 27
[1]: 101 ----> 29
[1]: 101 ----> 30
[1]: 101 ----> 31
[1]: 102 ----> 17
[1]: 102 ----> 18
[1]: 102 ----> 19
[1]: 102 ----> 28
[1]: 102 ----> 30
[1]: 102 ----> 31
[1]: 103 ----> 36
[1]: 103 ----> 38
[1]: 103 ----> 39
[1]: 103 ----> 44
[1]: 103 ----> 45
[1]: 103 ----> 47
[1]: 104 ----> 40
[1]: 104 ----> 41
[1]: 104 ----> 43
[1]: 104 ----> 45
[1]: 104 ----> 46
[1]: 104 ----> 47
[1]: 105 ----> 33
[1]: 105 ----> 34
[1]: 105 ----> 35
[1]: 105 ----> 44
[1]: 105 ----> 46
[1]: 105 ----> 47
[1]: 106 ----> 52
[1]: 106 ----> 54
[1]: 106 ----> 55
[1]: 106 ----> 60
[1]: 106 ----> 61
[1]: 106 ----> 63
[1]: 107 ----> 56
[1]: 107 ----> 57
[1]: 107 ----> 59
[1]: 107 ----> 61
[1]: 107 ----> 62
[1]: 107 ----> 63
[1]: 108 ----> 49
[1]: 108 ----> 50
[1]: 108 ----> 51
[1]: 108 ----> 60
[1]: 108 ----> 62
[1]: 108 ----> 63
base <-- cap:
[0]: 0 <---- 64 (0)
[0]: 0 <---- 79 (0)
[0]: 0 <---- 90 (0)
[0]: 1 <---- 79 (0)
[0]: 1 <---- 70 (0)
[0]: 1 <---- 99 (0)
[0]: 2 <---- 90 (0)
[0]: 2 <---- 99 (0)
[0]: 2 <---- 75 (0)
[0]: 3 <---- 79 (0)
[0]: 3 <---- 99 (0)
[0]: 3 <---- 90 (0)
[0]: 4 <---- 70 (0)
[0]: 4 <---- 80 (0)
[0]: 4 <---- 97 (0)
[0]: 5 <---- 80 (0)
[0]: 5 <---- 67 (0)
[0]: 5 <---- 96 (0)
[0]: 6 <---- 97 (0)
[0]: 6 <---- 96 (0)
[0]: 6 <---- 78 (0)
[0]: 7 <---- 80 (0)
[0]: 7 <---- 96 (0)
[0]: 7 <---- 97 (0)
[0]: 8 <---- 75 (0)
[0]: 8 <---- 98 (0)
[0]: 8 <---- 89 (0)
[0]: 9 <---- 98 (0)
[0]: 9 <---- 78 (0)
[0]: 9 <---- 95 (0)
[0]: 10 <---- 89 (0)
[0]: 10 <---- 95 (0)
[0]: 10 <---- 69 (0)
[0]: 11 <---- 98 (0)
[0]: 11 <---- 95 (0)
[0]: 11 <---- 89 (0)
[0]: 12 <---- 70 (0)
[0]: 12 <---- 97 (0)
[0]: 12 <---- 99 (0)
[0]: 13 <---- 97 (0)
[0]: 13 <---- 78 (0)
[0]: 13 <---- 98 (0)
[0]: 14 <---- 99 (0)
[0]: 14 <---- 98 (0)
[0]: 14 <---- 75 (0)
[0]: 15 <---- 97 (0)
[0]: 15 <---- 98 (0)
[0]: 15 <---- 99 (0)
[0]: 16 <---- 67 (0)
[0]: 16 <---- 81 (0)
[0]: 16 <---- 91 (0)
[0]: 17 <---- 81 (0)
[0]: 17 <---- 71 (0)
[0]: 17 <---- 102 (0)
[0]: 18 <---- 91 (0)
[0]: 18 <---- 102 (0)
[0]: 18 <---- 76 (0)
[0]: 19 <---- 81 (0)
[0]: 19 <---- 102 (0)
[0]: 19 <---- 91 (0)
[0]: 20 <---- 71 (0)
[0]: 20 <---- 82 (0)
[0]: 20 <---- 100 (0)
[0]: 21 <---- 82 (0)
[0]: 21 <---- 65 (0)
[0]: 21 <---- 83 (0)
[0]: 22 <---- 100 (0)
[0]: 22 <---- 83 (0)
[0]: 22 <---- 72 (0)
[0]: 23 <---- 82 (0)
[0]: 23 <---- 83 (0)
[0]: 23 <---- 100 (0)
[0]: 24 <---- 76 (0)
[0]: 24 <---- 101 (0)
[0]: 24 <---- 92 (0)
[0]: 25 <---- 101 (0)
[0]: 25 <---- 72 (0)
[0]: 25 <---- 84 (0)
[0]: 26 <---- 92 (0)
[0]: 26 <---- 84 (0)
[0]: 26 <---- 68 (0)
[0]: 27 <---- 101 (0)
[0]: 27 <---- 84 (0)
[0]: 27 <---- 92 (0)
[0]: 28 <---- 71 (0)
[0]: 28 <---- 100 (0)
[0]: 28 <---- 102 (0)
[0]: 29 <---- 100 (0)
[0]: 29 <---- 72 (0)
[0]: 29 <---- 101 (0)
[0]: 30 <---- 102 (0)
[0]: 30 <---- 101 (0)
[0]: 30 <---- 76 (0)
[0]: 31 <---- 100 (0)
[0]: 31 <---- 101 (0)
[0]: 31 <---- 102 (0)
[0]: 32 <---- 69 (0)
[0]: 32 <---- 94 (0)
[0]: 32 <---- 88 (0)
[0]: 33 <---- 94 (0)
[0]: 33 <---- 77 (0)
[0]: 33 <---- 105 (0)
[0]: 34 <---- 88 (0)
[0]: 34 <---- 105 (0)
[0]: 34 <---- 74 (0)
[0]: 35 <---- 94 (0)
[0]: 35 <---- 105 (0)
[0]: 35 <---- 88 (0)
[0]: 36 <---- 77 (0)
[0]: 36 <---- 93 (0)
[0]: 36 <---- 103 (0)
[0]: 37 <---- 93 (0)
[0]: 37 <---- 68 (0)
[0]: 37 <---- 85 (0)
[0]: 38 <---- 103 (0)
[0]: 38 <---- 85 (0)
[0]: 38 <---- 73 (0)
[0]: 39 <---- 93 (0)
[0]: 39 <---- 85 (0)
[0]: 39 <---- 103 (0)
[0]: 40 <---- 74 (0)
[0]: 40 <---- 104 (0)
[0]: 40 <---- 87 (0)
[0]: 41 <---- 104 (0)
[0]: 41 <---- 73 (0)
[0]: 41 <---- 86 (0)
[0]: 42 <---- 87 (0)
[0]: 42 <---- 86 (0)
[0]: 42 <---- 66 (0)
[0]: 43 <---- 104 (0)
[0]: 43 <---- 86 (0)
[0]: 43 <---- 87 (0)
[0]: 44 <---- 77 (0)
[0]: 44 <---- 103 (0)
[0]: 44 <---- 105 (0)
[0]: 45 <---- 103 (0)
[0]: 45 <---- 73 (0)
[0]: 45 <---- 104 (0)
[0]: 46 <---- 105 (0)
[0]: 46 <---- 104 (0)
[0]: 46 <---- 74 (0)
[0]: 47 <---- 103 (0)
[0]: 47 <---- 104 (0)
[0]: 47 <---- 105 (0)
[0]: 48 <---- 67 (0)
[0]: 48 <---- 91 (0)
[0]: 48 <---- 96 (0)
[0]: 49 <---- 91 (0)
[0]: 49 <---- 76 (0)
[0]: 49 <---- 108 (0)
[0]: 50 <---- 96 (0)
[0]: 50 <---- 108 (0)
[0]: 50 <---- 78 (0)
[0]: 51 <---- 91 (0)
[0]: 51 <---- 108 (0)
[0]: 51 <---- 96 (0)
[0]: 52 <---- 76 (0)
[0]: 52 <---- 92 (0)
[0]: 52 <---- 106 (0)
[0]: 53 <---- 92 (0)
[0]: 53 <---- 68 (0)
[0]: 53 <---- 93 (0)
[0]: 54 <---- 106 (0)
[0]: 54 <---- 93 (0)
[0]: 54 <---- 77 (0)
[0]: 55 <---- 92 (0)
[0]: 55 <---- 93 (0)
[0]: 55 <---- 106 (0)
[0]: 56 <---- 78 (0)
[0]: 56 <---- 107 (0)
[0]: 56 <---- 95 (0)
[0]: 57 <---- 107 (0)
[0]: 57 <---- 77 (0)
[0]: 57 <---- 94 (0)
[0]: 58 <---- 95 (0)
[0]: 58 <---- 94 (0)
[0]: 58 <---- 69 (0)
[0]: 59 <---- 107 (0)
[0]: 59 <---- 94 (0)
[0]: 59 <---- 95 (0)
[0]: 60 <---- 76 (0)
[0]: 60 <---- 106 (0)
[0]: 60 <---- 108 (0)
[0]: 61 <---- 106 (0)
[0]: 61 <---- 77 (0)
[0]: 61 <---- 107 (0)
[0]: 62 <---- 108 (0)
[0]: 62 <---- 107 (0)
[0]: 62 <---- 78 (0)
[0]: 63 <---- 106 (0)
[0]: 63 <---- 107 (0)
[0]: 63 <---- 108 (0)
[1]: 0 <---- 65 (0)
[1]: 0 <---- 82 (0)
[1]: 0 <---- 90 (0)
[1]: 1 <---- 82 (0)
[1]: 1 <---- 71 (0)
[1]: 1 <---- 99 (0)
[1]: 2 <---- 90 (0)
[1]: 2 <---- 99 (0)
[1]: 2 <---- 75 (0)
[1]: 3 <---- 82 (0)
[1]: 3 <---- 99 (0)
[1]: 3 <---- 90 (0)
[1]: 4 <---- 71 (0)
[1]: 4 <---- 81 (0)
[1]: 4 <---- 97 (0)
[1]: 5 <---- 81 (0)
[1]: 5 <---- 67 (0)
[1]: 5 <---- 96 (0)
[1]: 6 <---- 97 (0)
[1]: 6 <---- 96 (0)
[1]: 6 <---- 78 (0)
[1]: 7 <---- 81 (0)
[1]: 7 <---- 96 (0)
[1]: 7 <---- 97 (0)
[1]: 8 <---- 75 (0)
[1]: 8 <---- 98 (0)
[1]: 8 <---- 89 (0)
[1]: 9 <---- 98 (0)
[1]: 9 <---- 78 (0)
[1]: 9 <---- 95 (0)
[1]: 10 <---- 89 (0)
[1]: 10 <---- 95 (0)
[1]: 10 <---- 69 (0)
[1]: 11 <---- 98 (0)
[1]: 11 <---- 95 (0)
[1]: 11 <---- 89 (0)
[1]: 12 <---- 71 (0)
[1]: 12 <---- 97 (0)
[1]: 12 <---- 99 (0)
[1]: 13 <---- 97 (0)
[1]: 13 <---- 78 (0)
[1]: 13 <---- 98 (0)
[1]: 14 <---- 99 (0)
[1]: 14 <---- 98 (0)
[1]: 14 <---- 75 (0)
[1]: 15 <---- 97 (0)
[1]: 15 <---- 98 (0)
[1]: 15 <---- 99 (0)
[1]: 16 <---- 67 (0)
[1]: 16 <---- 80 (0)
[1]: 16 <---- 91 (0)
[1]: 17 <---- 80 (0)
[1]: 17 <---- 70 (0)
[1]: 17 <---- 102 (0)
[1]: 18 <---- 91 (0)
[1]: 18 <---- 102 (0)
[1]: 18 <---- 76 (0)
[1]: 19 <---- 80 (0)
[1]: 19 <---- 102 (0)
[1]: 19 <---- 91 (0)
[1]: 20 <---- 70 (0)
[1]: 20 <---- 79 (0)
[1]: 20 <---- 100 (0)
[1]: 21 <---- 79 (0)
[1]: 21 <---- 64 (0)
[1]: 21 <---- 83 (0)
[1]: 22 <---- 100 (0)
[1]: 22 <---- 83 (0)
[1]: 22 <---- 72 (0)
[1]: 23 <---- 79 (0)
[1]: 23 <---- 83 (0)
[1]: 23 <---- 100 (0)
[1]: 24 <---- 76 (0)
[1]: 24 <---- 101 (0)
[1]: 24 <---- 92 (0)
[1]: 25 <---- 101 (0)
[1]: 25 <---- 72 (0)
[1]: 25 <---- 84 (0)
[1]: 26 <---- 92 (0)
[1]: 26 <---- 84 (0)
[1]: 26 <---- 68 (0)
[1]: 27 <---- 101 (0)
[1]: 27 <---- 84 (0)
[1]: 27 <---- 92 (0)
[1]: 28 <---- 70 (0)
[1]: 28 <---- 100 (0)
[1]: 28 <---- 102 (0)
[1]: 29 <---- 100 (0)
[1]: 29 <---- 72 (0)
[1]: 29 <---- 101 (0)
[1]: 30 <---- 102 (0)
[1]: 30 <---- 101 (0)
[1]: 30 <---- 76 (0)
[1]: 31 <---- 100 (0)
[1]: 31 <---- 101 (0)
[1]: 31 <---- 102 (0)
[1]: 32 <---- 69 (0)
[1]: 32 <---- 94 (0)
[1]: 32 <---- 88 (0)
[1]: 33 <---- 94 (0)
[1]: 33 <---- 77 (0)
[1]: 33 <---- 105 (0)
[1]: 34 <---- 88 (0)
[1]: 34 <---- 105 (0)
[1]: 34 <---- 74 (0)
[1]: 35 <---- 94 (0)
[1]: 35 <---- 105 (0)
[1]: 35 <---- 88 (0)
[1]: 36 <---- 77 (0)
[1]: 36 <---- 93 (0)
[1]: 36 <---- 103 (0)
[1]: 37 <---- 93 (0)
[1]: 37 <---- 68 (0)
[1]: 37 <---- 85 (0)
[1]: 38 <---- 103 (0)
[1]: 38 <---- 85 (0)
[1]: 38 <---- 73 (0)
[1]: 39 <---- 93 (0)
[1]: 39 <---- 85 (0)
[1]: 39 <---- 103 (0)
[1]: 40 <---- 74 (0)
[1]: 40 <---- 104 (0)
[1]: 40 <---- 87 (0)
[1]: 41 <---- 104 (0)
[1]: 41 <---- 73 (0)
[1]: 41 <---- 86 (0)
[1]: 42 <---- 87 (0)
[1]: 42 <---- 86 (0)
[1]: 42 <---- 66 (0)
[1]: 43 <---- 104 (0)
[1]: 43 <---- 86 (0)
[1]: 43 <---- 87 (0)
[1]: 44 <---- 77 (0)
[1]: 44 <---- 103 (0)
[1]: 44 <---- 105 (0)
[1]: 45 <---- 103 (0)
[1]: 45 <---- 73 (0)
[1]: 45 <---- 104 (0)
[1]: 46 <---- 105 (0)
[1]: 46 <---- 104 (0)
[1]: 46 <---- 74 (0)
[1]: 47 <---- 103 (0)
[1]: 47 <---- 104 (0)
[1]: 47 <---- 105 (0)
[1]: 48 <---- 67 (0)
[1]: 48 <---- 91 (0)
[1]: 48 <---- 96 (0)
[1]: 49 <---- 91 (0)
[1]: 49 <---- 76 (0)
[1]: 49 <---- 108 (0)
[1]: 50 <---- 96 (0)
[1]: 50 <---- 108 (0)
[1]: 50 <---- 78 (0)
[1]: 51 <---- 91 (0)
[1]: 51 <---- 108 (0)
[1]: 51 <---- 96 (0)
[1]: 52 <---- 76 (0)
[1]: 52 <---- 92 (0)
[1]: 52 <---- 106 (0)
[1]: 53 <---- 92 (0)
[1]: 53 <---- 68 (0)
[1]: 53 <---- 93 (0)
[1]: 54 <---- 106 (0)
[1]: 54 <---- 93 (0)
[1]: 54 <---- 77 (0)
[1]: 55 <---- 92 (0)
[1]: 55 <---- 93 (0)
[1]: 55 <---- 106 (0)
[1]: 56 <---- 78 (0)
[1]: 56 <---- 107 (0)
[1]: 56 <---- 95 (0)
[1]: 57 <---- 107 (0)
[1]: 57 <---- 77 (0)
[1]: 57 <---- 94 (0)
[1]: 58 <---- 95 (0)
[1]: 58 <---- 94 (0)
[1]: 58 <---- 69 (0)
[1]: 59 <---- 107 (0)
[1]: 59 <---- 94 (0)
[1]: 59 <---- 95 (0)
[1]: 60 <---- 76 (0)
[1]: 60 <---- 106 (0)
[1]: 60 <---- 108 (0)
[1]: 61 <---- 106 (0)
[1]: 61 <---- 77 (0)
[1]: 61 <---- 107 (0)
[1]: 62 <---- 108 (0)
[1]: 62 <---- 107 (0)
[1]: 62 <---- 78 (0)
[1]: 63 <---- 106 (0)
[1]: 63 <---- 107 (0)
[1]: 63 <---- 108 (0)
PetscSF Object: 2 MPI processes
  type not yet set
  [0] Number of roots=109, leaves=9, remote ranks=1
  [0] 65 <- (1,64)
  [0] 66 <- (1,65)
  [0] 68 <- (1,67)
  [0] 72 <- (1,70)
  [0] 73 <- (1,71)
  [0] 83 <- (1,79)
  [0] 84 <- (1,80)
  [0] 85 <- (1,81)
  [0] 86 <- (1,82)
  [1] Number of roots=109, leaves=0, remote ranks=0
  [0] Roots referenced by my leaves, by rank
  [0] 1: 9 edges
  [0]    65 <- 64
  [0]    66 <- 65
  [0]    68 <- 67
  [0]    72 <- 70
  [0]    73 <- 71
  [0]    83 <- 79
  [0]    84 <- 80
  [0]    85 <- 81
  [0]    86 <- 82
  [1] Roots referenced by my leaves, by rank