DM Object:Hybrid Mesh 1 MPI processes
  type: plex
Mesh 'Hybrid Mesh':
Max sizes cone: 3 support: 6
orientation is missing
cap --> base:
[0]: 8 ----> 0
[0]: 9 ----> 1
[0]: 9 ----> 5
[0]: 10 ----> 2
[0]: 10 ----> 4
[0]: 11 ----> 6
[0]: 12 ----> 0
[0]: 12 ----> 1
[0]: 12 ----> 3
[0]: 13 ----> 1
[0]: 13 ----> 2
[0]: 13 ----> 3
[0]: 13 ----> 4
[0]: 13 ----> 5
[0]: 13 ----> 7
[0]: 14 ----> 0
[0]: 14 ----> 2
[0]: 14 ----> 3
[0]: 15 ----> 5
[0]: 15 ----> 6
[0]: 15 ----> 7
[0]: 16 ----> 4
[0]: 16 ----> 6
[0]: 16 ----> 7
base <-- cap:
[0]: 0 <---- 8 (0)
[0]: 0 <---- 12 (0)
[0]: 0 <---- 14 (0)
[0]: 1 <---- 12 (0)
[0]: 1 <---- 9 (0)
[0]: 1 <---- 13 (0)
[0]: 2 <---- 14 (0)
[0]: 2 <---- 13 (0)
[0]: 2 <---- 10 (0)
[0]: 3 <---- 12 (0)
[0]: 3 <---- 13 (0)
[0]: 3 <---- 14 (0)
[0]: 4 <---- 10 (0)
[0]: 4 <---- 13 (0)
[0]: 4 <---- 16 (0)
[0]: 5 <---- 13 (0)
[0]: 5 <---- 9 (0)
[0]: 5 <---- 15 (0)
[0]: 6 <---- 16 (0)
[0]: 6 <---- 15 (0)
[0]: 6 <---- 11 (0)
[0]: 7 <---- 13 (0)
[0]: 7 <---- 15 (0)
[0]: 7 <---- 16 (0)