Setup pipesCase 2
0 TS dt 0.1 time 0
    Linear solve converged due to CONVERGED_RTOL iterations 5
    Linear solve converged due to CONVERGED_RTOL iterations 5
  Nonlinear solve converged due to CONVERGED_FNORM_RELATIVE iterations 2
1 TS dt 0.1 time 0.1
CONVERGED_ITS at time 0.1 after 1 steps
