  0 KSP Residual norm 1.196761032246e+01 
  1 KSP Residual norm 2.260797041766e+00 
  2 KSP Residual norm 4.750377960834e-01 
  3 KSP Residual norm 1.165410159448e-01 
  4 KSP Residual norm 1.572910416109e-02 
  5 KSP Residual norm 3.317461584472e-03 
  6 KSP Residual norm 6.400243020028e-04 
  7 KSP Residual norm 9.492710148085e-05 
KSP Object: 4 MPI processes
  type: gmres
    GMRES: restart=30, using Classical (unmodified) Gram-Schmidt Orthogonalization with no iterative refinement
    GMRES: happy breakdown tolerance 1e-30
  maximum iterations=10000, initial guess is zero
  tolerances:  relative=1e-05, absolute=1e-50, divergence=10000
  left preconditioning
  using PRECONDITIONED norm type for convergence test
PC Object: 4 MPI processes
  type: gasm
  Generalized additive Schwarz:
  Restriction/interpolation type: RESTRICT
  requested amount of overlap = 1
  total number of subdomains = 2
  max number of local subdomains = 1
  [0|4] number of locally-supported subdomains = 1
  [1|4] number of locally-supported subdomains = 1
  [2|4] number of locally-supported subdomains = 1
  [3|4] number of locally-supported subdomains = 1
  Subdomain solver info is as follows:
    - - - - - - - - - - - - - - - - - -
    [0|4] (subcomm [0|2]) local subdomain number 0, local size = 74
    [1|4] (subcomm [1|2]) local subdomain number 0, local size = 67
    KSP Object:    (sub_)     2 MPI processes
      type: preonly
      maximum iterations=10000, initial guess is zero
      tolerances:  relative=1e-05, absolute=1e-50, divergence=10000
      left preconditioning
      using NONE norm type for convergence test
    PC Object:    (sub_)     2 MPI processes
      type: lu
        LU: out-of-place factorization
        tolerance for zero pivot 2.22045e-14
        matrix ordering: natural
        factor fill ratio given 0, needed 0
          Factored matrix follows:
            Mat Object:             2 MPI processes
              type: mpiaij
              rows=141, cols=141
              package used to perform factorization: superlu_dist
              total: nonzeros=0, allocated nonzeros=0
              total number of mallocs used during MatSetValues calls =0
                SuperLU_DIST run parameters:
                  Process grid nprow 2 x npcol 1 
                  Equilibrate matrix TRUE 
                  Matrix input mode 1 
                  Replace tiny pivots TRUE 
                  Use iterative refinement FALSE 
                  Processors in row 2 col partition 1 
                  Row permutation LargeDiag 
                  Column permutation METIS_AT_PLUS_A
                  Parallel symbolic factorization FALSE 
                  Repeated factorization SamePattern_SameRowPerm
      linear system matrix = precond matrix:
      Mat Object:       2 MPI processes
        type: mpiaij
        rows=141, cols=141
        total: nonzeros=655, allocated nonzeros=655
        total number of mallocs used during MatSetValues calls =0
          not using I-node (on process 0) routines
    - - - - - - - - - - - - - - - - - -
    [2|4] (subcomm [0|2]) local subdomain number 0, local size = 71
    [3|4] (subcomm [1|2]) local subdomain number 0, local size = 73
    KSP Object:    (sub_)     2 MPI processes
      type: preonly
      maximum iterations=10000, initial guess is zero
      tolerances:  relative=1e-05, absolute=1e-50, divergence=10000
      left preconditioning
      using NONE norm type for convergence test
    PC Object:    (sub_)     2 MPI processes
      type: lu
        LU: out-of-place factorization
        tolerance for zero pivot 2.22045e-14
        matrix ordering: natural
        factor fill ratio given 0, needed 0
          Factored matrix follows:
            Mat Object:             2 MPI processes
              type: mpiaij
              rows=144, cols=144
              package used to perform factorization: superlu_dist
              total: nonzeros=0, allocated nonzeros=0
              total number of mallocs used during MatSetValues calls =0
                SuperLU_DIST run parameters:
                  Process grid nprow 2 x npcol 1 
                  Equilibrate matrix TRUE 
                  Matrix input mode 1 
                  Replace tiny pivots TRUE 
                  Use iterative refinement FALSE 
                  Processors in row 2 col partition 1 
                  Row permutation LargeDiag 
                  Column permutation METIS_AT_PLUS_A
                  Parallel symbolic factorization FALSE 
                  Repeated factorization SamePattern_SameRowPerm
      linear system matrix = precond matrix:
      Mat Object:       2 MPI processes
        type: mpiaij
        rows=144, cols=144
        total: nonzeros=670, allocated nonzeros=670
        total number of mallocs used during MatSetValues calls =0
          not using I-node (on process 0) routines
    - - - - - - - - - - - - - - - - - -
  linear system matrix = precond matrix:
  Mat Object:   4 MPI processes
    type: mpiaij
    rows=255, cols=255
    total: nonzeros=1211, allocated nonzeros=1211
    total number of mallocs used during MatSetValues calls =0
      not using I-node (on process 0) routines
